// 3865
//== Rationalization
== Розділ 21. Раціоналізація

// 3866
//Rowling is whoever does Rowling’s job.
// Ельвіра: Terry Pratchett, "Mort", Death is whoever does Death's job
РОЛІНҐ Є ТОЙ, ХТО ВИКОНУЄ РОБОТУ РОЛІНҐ.

***

// 3867
//Hermione Granger had worried she was turning Bad.
// копія 3879, тільки з прізвищем
Герміона Ґрейнджер хвилювалася, що стає поганою.

// 3868
//The difference between Good and Bad was usually easy to grasp, she’d never
//understood why other people had so much trouble. At Hogwarts, “Good” was
//Professor Flitwick and Professor McGonagall and Professor Sprout. “Bad” was
//Professor Snape and Professor Quirrell and Draco Malfoy. Harry Potter… was one
//of those unusual cases where you __couldn’t__ tell just by looking. She
//was still trying to figure out where he belonged.
Зазвичай вона чітко проводила межу між хорошим і поганим і не
розуміла, чому іншим це так складно. У Гоґвортсі хорошими
були професор Флитвік, професорка Макґонеґел, професорка Спраут. Поганими --
професор Снейп, професор Квірел, Драко Мелфой. А Гаррі Поттер... був одним із тих
нетипових випадків, що так відразу й не скажеш. Вона досі
намагалася з’ясувати, до кого він належав.

// 3869
//But when it came to __herself__…
Що ж стосується __її__...
// 3870
//Hermione was having __too much fun__ crushing Harry Potter.
Герміоні __аж занадто__ подобалося трощити Гаррі
Поттера.

// 3871
//She’d done better than him in every single class they’d taken. (Except for
//broomstick riding which was like gym class, it didn’t count.) She’d gotten
//__real__ House points almost every day of their first week, not for weird
//heroic things, but __smart__ things like learning spells quickly and
//helping other students. She knew those kinds of House points were better, and
//the best part was, Harry Potter knew it too. She could see it in his eyes every
//time she won another __real__ House point.
Вона випереджала його на всіх заняттях. (За винятком польотів
на мітлах, але це щось на кшталт фізкультури, не рахується.) Протягом першого тижня в Гоґвортсі її нагороджували
__справжніми__ очками гуртожитку майже щодня, і не за якісь чудернацькі геройства,
а за швидке опанування заклять, наприклад, чи допомогу іншим учням -- за __розумні__ речі.
Вона знала, що ці очки кращі, а особливо її тішило те, що Гаррі Поттер
теж це знав -- це проблискувало в його очах щоразу, коли вона здобувала чергове
__справжнє__ очко гуртожитку.

// 3872
//If you were Good, you weren’t supposed to enjoy winning this much.
А хорошим не годиться так сильно насолоджуватися перемогою.

// 3873
//It had started on the day of the train ride, though it had taken a while for
//the whirlwind to sink in. It wasn’t until later that night that Hermione had
//begun to realize just __how much__ she’d let that boy walk all over her.
Це почалося ще в потягу, але знадобився деякий час, щоб
поглинути весь цей вихор емоцій. Тільки ввечері того дня Герміона почала розуміти,
як жалюгідно вона дозволила по собі потоптатися.

// 3874
//Before she’d met Harry Potter she hadn’t had anyone she’d wanted to crush. If
//someone wasn’t doing as well as her in class, it was her job to help them, not
//rub it in. That was what it meant to be Good.
До зустрічі з Гаррі Поттером не існувало людини, що її б вона хотіла розтрощити. Якщо
хтось у класі справлявся гірше за неї, вона вважала своїм обов’язком допомогти, а
не втерти носа. Саме це й означало бути хорошою.

// 3875
//And now…
А тепер...

// 3876
//…now she was __winning__, Harry Potter was flinching every time she got
//another House point, and it was __so much__ fun, her parents had warned
//her against drugs and she suspected this was __more fun__ than that.
А тепер вона __перемагала__, і Гаррі Поттера сіпало щоразу, коли вона здобувала
чергове очко гуртожитку, і це було __так__ приємно. Батьки попереджали були її
триматися подалі від наркотиків, але вона підозрювала, що це __куди__ веселіше.

// 3877
//She’d always liked the smiles that teachers gave her when she did something
//right. She’d always liked seeing the long row of check-marks on a perfectly
//answered test. But now when she did well in class she would casually glance
//around and catch a glimpse of Harry Potter gritting his teeth, and it made her
//want to burst into song like a Disney movie.
Їй завжди подобались усмішки, якими її обдаровували вчителі за
правильні вчинки. Подобалося милуватися довгим рядком плюсиків навпроти
відповідей на своїй бездоганно виконаній контрольній. Але тепер, коли вона блискуче
справлялася на занятті й несамохіть озиралася навкруги, то краєм ока
помічала, як Гаррі Поттер скрегоче зубами. Від цього їй хотілося співати так
радісно, наче в діснеївському мультфільмі.

// 3878
//That was Bad, wasn’t it?
А це погано, чи не так?

// 3879
//Hermione had worried she was turning Bad.
// копія 3867, тільки без прізвища
Герміона хвилювалася, що стає поганою.
// 3880
//And then a thought had come to her which wiped away all her fears.
Та згодом вона збагнула дещо, що розвіяло всі її тривоги.

// 3881
//She and Harry were getting into a Romance! Of course! Everyone knew what it
//meant when a boy and a girl started fighting all the time. They were
//__courting__ one another! There was nothing Bad about __that.__
У них із Гаррі завʼязується роман! Звісно! Всі знають, що це
означає, коли хлопець і дівчина починають постійно змагатися. Вони одне до
одного __залицяються__! У __цьому__ не було нічого поганого.

// 3882
//It couldn’t be that she just __enjoyed__ beating the living scholastic
//daylights out of the most famous student in the school, someone who was
//__in__ books and __talked__ like books, the boy who had somehow
//vanquished the Dark Lord and even smushed __Professor Snape__ like a sad
//little bug, the boy who was, as Professor Quirrell would have put it, dominant,
//over everyone else in first-year Ravenclaw __except__ for Hermione Granger
//who was utterly __squishing__ the Boy-Who-Lived in all his classes besides
//broomstick riding.
// Ельвіра: оце має бути одне речення. Так має бути. Правда.
Не могла ж вона просто так із насолодою оббивати все схоластичне
пір’я з найвідомішого учня школи -- того, хто __був__ у книжках, ще й __розмовляв__,
наче зійшов зі сторінок якоїсь із них; хлопця, що якось здолав Темного Лорда й навіть місця мокрого не залишив від
__професора Снейпа__, наче той був надокучливим жалюгідним жучком; хлопця, що, як сказав би
професор Квірел, домінував над усіма іншими першокласниками з Рейвенклову,
__крім__ Герміони Ґрейнджер, що ґрандіозно __громила__ Хлопчика-Що-Вижив
на всіх заняттях, крім польотів на мітлах.

// 3883
//Because that would have been Bad.
Бо це було б погано.

// 3884
//No. It was Romance. __That__ was it. __That__ was why they were
//fighting.
Ні. Це роман. Саме він. Саме тому вони
змагаються.

// 3885
//Hermione was glad she had figured this out in time for today, when Harry would
//lose their book-reading contest, which the __whole school__ knew about,
//and she wanted to start __dancing__ with the sheer overflowing joy of it.
Герміона невимовно раділа, що вчасно це з’ясувала, адже сьогодні настав той день,
коли Гаррі програє їхнє змагання з читання книжок, про яке знала вся школа.
Радість била в ній через край, аж у танок хотілося пуститися.

// 3886
//It was 2:45pm on Saturday and Harry Potter had half of Bathilda Bagshot’s
//__A History of Magic__ left to read and she was staring at her pocket
//watch as it ticked with dreadful slowness toward 2:47pm.
Субота, 14:25. Гаррі Поттерові залишалося
прочитати ще половину "`Історії магії`" Батільди Беґшот. Герміона витріщалася
на свій кишеньковий годинник, що надзвичайно повільно цокав у напрямку
14:47.

// 3887
//And the entire Ravenclaw common room was watching.
Вся рейвенкловська вітальня спостерігала за ними, 
// 3888
//It wasn’t just the first-years, news had spread like spilled milk and fully
//half of Ravenclaw was crowded into the room, squeezed into sofas and leaning on
//bookcases and sitting on the arms of chairs. All six prefects were there
//including the Head Girl of Hogwarts. Someone had needed to cast an
//Air-Freshening Charm just so that there would be enough oxygen. And the din of
//conversation had died into whispers which had now faded into utter silence.
і не тільки першокласники. Новини розтеклися, немов розлите молоко,
і не менш ніж половина рейвенкловців набилася до кімнати, втиснувшись на дивани,
притулившись до книжкових шаф і повсідавшись на бильця крісел. Тут були всі
шість старост, включно зі старостою школи. Довелося застосувати чари свіжого
повітря, щоб усім вистачило кисню. Гомоніння поволі перетворилося на
шепотіння, а згодом ущухло й воно. Запанувала цілковита тиша.

// 3889
//2:46pm.
14:46.

// 3890
//The tension was unbearable. If it had been anyone else, __anyone__ else,
//his defeat would have been a foregone conclusion.
Напруга була нестерпною. Якби йшлося про когось іншого, __будь-кого__, його
поразку вже визнали б неминучою.
// 3891
//But this was Harry Potter, and you couldn’t rule out the possibility that he
//would, sometime in the next few seconds, raise a hand and snap his fingers.
Але перед ними сидів Гаррі Поттер, і не можна було відкидати можливости того, що протягом
кількох наступних секунд він здійме руку й клацне пальцями.

// 3892
//With sudden terror she realized how Harry Potter might be able to do exactly
//that. It would be __just like him__ to have __already finished
//reading__ the second half of the book earlier…
Зненацька Герміоною оволодів жах від усвідомлення, що саме так Гаррі Поттер
міг учинити. Це було б геть у його стилі: прочитати другу половину
книжки заздалегідь...
// 3893
//Hermione’s vision began to swim. She tried to make herself breathe, and found
//that she simply couldn’t.
Перед очима їй усе попливло. Вона спробувала змусити себе ковтнути повітря, але
безуспішно.

// 3894
//Ten seconds left, and he still hadn’t raised his hand.
Залишалося десять секунд, а він все ще не здійняв руки{stress}.

// 3895
//Five seconds left.
П’ять секунд.

// 3896
//2:47pm.
14:47.

// 3897
//Harry Potter carefully placed a bookmark into his book, closed it, and laid it
//aside.
Гаррі Поттер дбайливо поклав закладку, згорнув книжку й відклав її.

// 3898
//“I would like to note for the benefit of posterity,” said the Boy-Who-Lived in
//a clear voice, “that I had only half a book left, and that I ran into a number
//of unexpected delays -”
-- Я хотів би зауважити для нащадків, -- спокійно виголосив Хлопчик-Що-Вижив,
-- що мені залишилася лише половина книжки, а ще я зіткнувся з кількома
неочікуваними обставинами...

// 3899
//“__You lost!__” shrieked Hermione. “You __did! __You __lost our
//contest!__”
-- Ти програв! -- верескнула Герміона. -- __Програв!__ Ти __програв у
нашому змаганні__!

// 3900
//There was a collective exhalation as everyone started breathing again.
Усі присутні заразом згадали, як дихати.

// 3901
//Harry Potter shot her a Look of Flaming Fire, but she was floating in a halo of
//pure white happiness and nothing could touch her.
// @ Look of Flaming Fire
Гаррі Поттер окинув її нищівним поглядом, але вона вже пливла в ореолі чистого,
незаплямованого щастя, і ніщо не могло її зачепити.

// 3902
//“__Do you realize what kind of week I’ve had?__” said Harry Potter. “Any
//lesser being would have been hard-pressed to read eight Dr. Seuss books!”
// hedrok: https://uk.wikipedia.org/wiki/Доктор_Сьюз
-- __Ти хоч розумієш, що за тиждень я мав?__ -- спитав він.
-- Будь-яка нижча істота була б надто завантаженою навіть для того, щоб прочитати
вісім книжок доктора Сьюза!

// 3903-
//“__You__ set the time limit.”
-- Часові рамки встановлював __ти__.

// 3904
//Harry’s Look of Flaming Fire grew even hotter. “I did not have any logical way
//of knowing I’d have to save the entire school from Professor Snape, or get
//beaten up in Defense class, and if I told you how I lost all the time between
//5pm and dinner on Thursday you would think I was insane -”
Гаррін погляд став навіть більш нищівним:

-- Не було жодного логічного способу передбачити, що мені доведеться рятувати всю
школу від професора Снейпа чи терпіти штурхани на уроці захисту, а якщо я розповім,
куди подівся весь мій час між 17:00 і вечерею в четвер, ти подумаєш,
що я збожеволів...

// 3905
//“Awww, it sounds like __someone__ fell prey to the __planning
//fallacy.__”
-- Оу-у-у, здається, хтось тут став жертвою омани планування.

// 3906
//Raw shock showed on Harry Potter’s face.
На обличчі Гаррі Поттера відобразився неприхований подив.

// 3907
//“Oh that reminds me, I finished reading the first batch of books you lent me,”
//Hermione said with her best innocent look. A couple of them had been
//__hard__ books, too. She wondered how long it had taken __him__ to
//finish reading them.
-- О, до речі, я дочитала першу порцію твоїх книжок,
-- Герміона прибрала найневиннішого вигляду, на який тільки спромоглася.

Серед них трапилося кілька __складних__. Цікаво, за скільки часу він їх прочитав.

// 3908
//“Someday,” said the Boy-Who-Lived, “when the distant descendants of
//__Homo sapiens __are looking back over the history of the galaxy and
//wondering how it all went so wrong, they will conclude that the original
//mistake was when someone taught Hermione Granger how to read.”
-- Одного дня, -- сказав Хлопчик-Що-Вижив, -- далекі нащадки Homo
sapiens озирнуться назад, запитуючи себе, чому
ж усе полетіло шкереберть, і дійдуть висновку, що фатальним для історії галактики став
день, коли хтось навчив Герміону Ґрейнджер читати.

// 3909
//“But you still lose,” said Hermione. She held a hand to her chin and looked
//contemplative. “Now what exactly should you lose, I wonder?”
-- А втім, ти програв, -- Герміона задумливо підперла підборіддя рукою.
-- Цікаво, що саме ти програв, га?

// 3910
//“__What?__”
-- __Що?__

// 3911
//“You lost the bet,” Hermione explained, “so you have to pay a forfeit.”
-- Ти програв закла{stress}д, -- пояснила Герміона, -- і повинен тепер заплатити.

// 3912
//“I don’t remember agreeing to this!”
-- Щось не пригадую, щоб я на таке погоджувався!

// 3913
//“Really?” said Hermione Granger. She put a thoughtful look on her face. Then,
//as if the idea had only just then occurred to her, “We’ll take a vote, then.
//Everyone in Ravenclaw who thinks Harry Potter has to pay up, raise your hand!”
-- Справді? -- Герміона зробила замислене обличчя. А потім, наче це щойно спало їй
на думку: -- Проголосуймо. Усі в Рейвенклові, хто вважає, що Гаррі Поттер повинен
розплатитися, підніміть руку!

// 3914
//“__What?__” shrieked Harry Potter again.
-- __Що?__ -- знову скрикнув Гаррі,
// 3915
//He spun around and saw that he was surrounded by a sea of raised hands.
обернувся й побачив навколо себе ліс здійнятих рук.

// 3916
//And if Harry Potter had looked __more carefully__, he would have noticed
//that an awful lot of the onlookers seemed to be girls and that practically
//every female in the room had their hand raised.
Та якби він придивився __уважніше__, то помітив би, що переважну більшість
глядачів становили дівчата й що практично кожна присутня представниця жіноцтва
підвела руку.

// 3917
//“Stop!” wailed Harry Potter. “You don’t know what she’s going to ask! Don’t you
//__realize__ what she’s doing? She’s getting you to make an advance
//commitment now, and then the pressure of consistency will make you agree with
//whatever she says afterward!”
// Ельвіра: commitment з Чалдині.
// @ pressure of consistency - якщо хтось знає психологічний термін
-- Зупиніться! -- заволав Гаррі Поттер. -- Ви ж не знаєте, що вона попросить!
Невже ви не усвідомлюєте, що саме вона робить? Ви візьмете на себе попереднє
зобов’язання, а тоді тиск послідовности вчинків змусить вас погодитися з усім, що
вона скаже!

// 3918
//“Don’t worry,” said the prefect Penelope Clearwater. “If she asks for something
//unreasonable, we can just change our minds. Right, everyone?”
-- Не хвилюйся, -- промовила староста Пенелопа Клірвотер. -- Якщо вона попросить чогось
надмірного, ми просто передумаємо. Всі згодні?

// 3919
//And there were eager nods from all the girls whom Penelope Clearwater had told
//about Hermione’s plan.
Усі дівчата, яким Пенелопа Клірвотер розказала про Герміонин план, енергійно закивали
головами.

***

// 3920
//A silent figure quietly slipped through the chilled halls of the Hogwarts
//dungeons. He was to be present in a certain room at 6:00pm to meet a certain
//someone, and if at all possible it was best to be early, to show respect.
Безмовна постать тихо ковзала холодними коридорами гоґвортських підземель.
О 18:00 він мав зустрітися в певній кімнаті
з певною людиною, і за можливости краще з’явитися раніше, щоб виказати повагу.

// 3921
//But when his hand turned the doorknob and opened the door into that dark,
//silent, unused classroom, there was a silhouette already standing there amid
//the rows of dusty old desks. A silhouette which held a small green glowing rod,
//casting a pale light which hardly illuminated even he who held it, let alone
//the surrounding room.
Однак, повернувши ручку й прочинивши двері до цього темного й тихого закинутого класу,
він побачив силует, що вже стояв між рядами старих запилюжених столів.
Паличка в його руках випромінювала тьмяне зелене світіння, якого ледве
вистачало, щоб роздивитися сам силует, не кажучи вже про кімнату
навколо.

// 3922
//The light of the hallway died as the door closed and shut behind him, and
//Draco’s eyes began the process of adjusting to the dim glow.
Двері зачинилися, приховавши за собою світло з коридору. Дракові очі почали
звикати до напівтемряви, а
// 3923
//The silhouette slowly turned to behold him, revealing a shadowed face only
//partially lit by the eerie green light.
силует повільно повернувся до нього -- обличчя залишилося в тіні,
моторошні зеленуваті відблиски лиш злегка торкалися його.

// 3924
//Draco liked this meeting already. Keep the chill green light, make them both
//taller, give them hoods and masks, move them from a classroom to a graveyard,
//and it would be just like the start of half the stories his father’s friends
//told about the Death Eaters.
Драко вже подобалася ця зустріч. От якби залишити холодне зелене світло, зробити їх обох
вищими, вдягти на них маски й каптури, перенести з класу на кладовище
-- і стане зовсім як у тих оповідках про смертежерів,
що їх він чув від батькових друзів. Половина з них починалася точнісінько так.

// 3925
//“I want you to know, Draco Malfoy,” said the silhouette in tones of deadly
//calm, “that I do not blame you for my recent defeat.”
-- Я хочу, щоб ти знав, Драко Мелфою, -- промовив силует цілковито спокійно,
-- я не звинувачую тебе в моїй нещодавній поразці.

// 3926
//Draco opened his mouth in unthinking protest, there was no possible reason why
//he __should__ be blamed -
Драко тільки рота роззявив: а він яким боком тут
взагалі міг бути винним?

// 3927
//“It was due, more than anything else, to my own stupidity,” continued that
//shadowy figure. “There were many other things I could have done, at any step
//along the way. You did not ask me to do __exactly__ what I did. You only
//asked for help. I was the one who unwisely chose that particular method. But
//the fact remains that I lost the contest by half a book. The actions of your
//pet idiot, and the favor you asked for, and, yes, my own foolishness in going
//about it, caused me to __lose time__. More time than you know. Time which,
//in the end, proved critical. The fact remains, Draco Malfoy, that if you had
//not asked that favor, I __would__ have won. And not… instead…
//__lost__.”
-- Це сталося насамперед через мою власну дурість, -- провадила далі затінена
постать. -- Існувало чимало речей, що їх я міг зробити на кожному етапі тієї події. Ти
не просив мене __саме цього__. Ти всього-на-всього попросив моєї допомоги. А я був тим,
хто нерозумно вибрав саме цей спосіб. Але факт лишається фактом: я програв змагання
з різницею в половину книжки. Дії твого ручного бовдура, послуга, про яку ти попросив,
і, звісно, моя власна дурість коштували мені __часу__. Більше часу, ніж ти
гадаєш. Часу, який, зрештою, виявився критичним. Факт лишається фактом, Драко Мелфою:
якби ти не попросив тієї послуги, я б __переміг__. А не... натомість...
__програв__.

// 3928
//Draco had already heard about Harry’s loss, and the forfeit Granger had claimed
//from him. The news had spread faster than owls could have carried it.
Драко вже чув про Гарріну поразку й про плату, яку з нього стягла Ґрейнджер.
Новини поширилися швидко. Навіть сови не змогли б рознести їх швидше.

// 3929
//“I understand,” Draco said. “I’m sorry.” There was nothing else he
//__could__ say if he wanted Harry Potter to be friends with him.
-- Я зрозумів. Мені шкода.

Якщо він хотів подружитися з Гаррі Поттером, іншої відповіді пролунати не могло.

// 3930
//“I am not asking for understanding or sorrow,” said the dark silhouette, still
//with that deadly calm. “But I have just spent two full hours in the presence of
//Hermione Granger, dressed in such clothing as was provided me, visiting such
//fascinating places in Hogwarts as a tiny burbling waterfall of what looked to
//me like snot, accompanied by a number of other girls who insisted on such
//helpful activities as strewing our path with Transfigured rose petals. I have
//been on a date, scion of Malfoy. My __first__ date. __And when I
//call that favor due, you will pay it.__”
-- Я не потребую розуміння чи співчуття, -- темний силует досі звучав цілковито
спокійно. -- Але щойно я пробув дві години в присутності Герміони Ґрейнджер,
вдягнений у одяг, який мені дали, відвідуючи чудові гоґвортські місцини на кшталт
крихітного водоспаду, у якому булькало щось схоже на шмарклі. І все це в
супроводі кількох інших дівчат, які наполегливо посипали наш шлях трансфігурованими
пелюстками троянд. Я був на побаченні, нащадку Мелфоїв. На своєму __першому__
побаченні. __І ти як слід відплатиш за цю послугу -- варто мені лиш зажадати.__

// 3931
//Draco nodded solemnly. Before arriving he had taken the wise precaution of
//learning every available detail of Harry’s date, so that he could get all of
//his hysterical laughing done before their appointed meeting time, and would not
//commit a __faux pas__ by giggling continuously until he lost
//consciousness.
Драко врочисто кивнув. Він ухвалив мудре рішення вивчити кожну доступну деталь
Гарріного побачення завчасно й істерично нареготатися ще до того, як
прибуде на зустріч, щоб не вчинити __faux pas__,
втративши свідомість через невпинне хихотіння.

// 3932
//“Do you think,” Draco said, “that something sad ought to happen to the Granger
//girl -”
-- Як гадаєш, може, з цією Ґрейнджер має трапитися щось погане?..

// 3933
//“Spread the word in Slytherin that the Granger girl is __mine__ and anyone
//who meddles in __my__ affairs will have their remains scattered over an
//area wide enough to include twelve different spoken languages. And since I am
//not in Gryffindor and I use __cunning__ rather than immediate frontal
//attacks, they should not panic if I am seen smiling at her.”
-- Передай слизеринцям, що ця Ґрейнджер __моя__. Будь-хто, хто втручатиметься
в __мої__ справи, знайде свої рештки розкиданими по території такій великій, що
вона охоплює дванадцять різних мовних просторів. А з огляду на те, що я не
ґрифіндорець і використовую __хитрість__ замість негайної лобової атаки, нехай не
панікують, якщо я їй усміхатимуся.

// 3934
//“Or if you’re seen on a second date?” Draco said, allowing just a tiny note of
//skepticism into his voice.
-- Чи якщо ви підете на друге побачення? -- Драко дозволив
крихітній нотці скептицизму закрастися в його голос.

// 3935
//“__There will be no second date,__” said the green-lit silhouette in a
//voice so fearsome that it sounded, not only like a Death Eater, but like Amycus
//Carrow that one time just before Father told him to stop it, he wasn’t the Dark
//Lord.
-- __Другого побачення не буде__, -- грізно заявив освітлений зеленим силует:
не просто як смертежер, а як Амікус Керроу того разу, коли
батько зупинив його, зауваживши, що той не Темний Лорд.

// 3936
//Of course it __was__ still a young boy’s high unbroken voice and when you
//combined that with the __actual words__, well, it just didn’t work. If
//Harry Potter __did__ become the next Dark Lord someday, Draco would use a
//Pensieve to store a copy of this memory somewhere safe, and Harry Potter would
//never dare betray him.
Звісно, це все ще був високий хлопчачий голос, який ще не почав ламатися, а в поєднанні з цими
словами... якось не вражав. Якщо Гаррі Поттер таки стане одного дня
наступним темним лордом, Драко слід буде заховати сито спогадів із копією цієї
миті в якомусь безпечному місці. Гаррі Поттер ніколи не наважиться його зрадити.

// 3937
//“But let us talk of happier matters,” said the green-shadowed figure. “Let us
//talk of knowledge and of power. Draco Malfoy, let us talk of Science.”
-- Але перейдімо до приємніших тем.
Поговорімо про знання й про могутність, Драко Мелфою. Поговорімо про науку.

// 3938
//“Yes,” said Draco. “Let us speak.”
-- Так, поговорімо.

// 3939
//Draco wondered how much of his own face could be seen, and how much was in
//shadow, in that eerie green light.
Драко стало цікаво, яка частина його обличчя залишалася в тіні, а яку було видно
в цьому моторошному зеленому світлі.
// 3940
//And though Draco kept his face serious, there was a smile in his heart.
І хоча він зберігав серйозне обличчя, серце його співало.
// 3941
//He was __finally__ having a real grownup conversation.
Справжня доросла бесіда -- __ну нарешті__.

// 3942
//“I offer you power,” said the shadowy figure, “and I will tell you of that
//power and its price. The power comes from knowing the shape of reality and so
//gaining control over it. What you understand, you can command, and that is
//power enough to walk upon the Moon. The price of that power is that you must
//learn to ask questions of Nature, and far more difficult, accept Nature’s
//answers. You will do experiments, perform tests and see what happens. And you
//must accept the meaning of those results when they tell you that you are
//mistaken. You will have to __learn how to lose__, not to me, but to
//Nature. When you find yourself arguing with reality, you will have to let
//reality win. You will find this painful, Draco Malfoy, and I do not know if you
//are strong in that way. Knowing the price, is it still your wish to learn the
//human power?”
-- Я пропоную тобі силу, -- сказала затінена постать, -- і я розповім тобі
про цю силу та її ціну. Сила полягає в здобутті влади над реальністю шляхом
розуміння її сутности. Розуміння дає контроль, і цього достатньо,
щоб крокувати поверхнею Місяця. Ціна такої могутности -- вміння ставити
природі питання та, що куди складніше, приймати її відповіді. Ти ставитимеш
досліди, експерименти й дивитимешся, що відбудеться. І ти муситимеш
коритися висновкам, що випливатимуть із цих результатів, навіть якщо вони доводитимуть,
що ти помиляєшся. Ти муситимеш __навчитися програвати__ -- не мені, природі.
Зрозумівши, що ти сперечаєшся з реальністю, тобі слід буде дати реальності перемогти.
Це буде болісно для тебе, Драко Мелфою, і я не певен, чи досить ти сильний
для цього. Знаючи ціну, чи бажаєш ти все ще опанувати силу людей?

// 3943
//Draco took a deep breath. He’d thought about this. And it was hard to see how
//he could answer any other way. He’d been instructed to take every avenue of
//friendship with Harry Potter. It was just __learning,__ he wasn’t
//promising to __do__ anything. He could always stop the lessons at any
//time…
Драко глибоко вдихнув. Він думав був про це, але не міг уявити
якоїсь інакшої відповіді. Йому дали інструкції: скористатися будь-якою
можливістю завести дружбу з Гаррі Поттером. Це лише __навчання__,
він не обіцяв чогось __робити__. І він зможе припинити їхні заняття будь-якої миті...

// 3944
//There were certainly any number of things about the situation which made it
//look like a trap, but in all honesty, Draco didn’t see how this could go wrong.
Ситуація, очевидно, багато в чому скидалася на пастку, однак Драко, чесно кажучи, не розумів,
що може піти не так.
// 3945
//Plus Draco did kind of want to rule the world.
До того ж він, взагалі-то, хотів керувати світом.

// 3946
//“Yes,” said Draco.
-- Так, -- запевнив Драко.

// 3947
//“Excellent,” said the shadowy figure. “I have had something of a
//__crowded week__, and it will take time to plan your curriculum -”
-- Чудово. Це був доволі клопіткий тиждень, і я потребуватиму деякого часу,
щоб скласти для тебе навчальний план...

// 3948
//“I’ve got a lot of things I need to do myself to consolidate my power in
//Slytherin,” said Draco, “not to mention homework. Maybe we should just start in
//October?”
-- Я також маю чимало справ, які потрібно завершити, щоб закріпити свій вплив у Слизерині,
не згадуючи вже про домашні завдання. Можливо, варто почати з жовтня?

// 3949
//“Sounds sensible,” said the shadowy figure, “but what I meant to say is that to
//plan your curriculum, I need to know what I will be teaching you. Three
//thoughts come to me. The first is that I teach you of the human mind and brain.
//The second option is that I teach you of the physical universe, those arts
//which lie on the pathway to visiting the Moon. This involves a great deal of
//numbers, but to a certain kind of mind those numbers are more beautiful than
//anything else Science has to teach. Do you like numbers, Draco?”
-- Звучить розумно, але це не те, що я збирався сказати. Щоб скласти твій навчальний
план, я маю знати, чого тебе навчатиму. Мені на думку спали три речі.
Перша: людський розум і мозок. Друга: матеріальний
всесвіт, наука того, як досягти Місяця. Це охоплює величезний обсяг роботи з числами,
але для певного типу розуму ці числа можуть бути прекраснішими за будь-що інше, чого здатна
навчити наука. Тобі подобаються числа, Драко?

// 3950
//Draco shook his head.
Той похитав головою.

// 3951
//“Then so much for that. You will learn your mathematics eventually, but not
//right away, I think. The third option is that I teach you of genetics and
//evolution and inheritance, what you would call blood -”
-- Тоді з цим розібралися. Зрештою, ти вивчатимеш математику, але не відразу,
гадаю. Третій варіант: вивчати генетику, еволюцію та спадковість, те, що ти
назвав би кров’ю...

// 3952
//“That one,” said Draco.
-- Ось це, -- відповів Драко.

// 3953
//The figure nodded. “I thought you might say as much. But I think it will be the
//most painful path for you, Draco. What if your family and friends, the blood
//purists, say one thing, and you find that the experimental test says another?”
-- Так я і думав, -- постать кивнула. -- Але, гадаю, цей шлях виявиться для тебе найбільш болісним.
Що як твоя сім’я і друзі -- поборники чистоти крови -- говоритимуть одне, а
експерименти -- інше?

// 3954
//“Then I’ll figure out how to make the experimental test say the __right__
//answer!”
// ! Ок, тож я хотіла зробити тут answers - результати, але потім передумала
// ! Тож перш ніж виправляти, прочитайте принаймні до 3958 С:
-- Тоді я знайду спосіб зробити так, щоб експерименти давали
__правильні__ відповіді!

// 3955
//There was a pause, as the shadowy figure stood there with its mouth open for a
//short while.
На деякий час запала тиша. Затінена постать стояла, роззявивши рота.

// 3956
//“Um,” said the shadowy figure. “It doesn’t really work like that. That’s what I
//was trying to warn you about here, Draco. You __can’t __make the answer
//come out to be anything you like.”
-- Е-е, -- протягнула вона. -- Це так не працює. Саме про це я намагаюся
тебе попередити, Драко. Ти __не можеш__ змусити відповіді бути такими,
якими тобі хочеться.

// 3957
//“You can __always__ make the answer come out your way,” said Draco. That
//had been practically the first thing his tutors had taught him. “It’s just a
//matter of finding the right arguments.”
-- __Завжди__ можна здобути потрібну відповідь, -- заперечив Драко. Це було фактично
першим, чого він навчився від репетиторів. -- Варто лише дібрати правильні
аргументи.

// 3958
//“No,” said the shadowy figure, voice rising in frustration, “no, no, no! Then
//you get the __wrong answer__ and you can’t go to the Moon that way! Nature
//isn’t a person, you can’t trick them into believing something else, if you try
//to tell the Moon it’s made of cheese you can argue for days and it won’t change
//the Moon! What you’re talking about is __rationalization__, like starting
//with a sheet of paper, moving straight down to the bottom line, using ink to
//write ‘and __therefore,__ the Moon is made of cheese’, and then moving
//back up to write all sorts of clever arguments above. But either the Moon is
//made of cheese or it isn’t. The moment you wrote the bottom line, it was
//already true or already false. Whether or not the whole sheet of paper ends up
//with the right conclusion or the wrong conclusion is fixed the instant you
//write down the bottom line. If you’re trying to pick between two expensive
//trunks, and you like the shiny one, it doesn’t matter what clever arguments you
//come up with for buying it, the __real __rule you used to __choose
//which trunk to argue for __was ‘pick the shiny one’, and however effective that
//rule is at picking good trunks, that’s the kind of trunk you’ll get.
//Rationality __can’t__ be used to argue for a fixed side, its only possible
//use is __deciding which side to argue__. Science isn’t for
//__convincing__ anyone that the blood purists are right. That’s
//__politics!__ The power of science comes from __finding out the way
//Nature really is that can’t be changed by arguing!__ What science __can
//__do is tell us __how blood really works,__ how wizards really inherit
//their powers from their parents, and whether Muggleborns are really weaker or
//stronger -”
// @ which trunk to argue for
// Ельвіра: https://uk.wikipedia.org/wiki/Раціоналізація останні два визначення
-- Ні, -- голос затіненої постаті повищав від розчарування, -- ні, ні, ні!
Тоді ти здобудеш __неправильну відповідь__ і ніколи не досягнеш Місяця! Природа
не людина, не можна обманом змусити її вірити в щось інше. Спробуй переконати Місяць,
що його зроблено із сиру, однак сперечайся хоч тиждень -- він від цього не зміниться!
Ти говориш про раціоналізацію. Це наче взяти аркуш паперу й відразу записати внизу:
"`Отже, Місяць зроблено із сиру`", а потім наводити над цим твердженням усілякі розумні
доводи. Але Місяць або зроблено із сиру, або ні. Щойно ти написав нижній рядок, він
уже був або істинним, або хибним. Закінчується весь цей аркуш паперу правильним
висновком чи неправильним -- вирішено вже тієї миті, коли ти записуєш нижній рядок.
Якщо ти вагаєшся між двома коштовними валізами і тобі подобається
блискуча, не має значення, які резонні підстави ти назвеш для її купівлі.
Справжнім правилом, яким ти керувався, __визначаючи, на користь якої валізи
наводити доводи__, було: "`Вибери блискучу`". І саме таку валізу ти отримаєш, незалежно від
того, наскільки ефективним є це правило для вибирання якісних валіз. Раціональність
не можна використовувати для того, щоб виступати за певну сторону, її єдине
можливе використання -- __вирішити, за яку сторону виступати__.
Переконувати когось у тому, що поборники чистоти крови мають рацію, -- це не наука,
це __політика__! Сила науки полягає в __з’ясуванні істинної сутности природи,
суперечками цього не зміниш__! Наука може пояснити нам, як насправді
працює кров, як насправді чарівники успадковують свої здібності від батьків
і які насправді чарівники маґлівського роду -- слабші чи сильніші...

// 3959
//“__Stronger!__” said Draco. He had been trying to follow this, a puzzled
//frown on his face, he could see how it __sort__ of made sense but it
//certainly wasn’t like anything he’d ever heard before. And then Harry Potter
//had said something Draco couldn’t possibly let pass. “You think mudbloods are
//__stronger?__”
-- __Сильніші!__ -- Драко спантеличено насупився. Він намагався встежити за
всім цим і, в принципі, погоджувався, що це мало сенс, хоч і ніколи раніше не чув
нічого подібного. А тоді Гаррі Поттер зронив слова, на які він аж ніяк не міг змовчати.
-- Ти думаєш, що бруднокровці __сильніші__?

// 3960
//“I think nothing,” said the shadowy figure. “I know nothing. I believe nothing.
//My bottom line is not yet written. I will figure out how to test the magical
//strength of Muggleborns, and the magical strength of purebloods. If my tests
//tell me that Muggleborns are weaker, I will believe they are weaker. If my
//tests tell me that Muggleborns are stronger, I will believe they are stronger.
//Knowing this and other truths, I will gain some measure of power -”
-- Я нічого не думаю. Я нічого не знаю. Я ні в що не вірю. Мій нижній рядок ще
не написано. Я придумаю, як випробувати магічну силу чарівників маґлівського роду
й магічну силу чистокровних. Якщо мої досліди покажуть, що чарівники
маґлівського роду слабші, я повірю, що вони слабші. Якщо мої досліди покажуть, що
чарівники маґлівського роду сильніші, я повірю, що вони сильніші. За допомогою цих
та інших знань я здобуду певну владу...

// 3961
//“And you expect __me__ to believe whatever you say?” Draco demanded hotly.
-- І ти очікуєш, що __я__ повірю, хай що ти скажеш? -- у запалі перебив Драко.

// 3962
//“I expect you to perform the tests __personally__,” said the shadowy
//figure quietly. “Are you afraid of what __you__ will find?”
-- Я очікую, що ти __особисто__ виконаєш ці досліди, -- спокійно відповіла затінена
постать. -- Чи ти боїшся того, що ти дізнаєшся?

// 3963
//Draco stared at the shadowy figure for a while, his eyes narrowed. “Nice trap,
//Harry,” he said. “I’ll have to remember that one, it’s new.”
Якийсь час Драко, примруживши очі, дивився на затінену постать.

-- Гарна пастка, Гаррі, -- озвався він. -- Треба запам’ятати її на майбутнє.

// 3964
//The shadowy figure shook his head. “It’s not a trap, Draco. Remember - I
//__don’t know__ what we’ll find. But you do not understand the universe by
//arguing with it or telling it to come back with a different answer next time.
//When you put on the robes of a scientist you must forget all your politics and
//arguments and factions and sides, silence the desperate clingings of your mind,
//and wish only to hear the answer of Nature.” The shadowy figure paused. “Most
//people can’t do it. That’s why this is difficult. Are you sure you wouldn’t
//rather just learn about the brain?”
-- Це не пастка, Драко, -- постать похитала головою. -- Пам’ятай: я __не знаю__, що ми з’ясуємо. Проте ти не
можеш зрозуміти всесвіт, сперечаючись із ним чи вимагаючи від нього прийти іншим
разом з іншою відповіддю. Одягнувши мантію науковця, ти мусиш забути
про політику, суперечки, фракції та сторони, вгамувати відчайдушні спроби розуму
вчепитися за звичне й жадати лише одного: почути відповідь природи, --
виникла невеличка пауза.
-- Більшість людей не здатна на це. Ось чому це складно. Певен, що не хочеш
просто вивчати мозок?

// 3965
//“And if I tell you I’d rather learn about the brain,” Draco said, his voice now
//hard, “you’ll go around telling people that I was afraid of what I’d find.”
-- І якщо я скажу, що радше вивчатиму мозок, -- промовив Драко твердо, --
ти патякатимеш усім, буцімто я злякався того, що можу дізнатися.

// 3966
//“No,” said the shadowy figure. “I will do no such thing.”
-- Ні. Я нічого такого не робитиму.

// 3967
//“But you might do the same sort of tests yourself, and if you got the wrong
//answer, I wouldn’t be there to say anything before you showed it to someone
//else.” Draco’s voice was still hard.
-- Проте ти можеш виконати ці досліди самостійно. І якщо ти отримаєш неправильну
відповідь, мене не буде поруч, щоб зупинити тебе, перш ніж ти покажеш її комусь
іншому, -- голос Драко не втрачав твердости.

// 3968
//“I would still ask you first, Draco,” the shadowy figure said quietly.
-- Спершу я спитаю в тебе, Драко, -- тихо запевнила затінена постать.

// 3969
//Draco paused. He hadn’t been expecting that, he’d thought he saw the trap but…
//“You __would?__”
Драко трохи помовчав. Цього він не очікував. Він гадав, що бачить пастку, але...

-- Справді?

// 3970
//“Of course. How would __I __know who to blackmail or what we could ask
//from them? Draco, I say again that this is not a trap I set for you. At least
//not for you personally. If your politics were different, I would be saying,
//what if the test shows that purebloods are stronger.”
-- Звісно. Звідки __мені__ знати, кого шантажувати й чого вимагати?
Повторюю: це не пастка для тебе. Принаймні не особисто для тебе. Якби твої
політичні погляди були іншими, я б питав: а що як дослід покаже, що чистокровні
чарівники сильніші?

// 3971
//“Really.”
-- Невже.

// 3972
//“__Yes!__ That’s the price __anyone__ has to pay to become a
//scientist!”
-- Так! Це ціна, яку __будь-хто__ має заплатити, щоб стати науковцем.

// 3973
//Draco held up a hand. He had to think.
Драко підняв руку. Він мав подумати.
// 3974
//The shadowy, green-lit figure waited.
Затінена зеленувата постать чекала.

// 3975
//It didn’t take long to think about, though. If you discarded all the confusing
//parts… then Harry Potter was planning to mess around with something that could
//cause a gigantic political explosion, and it would be insane to just walk away
//and let him do it on his own. “We’ll study blood,” said Draco.
Втім, на роздуми не пішло багато часу. Якщо відкинути всі бентежні частини... то Гаррі
Поттер планує гратися з чимось, що може призвести до велетенського політичного вибуху.
Просто піти геть і дозволити йому робити це самостійно було б божевіллям.

-- Ми вивчатимемо кров, -- ухвалив Драко.

// 3976
//“__Excellent__,” said the figure, and smiled. “Congratulations on being
//willing to ask the question.”
-- __Чудово__, -- постать посміхнулася. -- Вітаю з тим, що ти
жадаєш ставити запитання.

// 3977
//“Thanks,” Draco said, not quite managing to keep the irony out of his voice.
-- Дякую, -- Драко не надто вдалося приховати іронію.

// 3978
//“Hey, did you think going to the Moon was __easy? __Be glad this just
//involves changing your mind sometimes, and not a human sacrifice!”
-- Гей, гадаєш, досягти Місяця було легко? Радій, що треба
лише час від часу змінювати свою думку, а не приносити людські жертви!

// 3979
//“Human sacrifice would be __way__ easier!”
-- Приносити людські жертви були б __куди__ простіше!

// 3980
//There was a slight pause, and then the figure nodded. “Fair point.”
-- Слушно, -- кивнула постать після недовгої тиші.

// 3981
//“Look, Harry,” said Draco without much hope, “I thought the idea was to take
//all the things that Muggles know, combine them with things that wizards know,
//and become masters of both worlds. Wouldn’t it be a lot easier to just study
//all the things that Muggles __already__ found out, like the Moon stuff,
//and use __that__ power -”
-- Слухай, Гаррі, -- звернувся Драко, не плекаючи особливих сподівань, -- я гадав, ми
візьмемо те, що відомо маґлам, об’єднаємо з тим, що відомо чарівникам, і станемо
володарями обох світів. Чи не простіше просто вивчити те, що маґли __вже__
з’ясували -- про Місяць і таке інше, -- і використати цю силу...

// 3982
//“__No,__” said the figure with a sharp shake of his head, sending green
//shadows moving around his nose and eyes. His voice had turned very grim. “If
//you cannot learn the scientist’s art of accepting reality, then I __must
//not__ tell you what that acceptance has discovered. It would be like a powerful
//wizard telling you of those gates which must not be opened, and those seals
//which must not be broken, before you had proven your intelligence and
//discipline by surviving the lesser perils.”
// >>gates which must not be opened, and seals which must not be broken
// Відсилання (копія) до 20:3738.
// Відсилання (копія) до цього місця у 089:16228
-- __Ні__, -- постать різко хитнула головою, від чого її обличчям затанцювали
зелені тіні. -- Якщо ти не здатен навчитися мистецтва прийняття реальности,
тоді я __не маю права__ розкривати тобі, що було здобуто завдяки цьому прийняттю.
Це наче могутній чарівник розповідає тобі про брами, що їх не відчиняють, і печаті,
що їх не зривають, перш ніж впоравшись із меншими небезпеками ти не доведеш, що твоїх інтелекту й дисциплінованости
достатньо, -- це звучало зловісно.

// 3983
//A chill went down Draco’s spine and he shuddered involuntarily. He knew it had
//been visible even in the dim light. “All right,” said Draco. “I understand.”
//Father had told him that many times. When a more powerful wizard told you that
//you weren’t ready to know, you didn’t pry any further if you wanted to live.
Дракова спина вкрилася сиро{stress}тами. Він мимоволі здригнувся, знаючи, що це було
помітно навіть у такому тьмяному світлі.

-- Добре. Розумію.

Батько чимало разів попереджав його про це. Коли могутніший за тебе чарівник стверджує,
що ти не готовий знати, то не варто випитуватися далі, якщо хочеш вижити.

// 3984
//The figure inclined his head. “Indeed. But there is something else you should
//understand. The first scientists, being Muggles, lacked your traditions. In the
//beginning they simply did not comprehend the notion of dangerous knowledge, and
//thought that all things known should be spoken freely. When their searches
//turned dangerous, they told their politicians of things that should have stayed
//secret - don’t look like that, Draco, it wasn’t simple stupidity. They did have
//to be smart enough to uncover the secret in the first place. But they were
//Muggles, it was the first time they’d found anything __really __dangerous,
//and they didn’t __start out __with a tradition of secrecy. There was a war
//going on, and the scientists on one side worried that if they __didn’t__
//talk, the scientists of the __enemy__ country would tell __their__
//politicians first…” The voice trailed off significantly. “They didn’t destroy
//the world. But it was close. And __we__ are not going to repeat that
//mistake.”
-- Авжеж, -- постать схилила голову. -- Але ти маєш зрозуміти ще дещо. Перші науковці, маґли, не мали ваших
звичаїв. На початку вони навіть не розглядали поняття небезпечного знання й
вважали, що про всі відомі речі слід говорити вільно. Коли їхні досліди виявилися
небезпечними, вони розбовкали своїм політикам речі, що мали залишатися в
таємниці, -- не дивися так, Драко, це не було простою дурістю. Їм вистачило
розуму, щоб насамперед розкрити це явище. Проте вони були маґлами, і
це вперше, коли їхній винахід був чимось __справді__ небезпечним, і вони не __розпочинали__
зі звичаями таємничости. До того ж тривала війна. Науковці однієї сторони непокоїлися,
що як вони __не заговорять__, то науковці __ворожої__ країни повідомлять __своїм__
політикам раніше... -- голос зробився набагато тихішим. -- Вони не знищили світ.
Але були близькі до цього. І __ми__ не повторимо цієї помилки.

// 3985
//“Right,” Draco said, his voice now very firm. “__We__ won’t. We’re
//wizards, and studying science doesn’t make us Muggles.”
-- Звісно, -- сказав Драко впевненим тоном. -- __Ми__ не повторимо. Ми чарівники,
і вивчення науки не робить нас маґлами.

// 3986
//“As you say,” said the green-lit silhouette. “We will establish our
//__own__ Science, a magical Science, and that Science will have smarter
//traditions from the very start.” The voice grew hard. “The knowledge I share
//with you will be taught alongside the disciplines of accepting truth, the level
//of this knowledge will be keyed to your progress in those disciplines, and you
//will share that knowledge with no one else who has not learned those
//disciplines. Do you accept this?”
-- Саме так. Ми заснуємо свою власну науку, магічну, і вона від початку
матиме розумніші звичаї, -- голос затіненої постаті міцнішав. -- Знання, що ними я ділитимуся
з тобою, викладатимуться разом із дисциплінами про прийняття істини, а глибина
знань залежатиме від твого прогресу в цих дисциплінах. І ти не ділитимешся цим знанням
ні з ким, хто не опанує згаданих дисциплін. Чи прийнятно це для тебе?

// 3987
//“Yes,” said Draco. What was he supposed to do, say no?
-- Так, -- відповів Драко.

А що він ще міг сказати. "`Ні`"?

// 3988
//“Good. And what you discover for yourself, you will keep to yourself unless you
//think that other scientists are ready to know it. What we do share among
//ourselves, we will not tell the world unless we agree it is safe for the world
//to know. And whatever our own politics and allegiances, we will __all__
//punish__ any__ of our number who reveal dangerous magics or give away
//dangerous weapons, no matter what sort of war is going on. From this day
//onward, that will be the tradition and the law of science among wizards. Are we
//agreed on that?”
-- Добре. А те, що з’ясуєш самостійно, ти триматимеш у таємниці, доки не
вирішиш, що інші науковці готові про це дізнатися. Те, чим ми ділитимемося
між собою, залишатиметься між нами, доки ми не погодимося, що ці знання безпечні
для світу. І хоч які в нас політичні погляди й належність, ми __всі__
каратимемо __будь-кого__ з нас, хто розкриє небезпечні таємниці магії чи
небезпечну зброю, незалежно від того, яка триває війна. Віднині й надалі
це стане звичаєм і законом науки серед чарівників. Чи погоджуємося ми в цьому?

// 3989
//“Yes,” said Draco. Actually this __was__ starting to sound pretty
//attractive. The Death Eaters had tried to take power by being scarier than
//everyone else, and they hadn’t actually won yet. Maybe it was time to try
//ruling using secrets instead. “And our group stays hidden for as long as
//possible, and everyone in it has to agree to our rules.”
-- Так, -- відповів Драко.

Це й __справді__ починало здаватися дуже привабливим.
Смертежери намагалися здобути владу залякуванням і досі не перемогли.
Можливо, настав час вдатися натомість до таємниць?

-- І наша група залишатиметься прихованою якнайдовше, а всі її учасники мають
погодитися з нашими правилами.

// 3990
//“Of course. Definitely.”
-- Звісно. Безперечно.

// 3991
//There was a very short pause.
Запала дуже коротка пауза.

// 3992
//“We’re going to need better robes,” said the shadowy figure, “with hoods and so
//on -”
-- Нам знадобляться кращі мантії, -- зауважила затінена постать, -- з каптурами й
таке інше...

// 3993
//“I was __just thinking __that,” said Draco. “We don’t need whole new
//robes, though, just cowled cloaks to put on. I have a friend in Slytherin,
//she’ll take your measurements -”
-- Я __саме думав__ про це, -- підхопив Драко. -- Проте нам не потрібні цілковито
нові мантії, лише плащі з каптурами, щоб вдягати зверху. Я маю подругу в
Слизерині, вона зніме з тебе мірки...

// 3994
//“Don’t tell her what it’s __for__, though -”
-- Тільки не кажи їй, для чого це...

// 3995
//“I’m not __stupid!__”
-- Я ж не дурень!

// 3996
//“And no masks for now, not when it’s just you and me -” said the shadowy
//figure.
-- І поки що без масок, бо наразі це лише ти і я.

// 3997
//“Right! But later on we should have some sort of special mark that all our
//servants have, the Mark of Science, like a snake eating the Moon on their right
//arms -”
-- Гаразд! Але пізніше нам варто розробити якусь спеціальну мітку, яку носитимуть
всі, хто нам служить. Наукову мітку, щось на кшталт змії, що поїдає Місяць,
на їхніх правицях...

// 3998
//“It’s called a PhD and wouldn’t that make it too easy to identify our people?”
-- Це називається науковий ступінь, та й чи не надто це спростить ідентифікацію
наших людей?

// 3999
//“Huh?”
-- Га?

// 4000
//“I mean, what if someone is like ‘okay, now everyone pull up their robes over
//their right arms’ and our guy is like ‘whoops, sorry, looks like I’m a spy’ -”
-- Маю на увазі, що як хтось скаже щось на кшталт: "`Так, а тепер всі підкотіть
праві рукави мантій`", і наш хлопець такий: "`Йой, вибачайте, виходить, я
шпигун`"...

// 4001
//__“Forget I said anything,__” said Draco, sweat suddenly springing out all
//over his body. He needed a distraction, __fast__ - “And what do we call
//ourselves? The Science Eaters?”
-- __Забудь про це__, -- Драко всього раптом наче облило потом.
Потрібно відволікти чимось Гаррі, негайно. -- А як ми себе
називатимемо? Наукожери?

// 4002
//“No,” said the shadowy figure slowly. “That doesn’t sound right…”
-- Ні, -- повільно мовила затінена постать. -- Це звучить неправильно...

// 4003
//Draco wiped his robed arm across his forehead, wiping away beads of moisture.
//What had the Dark Lord been __thinking?__ Father had said the Dark Lord
//was __smart!__
Драко протер лоба рукавом, прибираючи краплинки вологи. Про що Темний Лорд
взагалі думав? Батько стверджував, що Темний Лорд був __розумним__!

// 4004
//“I’ve got it!” said the shadowy figure suddenly. “You won’t understand yet, but
//trust me, it fits.”
-- Придумав! -- раптом вигукнула затінена постать. -- Поки що ти не зрозумієш, але
повір мені, це саме те.

// 4005
//Right now Draco would have accepted ‘Malfoy Munchers’ as long as it changed the
//subject. “What is it?”
// @ Malfoy Munchers - смертежерів серед фанатів зневажливо називають death munchers
Наразі Драко був готовий погодитися навіть на мелфоєчавкунів, аби
змінити тему.

-- Що там?

// 4006
//And standing amid the dusty desks in an unused classroom in the dungeons of
//Hogwarts, the green-lit silhouette of Harry Potter spread his arms dramatically
//and said, “This day shall mark the dawn of… the __Bayesian Conspiracy__.”
Освітлений зеленим силует Гаррі Поттера, що стояв посеред запилюжених столів у
закинутому класі в підземеллях Гоґвортсу, драматично розкинув руки:

-- Цей день ознаменує народження... Баєсівської таємної спілки.

***

// 4007
//A silent figure trudged wearily through the halls of Hogwarts in the direction
//of Ravenclaw.
Безмовна постать втомлено пленталася коридорами Гоґвортсу в напрямку Рейвенклову.

// 4008
//Harry had gone straight from the meeting with Draco to dinner, and stayed at
//dinner barely long enough to choke down a few fast gulps of food before going
//off to bed.
Одразу після зустрічі з Драко Гаррі пішов на вечерю, нашвидкуруч там чогось
глитнув і попрямував до спальні.

// 4009
//It wasn’t even 7pm yet, but it was well past bedtime for Harry. He’d realized
//__last __night that he wouldn’t be able to use the Time-Turner on Saturday
//until after the book-reading contest was already over. But he could still use
//the Time-Turner on __Friday __night, and gain time that way. So Harry had
//pushed himself to stay awake until 9pm on Friday, when the protective shell
//opened, and then used the four hours remaining on the Time-Turner to spin back
//to 5pm and collapse into sleep. He’d woken up around 2am on Saturday morning,
//just as planned, and read for the next twelve hours straight… and it still
//hadn’t been enough. And now Harry would be going to sleep rather early for the
//next few days, until his sleep cycle caught up again.
Попри ранню годину -- ще навіть сьома вечора не настала -- Гаррі вже давно мав бути в ліжку.
Минулої ночі він зрозумів, що в суботу зможе вдатися до часоворота, тільки
коли змагання з читання вже завершиться. Але використати
його в ніч __п’ятниці__ й здобути в такий спосіб час він усе ще міг. Тож Гаррі змусив себе протриматися
на ногах до 21:00 п’ятниці, а коли захисна оболонка
відкрилася, використав доступні чотири години, повернувся назад до 17:00
і забувся сном. У суботу він прокинувся приблизно о другій годині
ночі, як і планував, і наступні дванадцять годин провів за читанням... але цього
однаково не вистачило. Тепер протягом кількох днів йому доведеться лягати спати
незвично рано, щоб відновити свій режим сну.

// 4010
//The portrait on the door asked Harry some dumb riddle meant for
//eleven-year-olds that he answered without the words even passing through his
//conscious mind, and then Harry staggered up the stairs to his dorm room,
//changed into his pajamas and collapsed into bed.
Портрет на дверях поставив Гаррі якесь дурне запитання, що призначалося для
одинадцятирічних. Він відповів, навіть не усвідомивши значення слів, хитаючись,
піднявся сходами до своєї спальні, перевдягнувся в піжаму й повалився на ліжко.

// 4011
//And found that his pillow seemed rather lumpy.
І помітив, що його подушка якась горбиста.

// 4012
//Harry groaned. He sat up reluctantly, twisted in bed, and lifted up his pillow.
Гаррі застогнав, неохоче піднявся, вигнувся в ліжку й зазирнув під подушку,
// 4013
//This revealed a note, two golden Galleons, and a book titled
//__Occlumency: The Hidden Arte.__
де знайшов записку, два золоті ґалеони й книгу, що називалася
"`Блокологія: приховане мистецтво`".
// 4014
//Harry picked up the note and read:
Він підібрав цидулку й прочитав:

// 4015
//__My, you do get yourself into trouble and quickly. Your father was no
//match for you.__
__Ти ба, а ти й справді вмієш швидко втрапляти в халепи. Навіть твій батько
не зрівнявся б з тобою.__

// 4016
//__You have made a powerful enemy. Snape commands the loyalty, admiration,
//and fear of all House Slytherin. You cannot trust any of that House now,
//whether they come to you in friendly guise or fearsome.__
__Ти нажив собі могутнього ворога. Снейп контролює, до кого прихильні,
кого поважають і кого бояться всі слизеринці. Тепер ти не можеш довіряти нікому
з цього гуртожитку, чи то вони дружні до тебе, чи то погрозливі.__

// 4017
//__From now on you must not meet Snape’s eyes. He is a Legilimens and can
//read your mind if you do. I have enclosed a book which may help you learn to
//protect yourself, though there is only so far you can get without a tutor.
//Still you may hope to at least detect intrusion.__
__Віднині тобі варто уникати Снейпового погляду. Він виманолог і здатен прочитати твої думки, якщо ви зустрінетеся
очима. Я додаю книгу, що може
навчити тебе захищатися -- наскільки це можливо без приватних занять.
З другого боку, завжди є надія, що тобі вдасться хоча б помітити вторгнення.__

// 4018
//__So that you may find some extra time in which to study Occlumency, I
//have enclosed 2 Galleons, which is the price of answer sheets and homework for
//the first-year History of Magic class (Professor Binns having given the same
//tests and same assignments every year since he died). Your newfound friends the
//Weasley twins should be able to sell you a copy. It goes without saying that
//you must not get caught with it in your possession.__
__Щоб ти мав більше часу на вивчення блокології, я додаю два ґалеони,
які ти маєш витратити на розвʼязник і збірку готових домашніх завдань із
курсу історії магії для першокласників (професор Бінс дає одні й ті самі завдання
щороку з дня своєї смерти). Твої новоспечені друзі -- близнюки Візлі -- зможуть
продати тобі копію. Не варто й згадувати, що тебе не повинні з цим упіймати.__

// 4019
//__Of Professor Quirrell I know little. He is a Slytherin and a Defense
//Professor, and that is two marks against him. Consider carefully any advice he
//gives you, and tell him nothing you do not wish known.__
__Про професора Квірела я знаю небагато. Він слизеринець і професор із захисту,
а це вже два пункти проти нього. Ретельно розмірковуй над будь-якою його порадою
тобі й не розповідай йому жодної таємниці.__

// 4020
//__Dumbledore only pretends to be insane. He is extremely intelligent, and
//if you continue to step into closets and vanish, he will certainly deduce your
//possession of an invisibility cloak if he has not done so already. Avoid him
//whenever possible, hide the Cloak of Invisibility somewhere safe (NOT your
//pouch) any time you cannot avoid him, and step with great care in his
//presence.__
__Дамблдор лише прикидається несповна розуму. Він неймовірно розумний, і якщо
ти й надалі заходитимеш у шафи й зникатимеш, то він, безсумнівно, здогадається, що
ти володієш плащем-невидимкою, якщо ще не здогадався. Намагайся за можливости
уникати його, ховай Плащ невидимости в якомусь безпечному місці (НЕ у своєму
капшучку) щоразу, коли не можеш уникнути його, і будь особливо обережним у його
присутності.__

// 4021
//__Please be more careful in the future, Harry Potter.__
__Будь ласка, Гаррі Поттере, у майбутньому дій обережніше.__

// 4022
//__- Santa Claus__
__Санта Клаус__

// 4023
//Harry stared at the note.
Гаррі витріщився на записку.

// 4024
//It __did__ seem to be pretty good advice. Of course Harry wasn’t going to
//cheat in History class even if they gave him a dead monkey for a professor. But
//Severus’s Legilimency… whoever’d sent this note knew a lot of important, secret
//things and was willing to tell Harry about them. The note was still warning him
//against Dumbledore stealing the Cloak but at this point Harry honestly had no
//clue if that was a bad sign, it could just be an understandable mistake.
Це й справді здавалося дуже корисною порадою. Звісно, він не шахраюватиме
на заняттях з історії, навіть якщо їх викладатиме дохла мавпа. Але виманологія
Северуса... Хай хто надіслав цю записку, ця особа володіє чималою кількістю важливої й
таємної інформації, якою охоче ділиться з Гаррі. І хоча записка попереджала,
що Дамблдор нібито намагатиметься вкрасти Плащ, наразі Гаррі не міг бути
певним, чи було це поганим знаком, чи просто зрозумілою помилкою.

// 4025
//There seemed to be some sort of intrigue going on inside Hogwarts. Maybe if
//Harry __compared stories__ between Dumbledore and the note-sender, he
//could work out a __combined__ picture that would be accurate? Like if they
//__both__ agreed on something, then…
Видавалося, у Гоґвортсі плелися якісь інтриги. Можливо, якби Гаррі
порівняв версії Дамблдора й автора записки, йому вдалося б відтворити __цілісну__
й точну картину? Якщо __обидві__ версії узгоджуються в
чомусь, тоді...

// 4026
//…whatever…
Та грець із ним.

// 4027
//Harry stuffed everything into his pouch and turned up the Quieter and pulled
//the cover over his head and died.
Гаррі запхав усе до капшучка, увімкнув квієтор, з головою заліз під ковдру й забувся мертвим сном.

***

// 4028
//It was Sunday morning and Harry was eating pancakes in the Great Hall, sharp
//quick bites, glancing nervously at his watch every few seconds.
Недільного ранку Гаррі похапки наминав млинці у Великій залі, раз у раз нервово зиркаючи
на годинник.
// 4029
//It was 8:02am, and in precisely two hours and one minute, it would be
//__exactly one week__ since he’d seen the Weasleys and crossed over onto
//Platform Nine and Three-Quarters.
Той показував 8:02, і рівно за дві години й одну хвилину виповниться
тиждень, відколи він побачив сімʼю Візлі й пройшов на платформу девʼять
і три чверті.

// 4030
//And the thought had occurred to him… Harry didn’t know if this was a valid way
//to think about the universe, he didn’t know anything any more, but it
//__seemed possible…__
І раптом йому сяйнуло... Гаррі не знав, чи правильно так думати про всесвіт,
він уже нічого не знав, але видавалося імовірним...
// 4031
//That…
що...

// 4032
//__Not enough interesting things had happened to him over the last week.__
"`Цього тижня сталося недостатньо цікавого`".

// 4033
//When he was done eating breakfast, Harry planned to go straight up to his room
//and hide in the bottom level of his trunk and not talk to anyone until 10:03am.
Гаррі планував піти до своєї кімнати відразу після сніданку, заховатися на підвальному
рівні своєї валізи й не розмовляючи ні з ким аж до 10:03.
// 4034
//And that was when Harry saw the Weasley twins walking toward him. One of them
//was carrying something concealed behind his back.
Однак помітив, як до нього прямують близнюки Візлі. Один із них ховав щось
за спиною.

// 4035
//He should scream and run away.
Йому варто закричати й втекти.

// 4036
//He should scream and run away.
Йому варто закричати й втекти.

// 4037
//Whatever this was… it could very well be…
Хай що це було... найімовірніше, це...

// 4038
//…the __grand finale…__
__Епічний фінал__...

// 4039
//He really should just scream and run away.
Йому справді варто просто закричати й втекти.

// 4040
//With a resigned feeling that the universe would come and get him
//__anyway__, Harry continued slicing at the pancake with his fork and
//knife. He couldn’t muster the energy. That was the sad truth. Harry knew now
//how people felt when they were tired of running, tired of trying to escape
//fate, and they just fell to the ground and let the horrifically befanged and
//tentacled demons of the darkest abyss drag them off to their unspeakable
//destiny.
Підкорившись почуттю того, що всесвіт у будь-якому разі його дістане,
Гаррі вернувся до свого млинця. Сумна правда, але зараз йому на
силу нізащо не здобутися. Тепер Гаррі розумів, що відчували люди, які
втомлювалися бігти, кидали намагання уникнути долі й просто падали
на землю, віддаючись на поталу страхітливим ікластим демонам, породженим найтемнішою безоднею,
щоб ті вхопили їх своїми мацаками й поволокли до невимовного жеребу.

// 4041
//The Weasley twins drew closer.
Близнюки Візлі наближалися.

// 4042
//And yet closer.
І наближалися.

// 4043
//Harry ate another bite of pancake.
Гаррі зʼїв ще один шматочок млинця.

// 4044
//The Weasley twins arrived, grinning brightly.
Близнюки Візлі життєрадісно шкірилися.

// 4045
//“Hello, Fred,” Harry said dully. One of the twins nodded. “Hello, George.” The
//other twin nodded.
-- Привіт, Фреде, -- глухо сказав Гаррі. Один із близнюків кивнув. -- Привіт, Джордже,
-- другий близнюк також кивнув.

// 4046
//“You sound tired,” said George.
-- У тебе стомлений голос, -- зауважив Джордж.

// 4047
//“You should cheer up,” said Fred.
-- Треба тебе підбадьорити, -- підхопив Фред.

// 4048
//“Look what __we__ got you!”
-- Дивися, що ми для тебе маємо!

// 4049
//And George took, from behind Fred’s back -
Із-за спини Фреда Джордж дістав...
// 4050
//A cake with twelve flaming candles.
торт із дванадцятьма запаленими свічками.

// 4051
//There was a pause, as the Ravenclaw table stared at them.
Деякий час увесь рейвенкловський стіл мовчки витріщався на них.

// 4052
//“That’s not right,” said someone. “Harry Potter was born on the thirty-first of
//Jul-”
-- Щось тут не так, -- озвався хтось. -- Гаррі Поттер народився тридцять першого
лип...

// 4053
//“__HE IS COMING__,” said a huge hollow voice that cut through all
//conversation like a sword of ice. “__THE ONE WHO WILL TEAR APART THE VERY
//-__”
// Часткова копія 86:15577, 89:16238, 21:4067, 21:4070, 119:19624, 122:19953
// THE ONE WHO WILL TEAR APART THE VERY STARS IN HEAVEN.
-- __ВІН НАБЛИЖАЄТЬСЯ__, -- прогримів лункий голос, наче крижаним мечем розітнувши розмову.
-- __ТОЙ, ХТО РОЗІРВЕ НА ШМАТКИ НАВІТЬ...__

// 4054
//Dumbledore had leapt out of his throne and run straight over the Head Table and
//seized hold of the woman speaking those awful words, Fawkes had appeared in a
//flash, and all three of them vanished in a crack of fire.
Дамблдор вистрибнув зі свого трону й побіг прямісінько по вчительському столу. Він ухопив жінку,
що проголошувала ці жахливі слова, зі спалахом зʼявився Фоукс -- і всі троє зникли в
тріскотінні вогню.

// 4055
//There was a shocked pause…
Нависла шокована тиша...
// 4056
//…followed by heads turning in the direction of Harry Potter.
Відтак усі погляди звернулися на Гаррі Поттера.

// 4057
//“I didn’t do it,” Harry said in a tired voice.
-- Я тут ні до чого, -- стомлено виправдався він.

// 4058
//“That was a __prophecy!__” someone at the table hissed. “And I bet it’s
//about __you!__”
-- Це було пророцтво! -- прошипів хтось за столом. -- Готовий
закластися, що воно про тебе!

// 4059
//Harry sighed.
Гаррі позіхнув.
// 4060
//He stood up from his seat, raised his voice, and said very loudly over the
//conversations that were starting up, “__It’s not about me! Obviously! I’m
//not coming here, I’m already here!__”
Він підвівся з місця й заговорив дуже голосно, голосніше за
гомін, що вже здіймався:

// hedrok: копія в 086:15576
-- __Воно не про мене! Це очевидно! Я сюди не наближаюся, я вже тут!__

// 4061
//Harry sat back down again.
Гаррі знову сів, а
// 4062
//The people who had been looking at him turned away again.
люди, що дивилися на нього, знову відвернулися.

// 4063
//Someone else at the table said, “Then who __is__ it about?”
-- Тоді про кого воно? -- поцікавився хтось інший за столом.

// 4064
//And with a dull, leaden sensation, Harry realized who __wasn’t__ already
//at Hogwarts.
Охоплений тупим, важким передчуттям, Гаррі збагнув, кого поки що __не було__ в
Гоґвортсі.
// 4065
//Call it a wild guess, but Harry had a feeling the undead Dark Lord would be
//showing up one of these days.
Вважайте це лише безпідставним здогадом, але він відчував, що
повсталий із мертвих Темний Лорд подасть про себе якусь звісточку найближчим часом.

// 4066
//The conversation continued on around him.
Навколо не вгавала бесіда.

// 4067
//“Not to mention, tear apart the very __what?__”
-- До того ж розірве на частини навіть... __що__?

// 4068
//“I thought I heard Trelawney start to say something with an ‘S’ just before the
//Headmaster grabbed her.”
// Ельвіра: Я залишаю С. Зараз буде Сонце, душами пожертвую
// Ельвіра: STARS IN HEAVEN можна бути перекласти як СВІТИЛА У НЕБІ/СВІТИЛА НЕБА
// Ельвіра: http://sum.in.ua/s/svitylo
-- Здається, я чув, як Трелоні почала казати щось на "`С`" саме перед тим, як директор
схопив її.

// 4069
//“Like… soul? Sun?”
-- Як... серця? Сонце?

// 4070
//“If someone’s going to tear apart the Sun we’re __really__ in trouble!”
-- Якщо хтось збирається розірвати на шматки Сонце, то ми й __справді__ в
халепі!

// 4071
//That seemed rather unlikely to Harry, unless the world contained scary things
//which had heard of David Criswell’s ideas about star lifting.
// @ star lifting - вирішила просто передати зміст. https://en.wikipedia.org/wiki/Star_lifting
Це здавалося Гаррі малоймовірним, хіба що в світі містилися страшні створіння, які
чули про ідеї Девіда Крісвелла щодо перебудови зірок.

// 4072
//“So,” Harry said in tired tones, “this happens every Sunday breakfast, does
//it?”
-- То, -- запитав Гаррі стомлено, -- таке трапляється під час сніданку
щонеділі, чи не так?

// 4073
//“No,” said a student who might have been in his seventh year, frowning grimly.
//“It doesn’t.”
-- Ні, -- відповів учень, який, мабуть, був на сьомому році навчання, зловісно
насупивши брови. -- Не трапляється.

// 4074
//Harry shrugged. “Whatever. Anyone want some birthday cake?”
-- І нехай, -- Гаррі стенув плечима. -- Хтось хоче іменинного торта?

// 4075
//“But it’s __not__ your birthday!” said the same student who’d objected
//last time.
-- Але твій день народження __не сьогодні__! -- вигукнув той самий учень, що
заперечував минулого разу.

// 4076
//That was the cue for Fred and George to start laughing, of course.
Фред і Джордж, звісно, сприйняли це за сигнал, щоб почати реготати.
// 4077
//Even Harry managed a weary smile.
Навіть Гаррі вичавив із себе усмішку.

// 4078
//As the first slice was served to him, Harry said, “I’ve had a __really
//long week__.”
-- Я мав __справді__ довгий тиждень, -- промовив він, отримавши перший
шматок торта.

***

// 4079
//And Harry was sitting in the cavern level of his trunk, slid shut and locked so
//no one could get in, a blanket pulled over his head, waiting for the week to be
//over.
Гаррі сидів на підвальному рівні своєї валізи, щільно зачиненої та замкненої на замок,
щоб ніхто не пробрався всередину. Він із головою заліз під ковдру й чекав на
кінець цього тижня.

// 4080
//10:01.
10:01.

// 4081
//10:02.
10:02.

// 4082
//10:03, but just to be sure…
10:03, але про всяк випадок...

// 4083
//10:04 and the first week was done.
10:04. Перший тиждень завершився.

// 4084
//Harry breathed a sigh of relief, and gingerly pulled the blanket off of his
//head.
Гаррі з полегшенням видихнув і боязко стягнув ковдру з голови.
// 4085
//A few moments later, he had emerged into the bright sunlit air of his dorm.
За кілька секунд він вибрався в яскраву, залиту сонцем
спальню,
// 4086
//Shortly after, and he was in the Ravenclaw common room. A few people looked at
//him, but no one said anything or tried to talk to him.
після чого вийшов у вітальню Рейвенклову. Кілька людей зиркнуло на нього,
але ніхто нічого не сказав, ніхто не намагався з ним заговорити.

// 4087
//Harry found a nice wide writing desk, pulled back a comfortable chair, and sat
//down. From his pouch he drew a sheet of paper and a pencil.
Гаррі знайшов гарний широкий письмовий стіл, витягнув зручний стілець і сів.
Дістав із капшучка аркуш паперу й олівець.

// 4088
//Mum and Dad had told Harry in no uncertain terms that while they understood his
//enthusiasm for leaving home and getting away from his parents, he was to write
//them __every week without fail__, just so that they knew he was alive,
//unharmed, and not in prison.
Мама й тато недвозначно натякнули, що хоч вони й розуміють Гарріне прагнення
покинути дім і поїхати від батьків, він мав писати їм __щотижня,
без жодного винятку__, бо вони мають знати, що він живий, неушкоджений
і неувʼязнений.

// 4089
//Harry stared down at the blank sheet of paper. __Let’s see…__
Гаррі подивився на порожній аркуш паперу. "`Отож...`".

// 4090
//After leaving his parents at the train station, he’d…
Покинувши батьків на залізничній станції, він...

// 4091
//…gotten acquainted with a boy raised by Darth Vader, become friends with the
//three most infamous pranksters in Hogwarts, met Hermione, then there’d been the
//Incident with the Sorting Hat… Monday he’d been given a time machine to treat
//his sleep disorder, gotten a legendary invisibility cloak from an unknown
//benefactor, rescued seven Hufflepuffs by staring down five scary older boys one
//of whom had threatened to break his finger, realized that he possessed a
//mysterious dark side, learned to cast __Frigideiro__ in Charms class, and
//gotten started on his rivalry with Hermione… Tuesday had introduced Astronomy
//taught by Professor Aurora Sinistra who was nice, and History of Magic taught
//by a ghost who ought to be exorcised and replaced with a tape recorder…
//Wednesday, he’d been pronounced the Most Dangerous Student in the Classroom…
//Thursday, let’s not even think about Thursday… Friday, the Incident in Potions
//Class, followed by his blackmailing the Headmaster, followed by the Defense
//Professor having him beaten up in class, followed by the Defense Professor
//turning out to be the most awesome human being who still walked the face of the
//Earth… Saturday he’d lost a bet and gone on his first date and started
//redeeming Draco… and then this morning Professor Trelawney’s unheard prophecy
//might or might not indicate that an immortal Dark Lord was about to attack
//Hogwarts.
Познайомився з хлопчиком, якого виховав Дарт Вейдер, подружився з трьома
найвідомішими бешкетниками Гоґвортсу, зустрів Герміону, потім стався Випадок
із Сортувальним Капелюхом... У понеділок йому дали машину часу як засіб від
розладу сну, потім він отримав легендарний плащ-невидимку від невідомого добродія,
врятував сімох гафелпафців, натиснувши на пʼятьох страшних старших хлопців, один з
яких погрожував зламати йому палець, зрозумів, що має таємничу темну сторону,
навчився виконувати закляття "`Фріґідейро`" на уроці замовлянь і розпочав своє
суперництво з Герміоною... У вівторок була астрономія, що її викладала
хороша професорка Аврора Сіністра, і історія магії, що її викладав привид -- не завадило
б застосувати проти нього якийсь екзорцизм і поставити натомість магнітофон... У середу
його оголосили найнебезпечнішим учнем у класі... Четвер... Про четвер краще навіть не
згадувати... Пʼятниця запамʼяталася Випадком у кабінеті зіль і настоянок, після чого він
шантажував директора, після чого професор із захисту організував його побиття в класі, після
чого виявилося, що професор із захисту є найчудовішою людською істотою, чия нога досі ступає
по землі... У суботу він програв закла{stress}д і пішов на своє перше побачення, а також почав наставляти
Драко на шлях спокути... А цього ранку непочуте пророцтво професорки Трелоні
вказувало чи не вказувало на те, що безсмертний Темний Лорд збирається атакувати Гоґвортс.

// 4092
//Harry mentally organized his material, and started writing.
Гаррі навів лад у своїй голові й почав писати.

// 4093
//__Dear Mum and Dad:__
__Любі мамо й тату!__

// 4094
//__Hogwarts is lots of fun. I learned how to violate the Second Law of
//Thermodynamics in Charms class, and I met a girl named Hermione Granger who
//reads faster than I do.__
// ! https://uk.wikipedia.org/wiki/Друге_начало_(закон)_термодинаміки
__У Гоґвортсі дуже весело. Я навчився порушувати другий закон термодинаміки на
уроці замовлянь і зустрів дівчинку на імʼя Герміона Ґрейнджер, яка читає швидше
за мене.__

// 4095
//__I’d better leave it at that.__
__На цьому я зупинюся.__

// 4096
//__Your loving son,__
__Ваш люблячий син__

// 4097
//__Harry James Potter-Evans-Verres.__
__Гаррі Джеймс Поттер-Еванс-Веррес.__
