// 9595
//== The Stanford Prison Experiment, Pt 5
== Розділ 55. Стенфордський Тюремний Експеримент, ч.5

// 9596
//In a scarred and ruined corridor, lit by dim gas lights, a boy slowly crept
//forward, one hand stretched out, toward the unmoving snake that was the body of
//his teacher.
У коридорі з глибокими борознами, що нагадував руїну, хлопчик повільно повз
уперед під світлом гасових ламп. Одна його рука була простягнута до нерухомого
змі{stress}я, що був його вчителем.

// 9597
//Harry was only a meter away from the snake’s body when he first felt it,
//tickling at the edge of his perception.
Гаррі уже був лише в метрі від тіла змії, коли вперше відчув його -- ніби
легкий лоскіт на межі сприйняття.

// 9598
//Ever so weakly, a sense of doom…
Хай і таке слабке, але лиховісне передчуття...

// 9599
//Professor Quirrell __was__ alive, then.
Отже, професор Квірел був __живим__.

// 9600
//The thought engendered no feeling of joy, only a sort of empty despair.
Думка не призвела до жодної радості -- лише до чогось на кшталт сухого відчаю.

// 9601
//Harry would still be caught soon, and no matter how he tried to explain, it
//still wouldn’t look good. No one would trust him again, they would think he was
//the next Dark Lord, they wouldn’t help him when it came time to fight Lord
//Voldemort, Hermione would give up on him, probably even Dumbledore would look
//for another hero…
Гаррі все одно невдовзі впіймають, і хай як він намагатиметься все пояснити, все
одно для репутації буде не дуже. Ніхто більше йому не довірятиме, усі вважатимуть
його наступним темним лордом, вони не допоможуть йому, коли прийде час битися
з Лордом Волдемортом, Герміона зневіриться у ньому, напевно навіть Дамблдор
шукатиме іншого героя...

// 9602
//…maybe they’d just send him home to his parents.
...мабуть, вони просто відправлять його додому до батьків.

// 9603
//He had failed.
Він зазнав краху.

// 9604
//Harry looked at the crumpled body of the police officer he’d stunned, the
//already-drying blood from the minor cuts and slashes, the burned places on the
//intricately embroidered red robes.
Гаррі поглянув на оглушене тіло офіцера поліції на підлозі, на вже суху кров
від легких порізів та ударів, вигорілі клапті витончено вишитої червоної
мантії.

// 9605
//He’d been stupid. He __shouldn’t__ have stunned the police officer, should
//have just __stayed__ with his original story about being kidnapped by
//Professor Quirrell…
Гаррі був дурнем. __Не треба__ було оглушувати офіцера поліції, треба було
просто __наполягати__ на версії, ніби його викрав професор Квірел...

// 9606
//__It might not be too late,__ whispered a voice inside him. __You
//might still be able to fix your mistake. The Auror saw you, he remembers that
//you stunned him… but if he were dead, if Professor Quirrell were dead, if
//Bellatrix were dead, there would be no one to contradict your story.__
__Можливо ще не запізно__, прошепотів якийсь голос зсередини. __Ти ще можеш
виправити цю помилку. Аврор тебе бачив, він пам'ятає, що оглушив тебе... але
якби він помер, якби помер професор Квірел, якби Белатриса померла, то ніхто не
зміг би спростувати твою версію...__

// 9607
//Slowly, Harry’s hand started to rise, pointing his wand at the police officer
//and -
Рука Гаррі почала повільно здійматися, його паличка вказала на офіцера поліції
і...

// 9608
//Harry’s hand halted.
Рука Гаррі завмерла.

// 9609
//He had a distant sense he was behaving uncharacteristically of himself,
//somehow. Like there was something he’d forgotten, something important, but he
//was having trouble remembering what it was, exactly.
У нього виникло непевне відчуття, що він поводився якось нетипово для себе.
Ніби він щось забув -- щось важливе, але ніяк не міг згадати, що саме.

// 9610
//Oh. That was right. He was someone who believed in the value of human life.
А. Точно. Він же був з тих, що вірять у цінність людського життя.

// 9611
//A sense of puzzlement accompanied the thought, he couldn’t quite remember
//__why__ other people’s lives had seemed valuable…
Він згадав це зі здивуванням -- він не міг пригадати, __чому__ життя інших
людей здавалося йому цінним...

// 9612
//__All right,__ said the logical part of him, w__hy has my mind
//changed between then and now?__
__Гаразд__, сказала його логічна частина, __чому мої погляди відтоді
змінилися?__

// 9613
//Because he was in Azkaban…
Бо він був у Азкабані...

// 9614
//And he’d forgotten to recast the Patronus Charm…
І забув знову викликати патронуса...

// 9615
//Doing anything at all, somehow, seemed like a tremendous effort, like the
//thought of action itself was a weight too heavy to lift; but it did seem like a
//good idea to recast the Patronus Charm, for he was still able to be afraid of
//Dementors. And though he couldn’t remember what it was like to be happy, he
//knew that this wasn’t it.
Будь-яка дія чомусь здавалася страшенним зусиллям, ніби сама думка щось зробити
була вантажем, що його було надто складно підняти. Але видавалося, що знову
ви{stress}кликати патронуса варто, адже він досі відчував перед дементорами страх.
І хоч він і не міг пригадати, як воно було -- відчувати щастя, але точно
знав, що зараз він його не відчуває.

// 9616
//Harry’s hand rose to hold his wand level before him, his fingers took the
//starting positions.
Гаррі підвів руку, рівно виставив перед собою паличку, поставив пальці
на початкові позиції.

// 9617
//And then Harry paused.
А тоді заклякнув.

// 9618
//He couldn’t… quite remember… what he’d used as his happy thought.
Він не міг... пригадати... яку щасливу думку він використовував був.

// 9619
//That was odd, it had been something very important, he really ought to be able
//to remember it… something to do with death? But that wasn’t happy…
Це було дивно, адже думка була для нього дуже важливою, він справді мав би її
згадати... щось пов'язане зі смертю? Але що в цьому могло бути щасливого...

// 9620
//His body was shivering, Azkaban hadn’t seemed so cold before, and it seemed to
//be getting colder even as he thought. It was too late for him, he’d already
//sunk too far, he’d never be able to cast the Patronus Charm now -
Гаррі тремтів, раніше Азкабан не здавався йому холодним, але тепер він холоднішав
щомиті. Усе скінчено, він провалився надто глибоко, він уже ніколи не зможе
викликати патронуса...

// 9621
//__That may be the Dementation talking rather than an accurate estimate,__
//observed the logical part of himself, habits that had been encoded into sheer
//reflex, requiring no energy to activate. __Think of the Dementors’ fear
//as a cognitive bias, and try to overcome it the way you would overcome any
//other cognitive bias. Your hopeless feelings may not indicate that the
//situation is actually hopeless. It may only indicate that you are in the
//presence of Dementors. All negative emotions and pessimistic estimates must now
//be considered suspect, fallacious until proven valid.__
__Можливо, це вплив дементації, а не об'єктивна оцінка ситуації,__ зазначила
його логічна частина -- навички, що їх він довів до рефлексу, і вони не
потребували жодної енергії, щоб діяти. __Вважай страх дементорів когнітивним
упередженням і старайся побороти його, як будь-яке інше когнітивне упередження.
Відчуття безнадії не обов'язково свідчить про те, що ситуація справді
безнадійна. Можливо, усе, про що воно свідчить: дементори поряд. Усі негативні
емоції й песимістичні оцінки тепер треба розглядати з підозрою, вважати
помилковими, доки не доведено інше.__

// 9622
//(If you’d been watching the boy as he thought, you would have seen a distant,
//abstract, puzzled frown move across his face, below the glasses and the
//lightning-bolt scar. His hand stayed in the starting position for the Patronus
//Charm, and did not move.)
(Якби хтось спостерігав за хлопчиком, доки той думав, то побачив би за
окулярами та шрамом-блискавкою задумливе, спантеличене, спохмурніле обличчя.
Рука хлопчика завмерла у початковій позиції для чарів патронуса.)

// 9623
//__The presence of Dementors interferes with the part of you that
//processes happiness. If you cannot retrieve your happy thought by mnemonic
//association on the key of happiness, perhaps you can get at the memory some
//other way instead. When was the last time you talked to someone about the
//Patronus Charm?__
__Присутність дементорів впливає на ту частину тебе, що відповідає за щастя.
Якщо ти не можеш отримати щасливий спогад за мнемонічною асоціацією за
ключем "`щастя`", можливо, вийде відновити пам'ять в інший спосіб. Коли
ти востаннє розмовляв з кимось про чари патронуса?__

// 9624
//Harry couldn’t seem to remember that either.
Цього Гаррі теж не міг пригадати.

// 9625
//A crushing wave of despair swept over him, and was dismissed by the logical
//part of himself as untrustworthy, external, not-Harry, the dull weight still
//pressed him down but his mind went on thinking, it didn’t take much effort to
//think…
На нього нахлинув нездоланний відчай, що був відкинутий його логічною частиною
як ненадійний, зовнішній, не-Гаррі. Гнітюче відчуття досі тиснуло на нього,
проте його розум міркував далі, це не потребувало багато зусиль...

// 9626
//__When was the last time you talked to someone about Dementors?__
__Коли ти востаннє розмовляв з кимось про дементорів?__

// 9627
//Professor Quirrell had said that he was already able to feel the presence of
//Dementors, and Harry had said to Professor Quirrell… he’d told Professor
//Quirrell…
// hedrok: 52:9279 і далі. Не дослівно.
Професор Квірел сказав був, що він вже відчував присутність дементорів, а Гаррі
відповів був... сказав був професорові Квірелу...

// 9628
//…to hold to the memory of the stars, of falling bodilessly through space, like
//an Occlumency barrier across his entire mind.
...думати лише про зірки, про безтілесний політ космосом, використати цей спогад
мов бар'єр блокології навколо всього свого розуму.

// 9629
//His second Defense class of the year, on Friday, that was when Professor
//Quirrell had shown him the stars, and again on Christmas.
На другому занятті з захисту, у п'ятницю, ось коли професор Квірел показав
йому зірки, а потім знову на Різдво.

// 9630
//It didn’t take much effort to remember them, the searing points of white
//against perfect blackness.
Нескладно було згадати їх -- пекучі точки білого на тлі абсолютної чорноти.

// 9631
//Harry remembered the great cloudy wash of the Milky Way.
// hedrok: копія з 20:3752
Гаррі згадав Чумацький Шлях і той величезний вихор, яким він плинув.

// 9632
//Harry remembered the peace.
Гаррі згадав спокій.

// 9633
//Some of the coldness at the fringes of his limbs seemed to retreat.
Частина холоднечі на кінчиках його рук і ніг ніби відступила.

// 9634
//There were words he had spoken out loud on the day he’d first cast the Patronus
//Charm, his mind could remember the sounds and the speech even as the feelings
//seemed distant…
Він щось сказав був уголос у день, коли вперше викликав чари патронуса, він міг
згадати звуки цього речення, хоч відчуття й здавалися незбагненними...

// 9635
//…__I thought of my absolute rejection of death as the natural order.__
// hedrok: копія з 046:8390
...__Моя думка була про цілковите невизнання смерті, як природного порядку.__

// 9636
//You cast the True Patronus Charm by thinking about the value of human life.
Чари справжнього патронуса потребують думки про цінність людського життя.

// 9637
//__…But there are other lives that are still alive to be fought for. Your
//life, and my life, and Hermione Granger’s life, all the lives of Earth, and all
//the lives beyond, to be defended and protected.__
// hedrok: копія 047:8753
__...Але є інші життя, що досі живуть, і за які варто боротися. Твоє життя, моє
життя, життя Герміони Ґрейнджер, усі життя на Землі і всі життя поза нею, які
треба обороняти й захищати.__

// 9638
//Then the idea of killing everyone… that hadn’t been his true self, that had
//been the Dementation talking…
Та ідея всіх убити... то був не справжній він, то була дементація...

// 9639
//Despair was the Dementors’ influence.
Відчай -- лише впливом дементорів.

// 9640
//__Where there’s life, there’s hope. The Auror is still alive. Professor
//Quirrell is still alive. Bellatrix is still alive. I’m still alive. No one’s
//actually died yet…__
__Де є життя, є надія. Аврор досі живий. Професор Квірел досі живий. Белатриса
досі жива. Я досі живий. Власне, ніхто ще не помер...__

// 9641
//Harry could picture the Earth, now, in the midst of the starfield, the
//blue-white orb.
Тепер Гаррі міг уявити Землю -- синьо-білу кулю посеред поля зірок.

// 9642
//__…and I won’t let them!__
__...і я їм не дозволю!__

// 9643
//“Expecto Patronum!”
-- Експекто Патронум!

// 9644
//The words came out a little halting, and when the human shape burst back into
//existence it was dim at first, moonlight instead of sunlight, white instead of
//silver.
Він вимовив ці слова невпевнено, і коли знову з'явилася людська фігура, вона
була неяскравою -- місячне світло замість сонячного, біле замість срібного.

// 9645
//But it strengthened, slowly, as Harry breathed in deliberate rhythm,
//recovering. Letting the light drive back the darkness from his mind.
//Remembering the things that he had almost forgotten, and channeling them back
//into the Patronus Charm.
Та вона повільно набирала силу, доки Гаррі ритмічно дихав та відновлював себе.
Давав час світлу витіснити пітьму з його розуму. Згадував речі, які він ледь
не забув, і підживлював цими спогадами патронуса.

// 9646
//Even when the light blazed full and silver once more, illuminating the corridor
//more brightly than the gas lamps, banishing fully the cold, Harry’s limbs still
//shook. That had been too close.
Навіть коли світло знову сяяло яскравим сріблом, затьмарило проміння гасових
ламп та повністю вигнало холоднечу, кінцівки Гаррі все одно тремтіли. Ще трохи
і він зазнав би поразки.

// 9647
//Harry took a deep breath. All right. It was time to reconsider the situation
//now that his thoughts were no longer being artificially darkened by Dementors.
Гаррі глибоко вдихнув. Гаразд. Час знову розглянути ситуацію, тепер, коли його
думки більше не зазнають штучного песимістичного впливу дементорів.

// 9648
//Harry reviewed the situation.
Гаррі обміркував ситуацію.

// 9649
//…still looked pretty hopeless, actually.
...вона досі здавалася доволі безнадійною, якщо чесно.

// 9650
//It wasn’t the crushing despair of before, but Harry still felt wobbly, to put
//it mildly. He didn’t dare go dark and it was his dark side that had the ability
//to take this level of problem in stride. It was his dark side that would have
//laughed scornfully at the very concept of giving up just because he’d lost
//Professor Quirrell and was marooned in the depths of Azkaban and had been seen
//by a police officer. The ordinary Harry was not able to take that sort of thing
//in stride.
Це вже був не нездоланний відчай, проте Гаррі досі було кепсько, якщо
висловитися делікатно. Він не наважувався занурюватися в темну сторону, а саме
в неї була здатність лускати задачі такого рівня складності мов горішки. Його
темна сторона б зверхньо розсміялася від самої думки здатися лише через
те, що він втратив професора Квірела й був покинутий в глибинах Азкабану, а
також його бачив офіцер поліції. Звичайний Гаррі не був здатен легко давати
собі раду з такими ситуаціями.

// 9651
//But there wasn’t any option except to keep moving forward anyway. You couldn’t
//get any __more__ pointless than giving up before you’d actually lost.
Але крім як рухатися далі все одно не було варіантів. Неможливо вигадати чогось
__більш__ безґлуздого, ніж здаватися ще до того, як програв.

// 9652
//Harry looked around.
Гаррі роззирнувся довкола.

// 9653
//Dim gas lights lit a corridor of grey metal, whose sides and floor and ceiling
//were slashed in places, gouged and melted, telling anyone who cared to look
//that there had been battle here.
Тьмяні гасові лампи освітлювали сірий металевий коридор. На стінах, підлозі й
стелі були глибокі порізи -- деякі виплавлені. Будь-хто з першого погляду
збагне, що тут була битва.

// 9654
//Professor Quirrell could have repaired it easily enough, if he’d…
Професор Квірел легко б усе полагодив, якби...

// 9655
//The sense of betrayal struck Harry with full force, then.
Тоді відчуття зради вдарило Гаррі з повною силою.

// 9656
//__Why… why did he… why…__
__Чому... чому він... чому...__

// 9657
//__Because he’s evil,__ said Gryffindor and Hufflepuff, quietly and sadly.
//__We told you so.__
__Бо він лихий,__ тихо та сумно сказали ґрифіндорець і гафелпафець. __Ми
попереджали.__

// 9658
//__No!__ thought Harry desperately. __No, it doesn’t make sense, we
//were going to commit the perfect crime, the Auror could have been Obliviated,
//the corridor repaired, it wasn’t too late but it would have BEEN too late if
//he’d died!__
__Ні!__ з відчаєм подумав Гаррі. __Ні, це не тримається купи, ми збиралися
скоїти бездоганний злочин, аврора треба було забуттятнути, коридор полагодити,
було ще не запізно, але СТАЛО б запізно, якби він помер!__

// 9659
//__But Professor Quirrell was never really planning to commit the perfect
//crime,__ said the grim voice of Slytherin. __He __wanted__ the crime
//to be noticed. He wanted everyone to know that someone had killed an Auror and
//broken Bellatrix Black out of Azkaban. He would have prepared some kind of
//evidence, some proof he could reveal of your involvement, to use as blackmail
//against you; and you would have been bound to him forever.__
__Але професор Квірел насправді й не збирався скоїти бездоганний злочин,__
пролунав подумки безжальний голос слизеринця. __Він __хотів__, щоб злочин
помітили. Він хотів, щоб усі дізналися, що хтось убив аврора та організував
утечу Белатриси Блек з Азкабану. Він приготував якісь свідчення, якісь докази
того, що ти брав у цьому участь, щоб шантажувати тебе. І ти б назавжди
належав йому.__

// 9660
//Harry’s Patronus almost went out, then.
Від цієї думки патронус Гаррі ледь не згаснув.

// 9661
//__No…__ Harry thought.
__Ні...__ подумав Гаррі.

// 9662
//__Yes,__ said the other three parts of him sadly.
__Так,__ сумно відповіли інші його три частини.

// 9663
//__No. It still doesn’t make sense. Professor Quirrell had to know I would
//turn against him the instant I saw him kill an Auror. That I might very well go
//ahead and confess to Dumbledore, hoping to plead the true fact that I was
//tricked. And… in terms of blackmail, does his killing an Auror against my will,
//really add all __that__ much to breaking Bellatrix out of Azkaban with my
//willing help? It would have been more cunning to keep the evidence of my
//involvement with the basic crime, but still pretend to be my ally for as long
//as he could, saving the blackmail to use only if it became necessary…__
__Ні. Це все одно безґлуздя. Професор Квірел мав знати, що я постану проти нього,
щойно побачу, як він убив аврора. Що я навіть можу взяти й зізнатися в усьому
Дамблдорові, сподіваючись, що вийде переконати в правді -- що мене обдурили.
І... хіба для шантажу вбивство аврора проти моєї волі справді __достатньо__
додавало до того, що я з власної волі допомагав Белатрисі втекти з Азкабану?
Значно хитрішим було б тримати докази моєї участі в цьому злочині і вдавати з
себе мого союзника якомога довше, приберегти шантаж доки той стане потрібним...__

// 9664
//__Rationalization,__ said Slytherin. __So why __did__ Professor
//Quirrell do it, then?__
__Раціоналізація,__ сказав слизеринець. __То __навіщо__ ж професор Квірел це
зробив?__

// 9665
//And Harry thought with a tinge of desperation - knowing, even as he thought it,
//that he was motivated in part by a desire to reject reality, and that wasn’t
//how the technique was meant to be wielded - __I notice that I am
//confused.__
І Гаррі з надією -- він знав, що частково ним керує жага заперечити дійсність,
і насправді цей прийом призначений для іншого, -- __Я помітив, що я
спантеличений.__

// 9666
//There was internal silence. None of the parts of himself seemed to have
//anything to add to that.
Запала внутрішня тиша. Жодна з його частин не знала, що можна додати.

// 9667
//And Harry continued to take stock of the moderately hopeless-looking situation.
І Гаррі продовжив оцінювати свою ситуацію середнього рівня безнадійності.

// 9668
//Did Harry need to re-evaluate the probability that Bellatrix was evil?
Чи треба було переоцінити ймовірність того, що Белатриса була лихою?

// 9669
//…not in any mission-relevant sense. It was a __given__ that Bellatrix was
//currently evil. Whether she was an innocent who’d been made that way by torture
//and Legilimency and unspeakable rituals, or whether she’d chosen it of her own
//will, didn’t have much bearing on the current situation. The key fact was that
//while Bellatrix thought Harry was the Dark Lord, she would obey him.
...місії це не стосувалося жодним чином. Те, що Белатриса наразі лиха, було
__даністю__. Зробили її такою катуваннями, виманологією та жахливими ритуалами
з невинної дівчини, чи вона була такою з власної волі, ніяк не впливало на
поточну ситуацію. Ключовим фактом було те, що доки Белатриса вважала Гаррі
Темним Лордом, вона підкорятиметься йому.

// 9670
//That was one resource, then. But Bellatrix was starved and nine-tenths dead…
// hedrok: друге речення - копія з 053:9390
Це вже один ресурс. Проте Белатриса була змореною голодом та на дев'ять десятих
мертва.

// 9671
//__‘Oh, I feel a little better now, how strange…’__
//hedrok: копія з 054:9461
"`__О, я почуваюся трохи краще, як дивно...__`"

// 9672
//Bellatrix had said that, in her shattered voice, after Harry’s Patronus had
//blazed out of control.
Белатриса сказала була це своїм зламаним голосом, після безконтрольного сяяння
патронуса Гаррі.

// 9673
//Harry thought, and he couldn’t have quite said __why__ he thought this, it
//might have just been his own mind making things up, but… it seemed likely that
//what the Dementors had taken from you long ago was lost forever. But what the
//Dementors had taken from you __recently,__ the True Patronus Charm might
//give back. Like the difference between emptying a cup, and the unused cup
//fading away. Bellatrix, then, might have got back what she’d lost in just the
//last week or so. Not any happy memories, those would have been eaten years ago.
//But whatever strength and magic had been drained from her in just the last
//week, she might have regained. Like the equivalent of getting a week of rest, a
//week to build up her magic again…
Гаррі спало на думку, і він не зміг би до пуття пояснити, __чому__ це спало йому
на думку, можливо він просто навигадував це, проте... йому здавалося ймовірним,
що давно забране дементорами втрачалося назавжди. Але те, що дементори
забрали були __нещодавно__, чари справжнього патронуса могли повернути. Ніби
різниця між спорожнілою склянкою та зниклою непотрібною склянкою. Відповідно,
Белатриса відновила те, що втратила впродовж приблизно тижня. Жодних щасливих
спогадів -- їх з'їли роки тому. Але хай яку силу й магію з неї висмоктали
протягом тижня, можливо, вона відновила. Ніби вона відпочивала тиждень і знову
накопичувала магію...

// 9674
//Harry looked at Professor Quirrell’s snake form.
Гаррі поглянув на тіло змі{stress}я, що був професором Квірелом.

// 9675
//…maybe enough for an __Innervate.__
...можливо накопичила достатньо для __Інервації__.

// 9676
//If awakening Professor Quirrell __was__, in fact, a smart thing to do.
Якщо, звісно, будити професора Квірела взагалі було розумним.

// 9677
//Some of the despair came back to Harry, then. He couldn’t trust Professor
//Quirrell, couldn’t trust that reviving him would be wise, not after what had
//just happened.
Частина відчаю повернулася до Гаррі від цієї думки. Він не міг довіряти
професорові Квірелу, не знав, чи буде мудрим розбудити його, не після того, що
щойно сталося.

// 9678
//__Steady,__ Harry thought to himself, and looked at the crumpled form of
//the Auror.
__Спокійно,__ звернув до себе думку Гаррі й поглянув на тіло аврора на підлозі.

// 9679
//Bellatrix might __also__ be able to manage a Memory Charm.
__Також__ Белатриса може бути здатна на чари пам'яті.

// 9680
//That could be step one, anyway. It wasn’t exactly getting everyone safely out
//of Azkaban, and the Aurors __would__ know afterward that something strange
//had happened, they might suspect Bellatrix’s body and perform an autopsy. But
//it was a step.
Принаймні, це буде першим кроком. Це не зовсім порятунок усіх з Азкабану, і
аврори __знатимуть__, що сталося щось дивне, навіть тіло Белатриси може викликати
достатньо підозр, щоб зробити автопсію. Проте це було кроком.

// 9681
//…and __would__ it be all that hard to get out of Azkaban? If they could
//get to the top of Azkaban quickly enough, before the Auror was supposed to
//report back in, before anyone noticed him missing, then they could just fly out
//through the hole Professor Quirrell had made, and get far enough away from
//Azkaban to activate the portkey Harry already had in his possession. (Both
//Professor Quirrell and Harry had portkeys, and both were powerful enough to
//transport two humans, plus or minus a snake. As with their doubly-concealed
//departure from Mary’s Room, Professor Quirrell had put enough safety margin in
//his plans to impress even Harry.)
...і __чи справді__ буде аж так складно вибратися з Азкабану? Якщо вони дістануться
верху Азкабану достатньо швидко -- перед тим, як цей аврор мав відзвітувати, перед
тим, як хтось помітить, що його немає, то вони зможуть просто вилетіти крізь отвір,
що його створив був професор Квірел, і відлетіти достатньо далеко, щоб активувати
летиключ, що був у Гаррі. (І професор Квірел, і Гаррі мали летиключі -- кожен був
достатньо потужним, щоб перемістити двох людей зі змією чи без. Як і з подвійно
прихованим відходом з "`Кімнати Мері`", професор Квірел у своїх планах продумав
стільки заходів додаткової безпеки, що вразив навіть Гаррі.)

// 9682
//Bellatrix could carry Professor Quirrell’s snake form, which Harry dared not
//touch or levitate.
Белатриса могла понести професора Квірела у подобі змія -- Гаррі не
наважувався його торкатися чи левітивувати.

// 9683
//Harry turned and strode quickly toward where Bellatrix was waiting on the
//stairs. He could feel his spirits reviving a little. It __was__ starting
//to look like a good plan, and there was no time to waste in going about it.
Гаррі розвернувся й хутко підійшов до Белатриси, що чекала на сходах. Він
відчував приплив сил. __Видавалося,__ у нього не такий уже й поганий план,
і не можна було марнувати час на нескінченні обмірковування.

// 9684
//What to do with Professor Quirrell, or for that matter Bellatrix, after the
//portkey took them to where they were supposed to hand Bellatrix over to the
//psychiatric healer… well, Harry could work that out along the way. Harry would
//probably have to bamboozle the healer into doing something - which was going to
//take one hell of a bamboozling, and Harry wasn’t even sure what he
//__wanted__ done - but he and Bellatrix had to get moving __now.__
Що робити з професором Квірелом, та і, якщо вже про це, з Белатрисою після того,
як летиключ перенесе їх туди, де вони мали передати Белатрису психіатричному
цілителю... ну, Гаррі подумає про це, коли прийде час. Напевно, Гаррі
доведеться обморочити цілителя, щоб той щось зробив... і це буде до дідька
непросто зробити, Гаррі навіть не знав, чого він __хотів__, але йому й
Белатрисі треба рушати __негайно__.

// 9685
//The main problem Harry saw, as he quickly ran the whole process forward in his
//imagination, would come when they reached the roof. Professor Quirrell had been
//supposed to sneak around invisibly and Confund the monitors that would notice
//visitors in the aerial surroundings of Azkaban, causing them to see a repeating
//loop of scenery for a few minutes. Professor Quirrell had said that he couldn’t
//Disillusion Harry’s Patronus; and if they switched __off__ the Patronus,
//the Dementors would notice Bellatrix was missing, and alert the Aurors…
Головна перешкода, як здалося Гаррі, коли він прокрутив весь свій план в уяві,
виникне, коли вони дійдуть до даху. За оригінальним планом професор Квірел мав
крадькома під дією невидимості конфунднути датчики, що слідкували за
повітряним простором навколо Азкабану, щоб тим на вхід надходили
нескінченно повторювані останні п'ять хвилин. Професор Квірел сказав був, що не
може розілюзнити патронуса Гаррі, а якщо його __вимкнути__, то дементори
помітять, що Белатриси немає, і повідомлять аврорів...

// 9686
//Harry’s train of thought stumbled.
Думка Гаррі заклякла.

// 9687
//There were times when ‘Aw, crap’ just didn’t seem to cover it.
Подеколи фраза "`от лайно`" нездатна була гідно описати ситуацію.

***

// 9688
//Li’s hands were sure despite the adrenaline, as he unlocked the bars on the
//Vanishing Cabinet that linked Azkaban to a well-guarded room in the interior of
//the Department of Magical Law Enforcement. (A one-way Vanishing Cabinet, of
//course. The wards permitted a few fast ways __into__ Azkaban, all of them
//highly restricted, and __no__ fast ways out.)
// hedrok: щезальна шафа - Абабагаламага
// hedrok: відділ дотримання магічних законів - Абабагаламага
Руки Лі не тремтіли, незважаючи на адреналін, коли він відчинив ґрати, за якими
була щезальна шафа, що зв'язувала Азкабан з кімнатою під суворою охороною в
глибинах Відділу Дотримання Магічних Законів. (Звісно, це була одностороння
щезальна шафа. Захисні чари дозволяли декілька швидких шляхів __до__ Азкабану,
кожен з вкрай обмеженим доступом, і __жодного__ швидкого шляху __з__ Азкабану.)

// 9689
//Li stepped well back, pointed his wand at the Cabinet, spoke the incantation
//“__Harmonia Nectere Passus__”, and not a second later -
// hedrok: Harmonia Nectere Pasus - з фільму "Гаррі Поттер і
// Принц-напівкровка", 1:08
Лі відійшов подалі, направив паличку на шафу, вимовив закляття "`__Гармонія
Нектере Пасус__`". І секунди не минуло...

// 9690
//The door of the Cabinet burst open with a bang, and into the room strode a
//heavy-set, square-jawed witch with greyed hair cropped close around her head.
//She wore no rank signs as she wore no jewelry or other ornamentation, it was
//only an ordinary Auror’s robes that she deemed fit to grace herself: Director
//Amelia Bones, head of the Department of Magical Law Enforcement and said to be
//the only witch in the DMLE who could take Mad-Eye Moody in a fair fight (not
//that either of those two were the sort to fight fairly). Li had heard rumors
//that Amelia could Apparate within the bounds of the DMLE, and this was the sort
//of thing that gave rise to rumors like that, he’d called in the alarm not fifty
//seconds ago.
Двері шафи розчахнулися з тріскотом, і в кімнату широким кроком зайшла
широкоплеча відьма з квадратною щелепою й коротесеньким сивим волоссям. На ній
не було жодних ознак її статусу, не було коштовностей чи інших прикрас -- лише
звичайна мантія аврора була визнана гідною її: директор Амелія Боунз, голова
Відділу Дотримання Магічних Законів, за чутками єдина відьма у ВДМЗ, що могла
перемогти Дикозора Муді в чесному бою (не те щоб хтось з цих двох зазвичай
бився чесно). Лі навіть чув, як подейкували, що Амелія могла являтися всередині
ВДМЗ, і, певно, випадки на кшталт цього породжували такі чутки -- тривогу він
здійняв не більш як п'ятдесят секунд тому.

// 9691
//“Get into the air, now!” Amelia barked over her shoulder at the female Auror
//trio following behind her with police broomsticks, they must have all been
//crushed in there, waiting for Li to activate the Cabinet. “I want more aerial
//coverage on this place! And make sure you keep up your anti-Disillusionment
//Charms!” Then her head turned toward him. “Report, Auror Li! Do we know how
//they got in yet?”
-- У повітря, негайно! -- гарикнула вона через плече трійці аврорів-жінок, що
йшли за нею з поліцейськими мітлами, напевно їм усім було замало місця там, де
вони чекали, доки Лі не активує щезальну шафу. -- Мені потрібно більше
спостерігачів у повітрі! І не забувайте підтримувати чари антирозілюзнення!

Тоді вона обернулася до нього.

-- Доповідайте, авроре Лі! Чи відомо нам уже, як вони проникли всередину?

// 9692
//Another Auror trio holding broomsticks materialized in the Vanishing Cabinet
//and strode out after them even as Li began talking.
Ще одна трійця аврорів з мітлами матеріалізувалася зі щезальної шафи та
хутко вийшла, доки Лі ще не встигнув почати відповідь.

// 9693
//They were followed by a trio of Hit Wizards in full battle gear.
За ними вийшла трійця чаклунів-бойовиків у повному спорядженні.

// 9694
//Then another trio of Hit Wizards.
Потім ще одна трійця чаклунів-бойовиків.

// 9695
//Then another broomstick team.
І ще одна з мітлами.

***

// 9696
//The emaciated form that was Bellatrix Black was resting motionless on the
//stairs when Harry got there, eyes closed, and when Harry asked in a cold, high
//whisper whether she was awake, he got no response.
Чахле тіло Белатриси Блек нерухомо лежало на сходах, коли Гаррі туди дістався.
Її очі були заплющеними, і коли Гаррі спитав холодним високим шепотом, чи вона не
спить, відповіді не було.

// 9697
//A brief twitch of panic was countered by the thought that Professor Quirrell
//had knocked her out to prevent her from hearing the Dark Lord’s cringing
//servant suddenly turn into a hardened criminal and then an expert battlemage.
//Which was good, because she wouldn’t have heard Harry’s voice saying ‘Expecto
//Patronum’.
Недовгий напад паніки зупинила думка, що напевно професор Квірел просто оглушив
її, щоб вона не чула, як зіщулений слуга Темного Лорда раптом перетворився на
гартованого злочинця, а потім на експерта з бойової магії. І це було добре, бо
інакше вона б почула, як Гаррі вимовив "`Експекто Патронум`".

// 9698
//Harry drew back the hood of the Cloak, pointed his wand at Bellatrix, and
//whispered as gently as he could, “__Innervate.__”
Гаррі відкинув каптур Плаща, вказав паличкою на Белатрису, та якомога лагідніше
прошепотів "`__Інервація__`".

// 9699
//From the way Bellatrix’s body jerked a little, Harry didn’t think he’d managed
//to get it quite gentle enough.
Судячи з того, як смикнулося тіло Белатриси, Гаррі не вдалося досягти
потрібного рівня лагідності.

// 9700
//The sunken dark eyes opened.
Запалі темні очі розплющилися.

// 9701
//“Bella dear,” Harry said in his cold, high voice, “I am afraid we’ve run into a
//bit of a problem. Have you recovered enough to do small magics?”
-- Люба Бело, -- сказав Гаррі холодним, високим голосом. -- На жаль, у нас
виникли невеликі складнощі. Чи достатньо сил ти відновила для дрібної магії?

// 9702
//There was a pause, and then Bellatrix’s pale head nodded.
По деякому часі бліда голова Белатриси кивнула.

// 9703
//“Very good,” Harry said dryly. “I won’t ask you to walk unaided, Bella dear,
//but I am afraid you must walk.” He pointed his wand at her. “__Wingardium
//Leviosa.__”
-- Дуже добре, -- сухо сказав Гаррі. -- Я не вимагатиму, щоб ти йшла без допомоги,
люба Бело, проте, на жаль, ти мусиш йти.

Він вказав на неї паличкою й вимовив "`__Вінґардіум Левіоза__`".

// 9704
//Harry kept the flow of force down to something he could sustain for a while,
//and it was still probably lifting two-thirds of her current body weight. She
//was… thin.
Гаррі зменшив потік сили до рівня, що його він зможе підтримувати довгий час, і
цього все одно було достатньо, щоб підняти дві третини її ваги. Вона була...
худою.

// 9705
//Slowly, as though for the first time in years, Bellatrix Black pushed herself
//to her feet.
Повільно, ніби вперше за довгі роки, Белатриса Блек підвелася на ноги.

***

// 9706
//Amelia strode into the duty room, Auror Li and his silver badger following
//behind her. She’d spun her Time-Turner the moment she’d heard the alarm, and
//then spent a tense hour preparing her forces for entry. You couldn’t
//__loop__ time within Azkaban itself, Azkaban’s future couldn’t interact
//with its past, so she hadn’t been able to arrive before the DMLE had gotten the
//message, but she should have arrived in time…
Амелія широким кроком зайшла до кімнати для чергування, аврор Лі зі своїм
срібним бобром ішли слідом. Вона скористалася була своїм часоворотом, щойно
почула про тривогу, і витиснула з додаткової години все можливе для підготовки
бойових сил. Неможливо створювати __петлю__ часу всередині Азкабану -- майбутнє
Азкабану не може взаємодіяти з його минулим, тому вона не могла прибути перед
тим, як ВДМЗ отримав повідомлення, проте вона могла прибути вчасно...

// 9707
//Her eyes went straight to the corpse, uncloaked and looking very dead, floating
//beyond the viewing window.
Її очі втупилися в труп, що не мав плаща й видавався вкрай мертвим, і зависнув
поза вікном.

// 9708
//“Where is Bellatrix Black?” Amelia demanded, showing no fear before the
//creature of fear.
-- Де Белатриса Блек? -- владно запитала Амелія, вона не виказувала жодного
страху перед створінням страху.

// 9709
//Even her own blood froze for an instant, as the corpse parted its lips, and
//gurgled, “__Do not know.__”
Але навіть її кров на мить захолола, коли труп розтулив губи та пробулькотів:

-- __Не знаю.__

***

// 9710
//Harry watched, now fully invisible once more, as Bellatrix slowly leaned down,
//took Professor Quirrell’s wand (which Harry dared not touch), and slowly
//straightened again.
Гаррі спостерігав, тепер знову повністю невидимий, як Белатриса повільно
схилилася, підняла паличку професора Квірела (Гаррі не наважувався її
торкнутися) та повільно випрямилася знову.

// 9711
//Then Bellatrix pointed the wand at the snake, and said, her voice precise
//though it was still a whisper, “__Innervate.__”
Тоді Белатриса направила паличку на змія і сказала рівним голосом, хоч
і шепотом: "`__Інервація__`".

// 9712
//The snake did not stir.
Змій не ворухнувся.

// 9713
//“Shall I try again, my Lord?” she whispered.
-- Спробувати ще раз, володарю? -- прошепотіла вона.

// 9714
//“No,” Harry said. He swallowed the sick feeling. Harry had decided to say the
//hell with it and try to revive Professor Quirrell after he’d realized that the
//Dementors had probably alerted the Aurors by now. His high, cold voice went on,
//unperturbed, “Do you think you are able to perform a Memory Charm, dear Bella?”
-- Ні, -- сказав Гаррі. На мить йому стало зле, та він опанував себе. Гаррі
вирішив був начхати на все й спробувати розбудити професора Квірела, коли
зрозумів, що дементори напевно вже попередили аврорів. Його високий, холодний
голос провадив далі без жодної затримки, -- як гадаєш, ти здатна на чари
пам'яті, люба Бело?

// 9715
//Bellatrix paused, and then said, hesitantly, “I think so, my Lord.”
Белатриса трохи помовчала, а потім невпевнено відповіла:

-- Гадаю так, володарю.


// 9716
//“Eliminate that Auror’s last half-hour of memory,” Harry commanded. He’d
//thought a bit about whether he wanted to provide any justification for that,
//what he would say if Bellatrix asked why they weren’t just killing him, in
//which case Harry would explain that they were pretending to be a different
//power group and then tell her to shut up -
-- Знищ останні пів години пам'яті аврора, -- наказав Гаррі.

Він трохи вагався був, чи варто надати якісь пояснення, обмірковував,
що{stress} він скаже, якщо Белатриса спитає, чому вони просто не вб'ють аврора.
У цьому випадку Гаррі пояснить, що вони вдають інше угрупування, а тоді скаже
їй замовкнути...

// 9717
//But Bellatrix simply pointed her wand at the Auror, stood silently for a time,
//and finally whispered, “__Obliviate.__”
Та Белатриса просто направила паличку на аврора, мовчки стояла так деякий час,
і нарешті прошепотіла "`__Забуттятус.__`"

// 9718
//She swayed, then, but did not fall.
Тоді вона похитнулася, проте не впала.

// 9719
//“Very good, my dear Bella,” Harry said, and chuckled thinly. “And I will ask
//you to carry that snake.”
-- Дуже добре, моя люба Бело, -- сказав Гаррі й злегка розсміявся. -- А також я
попрошу тебе понести цю змію.

// 9720
//Again, the woman said nothing, demanded no explanations, didn’t ask why Harry
//or the apparently-invisible Patronus caster couldn’t do it. She only staggered
//to where the long snake lay, slowly bent over, picked it up, draped it over her
//shoulder.
І знову жінка нічого не сказала, не вимагала жодних пояснень, не спитала, чому
Гаррі чи вочевидь-невидимий слуга, що керує патронусом, не могли цього зробити.
Вона лише попленталася туди, де лежав довгий змій, повільно схилилася, підняла
його та закинула його на плече.

// 9721
//(A tiny little part of Harry observed that it was very __relaxing__ to
//have a minion that would just follow orders so unquestioningly, and even got as
//far as thinking that he could totally get used to having a minion like
//Bellatrix, before that mind-fraction was screamed into silence by his mortally
//offended remainder.)
(Крихітна частинка Гаррі зазначила, що було дуже __зручно__ мати посіпаку, що
просто виконує накази без жодних питань, і навіть встигла подумати, що легко
може звикнути мати посіпаку на кшталт Белатриси, доки на цю частку розуму не
загорланила вкрай обурена решта.)

// 9722
//“Follow,” the boy commanded his minion, and began to walk.
-- За мною, -- наказав хлопчик посіпаці, і вони пішли.

***

// 9723
//It was starting to get crowded in the duty room, almost too crowded to breathe,
//though there was still space around Amelia herself; if needing to breathe meant
//that you had to crowd Director Bones, it was better not to breathe.
У кімнаті для чергування стало тісно. Дуже тісно -- ще трохи й стало б важко
дихати. Хоча навколо самої Амелії був вільний простір. Якщо для того, щоб
дихати, треба було потіснити директорку Боунз, то краще вже не дихати.

// 9724
//Amelia looked at where Ora was fiddling with Auror McCusker’s mirror.
//“Specialist Weinbach,” she barked, causing the young witch to start. “Any
//response from One-Hand’s mirror?”
Амелія поглянула на Ору, що вертіла в руках дзеркало аврора Маккаскера.

-- Спеціалістко Вейнбах, -- гримнула вона, і молода відьма здригнулася. --
Є якийсь зв'язок із дзеркалом Однорука?

// 9725
//“None,” Ora said nervously, “it’s… I mean it has to be jammed, not dead,
//carefully jammed because it didn’t set off the alarms, but the line is so blank
//the mirror might as well be broken…”
-- Жодного, -- знервовано відповіла Ора, -- його... тобто воно має бути
заблокованим, не знищеним, а обережно заблокованим, бо воно не здійняло
тривоги, але лінія зв'язку настільки відсутня, ніби воно зламане...

// 9726
//Amelia didn’t let her expression change, though the part of her that was
//already mourning One-Hand got a little sadder and a lot more angry. Seven
//months, he’d had seven months left until his retirement after a full century of
//service. She remembered him as an eager young Auror, so very long ago, and his
//whole career he’d served the DMLE with perfect loyalty, at least when it came
//to anything really important…
Амелія не змінилася в лиці, хоча та її частина, що вже оплакувала Однорука, стала
трохи сумнішою та значно злішою. Сім місяців, йому залишилося лише сім місяців до
відставки після сторіччя служби. Вона пам'ятала його ще енергійним молодим аврором,
дуже давно, і всю свою кар'єру він служив ВДМЗ з бездоганною вірністю, принаймні
коли це справді мало значення...

// 9727
//Someone would __burn__ for this.
Когось за це __спалять__.

// 9728
//The Dementor still hovered outside the window, casting its useless shadow of
//dread over their operations; all the creature could do was gurgle its lack of
//knowledge or fail to reply at all, when asked questions like ‘Did Bellatrix
//Black escape?’ and ‘Why can’t you find her?’ and ‘How is she being hidden?’
//Amelia was starting to worry that the criminals were already gone, when -
Дементор досі висів за вікном, даремно відкидаючи тінь остраху на всі їхні
дії. Істота могла лише булькотіти про відсутність знань чи взагалі не відповідати
на питання на кшталт "`Белатриса Блек втекла?`", "`Чому ви не можете її знайти?`",
"`Як вони переховуються?`". Амелія почала хвилюватися, чи не встигли злочинці вже
втекти, коли...

// 9729
//“We found a hole in the roof over C spiral!” someone shouted from the doorway.
//“Still open, ward circumventions still active!”
-- Ми знайшли отвір на даху над спіраллю "`В`"! -- крикнув хтось з-за дверей.
-- Досі відкритий, чари, що запобігають тривозі, досі активні!

// 9730
//Amelia’s lips peeled back in a smile like a wolf opening its jaws to eat.
Губи Амелії вишкірилися, ніби вони були щелепами вовка, що збирався їсти.

// 9731
//Bellatrix Black was still in Azkaban.
Белатриса Блек досі була в Азкабані.

// 9732
//And in Azkaban, Bellatrix Black would remain forever.
В Азкабані Белатриса Блек і залишиться навічно.

// 9733
//She took a stride toward the window, ignoring the Dementor now, and looked up
//at the sky above, to check with her own eyes the patrolling broomsticks. She
//couldn’t see the whole sky from here, but she saw ten brooms go past on a
//patrol pattern and that already ought to be enough to catch anyone, though she
//fully meant to put every broom she could in the air. Her Aurors were equipped
//with the fastest racing broom currently on the market, the Nimbus 2000; no
//unsuccessful chases for __her__ people.
Вона хутко підійшла до вікна і, тепер ігноруючи дементора, поглянула догори,
щоб на власні очі перевірити, як мітли патрулюють небо. Вона не могла з цієї
точки бачити все небо, проте встигла помітити, як пролетіли десять мітел, і вже
цього має бути достатньо, щоб спіймати будь-кого. Хоча вона все одно збиралася
відправити у повітря всі мітли, які зможе. Її аврори мали найшвидші спортивні
мітли на ринку -- "`Німбус-2000`". __Її__ людей не спіткають невдачі у
погонях.

// 9734
//Amelia turned back from the window, and frowned. The room was getting
//ridiculously crowded, and two thirds of these people didn’t __need__ to be
//here, they just __wanted__ to be close to the center of the action. If
//there was one thing Amelia couldn’t tolerate, it was people who did what they
//wanted instead of what was needed.
Амелія відвернулася від вікна й спохмурніла. У кімнаті вже був сміховинний
натовп, двом третинам цих людей не __треба__ було тут перебувати, їм просто
__хотілося__ бути ближче до центру подій. Якщо й було щось, чого Амелія терпіти
не могла, то це людей, що робили те, що їм хотілося, замість того, що потрібно.

// 9735
//“All right, you lot!” Amelia bellowed at them. “Stop hanging around here and
//start securing the top level of each spiral! That’s right,” she said to the
//looks of surprise, “all three! They could tunnel through a floor or a ceiling
//to go between them, in case you hadn’t worked that out! We’re going down level
//by level until we catch them! I’ll take C spiral, Scrimgeour, you’re on B…” She
//paused, then, remembering that Mad-Eye had retired last year, who could she…
//“Shacklebolt, you’re on the A spiral, take with the strongest other fighters!
//Check every set of cells you pass, look under blankets, do the full set of
//detection Charms in every corridor! Nobody leaves Azkaban until the criminals
//are caught, nobody! And…” People looked at Amelia in surprise as her voice
//trailed off.
// hedrok: @ the strongest other fighters?..
-- Гаразд, увага! -- гарикнула Амелія. -- Годі тинятися тут, беріть під
варту верхній рівень кожної спіралі! Саме так, -- сказала вона у відповідь на
здивовані погляди, -- усіх трьох! Вони могли пробити тунель крізь підлогу чи стелю,
щоб перейти до іншої, якщо ви самі не здогадалися! Ми спускатимемося рівень за
рівнем, доки не спіймаємо їх! Я беру на себе спіраль "`В`", Скрімджере, на тобі
"`Б`", -- вона затнулася, згадавши, що Дикозор звільнився минулого року, кому
вона могла... -- Шеклболте, на тобі спіраль "`А`", беріть з собою лише найсильніших
бійців! Перевіряйте кожну камеру на своєму шляху, зазирайте під ковдри, застосовуйте
повний набір чарів виявлення в кожному коридорі! Ніхто не вийде з Азкабану, доки
злочинців не спіймають, ніхто! І...

Всі здивовано поглянули на Амелію, коли її голос затихнув.

// 9736
//__The criminals had invented some way to prevent the Dementors from
//finding Bellatrix Black.__
__Злочинці винайшли якийсь спосіб приховати Белатрису Блек від дементорів.__

// 9737
//That ought to have been __impossible.__
Це мало б бути __неможливо__.

// 9738
//It chilled her blood, contemplating that. It was like…
Від цього в неї холола кров, від усвідомлення цього. Це скидалося на...

// 9739
//Amelia took a deep breath, and spoke once more, in a voice of steel command.
//“And when you catch them, make bloody sure they’re the real criminals and not
//our own people forced to take Polyjuice. Anyone behaves oddly, check them for
//the Imperius Curse. Keep each other in sight at all times. Don’t assume an
//Auror uniform is friendly if you don’t recognize the face.” She turned to the
//communications specialist. “Tell the broomsticks. If one of the brooms peels
//off for no reason, __half__ of them are to hunt it down while the
//__rest__ keep patrolling. And change the harmonics on everything
//changeable, they may have stolen our keys.” Then back to the rest of the room.
//“No Auror is above suspicion unless they have no family left to threaten.”
Амелія глибоко вдихнула, і продовжила промову тоном категоричного наказу.

-- І коли ви впіймаєте їх, зробіть збіса все, щоб переконатися, що це справді
вони, а не наші люди, що їх змусили прийняти багатозільну настоянку. Будь-кого,
хто поводиться дивно, перевіряйте на Імперіус. Завжди залишайтеся в полі зору
інших. Не думайте, що як хтось в уніформі аврора, то він друг, якщо не
впізнає{stress}те обличчя.

Вона обернулася до спеціаліста зв'язку.

-- Передай мітлам. Якщо одна мітла почне летіти геть без жодної причини,
__половина__ з них має переслідувати її, а __решта__ хай продовжують
патрулювати. І змініть гармоніки на всьому, що можна, -- можливо, вони вкрали
наші ключі.

Тоді знову звернула погляд на решту кімнати.

-- Є підстави підозрювати кожного аврора, що в нього залишилася родина, якій
можна погрожувати.

// 9740
//She saw it, the cold looks that came over the older faces, saw some of the
//younger Aurors flinch, and knew that they understood.
Вона побачила, як обличчя посуворішали, побачила, як молодші аврори
здригнулися, і знала, що вони зрозуміли.

// 9741
//But she said it out loud, just to be sure.
Але про всяк випадок сказала це вголос.

// 9742
//“We’re fighting the old Wizarding War today, everyone. Just because
//You-Know-Who is dead doesn’t mean the Death Eaters have forgotten his tricks.
//Now __go!__”
-- Сьогодні в нас продовження старої Чаклунської Війни. Лише через те, що
Відомо-Хто помер, смертежери не забули його фокусів. А тепер __виконуйте__!

***

// 9743
//Harry walked in silence through the gas-lit grey corridor, invisible beside
//Bellatrix and the silver shape following them, trying to think of a better
//plan.
Невидимий Гаррі йшов у тиші освітленим гасовими лампами сірим коридором. За ним
йшла Белатриса та срібна фігура. А він намагався вигадати план поліпше.

// 9744
//At first, when he’d realized that the Aurors probably knew already, and that
//moreover, Professor Quirrell wasn’t waking up…
Спочатку, коли він збагнув був, що аврори напевно вже знали, та ще й що
професор Квірел не прокинеться...

// 9745
//His thoughts __had__ frozen up there, for a second.
У його голові на секунду не було __жодної__ думки.

// 9746
//And then stayed frozen, even as he’d gotten himself and Bellatrix heading
//downward, to buy as much time as possible; the Aurors, Harry figured, would
//start at the top and move down level by level. The Aurors could afford to move
//slowly and securely; they knew their prey had no way out.
І так і не з'явилося, проте він наказав Белатрисі спускатися вниз, щоб виграти
якомога більше часу. Аврори, як гадав Гаррі, почнуть з верхнього рівня й
перевірятимуть рівень за рівнем. У аврорів був час: вони могли рухатися
повільно й з максимальною обережністю. Вони знали, що в їхньої здобичі немає
виходу.

// 9747
//Harry hadn’t been able to think of any way out.
Гаррі не міг вигадати жодного виходу.

// 9748
//Until Harry had said to himself, __well, if it was just a war game, what
//would General Chaos do?__
Доки не запитав себе __ну, а якби це була лише гра військ, що б зробив генерал
Хаосу?__

// 9749
//From which an answer had followed instantly.
Тоді відповідь надійшла миттєво.

// 9750
//And then Harry had thought, __but if it’s __that__ easy, why hasn’t
//anyone broken out of Azkaban before?__
А тоді Гаррі подумав __але якщо все __аж так__ просто, чому ніхто раніше не
тікав з Азкабану?__

// 9751
//And after he’d realized the possible problem: __Fine, what would General
//Chaos do about __that?
Тоді він усвідомив можливу проблему. __Гаразд, і як генерал Хаосу впорався би з
__цим__?__

// 9752
//Whereupon General Chaos had come up with an amendment to his first plan.
Тоді генерал Хаосу зробив додаток до свого першого плану.

// 9753
//It was…
Це був...

// 9754
//It was the most insanely __Gryffindor__ thing Harry had ever…
Це був __ґрифіндорський__, найбожевільніший план з усіх, які Гаррі будь-коли...

// 9755
//So now he was trying to think of a __better__ plan, and not having much
//luck.
Тому тепер він намагався вигадати __ліпший__ план, що не потребував, щоб йому
дуже пощастило.

// 9756
//__Picky picky picky,__ said Gryffindor. __Who was complaining about
//not having __any__ plan one minute earlier? You should be glad we came up
//with anything at all, Mister Now-We’re-Doomed.__
__Ой які ми вередливі,__ сказав ґрифіндорець. __А хто ще мить тому скаржився,
що в нас __узагалі__ немає плану? Радій, що ми взагалі маємо план, містере
Тепер-Нам-Усім-Кінець.__

// 9757
//“My Lord,” Bellatrix whispered haltingly, as she navigated the next flight of
//stairs downward, “am I going back to my cell, my Lord?”
-- Володарю, -- затинаючить прошепотіла Белатриса, коли вони спускалися черговим
маршем сходів, -- я повертаюся до своєї камери, володарю?

// 9758
//Harry’s brain was distracted, so it took him that long to process the words,
//and then another moment to process the horror, while Bellatrix continued
//speaking.
Гаррі думав про інше, тому йому потрібен був деякий час, щоб сприйняти ці
слова, а потім ще мить, щоб вгамувати жах, а Белатриса продовжувала говорити.

// 9759
//“I would… please, my Lord, I would very much rather die,” her voice said. And
//then, in a smaller voice, a whisper that was barely there, “but I will go back
//if you ask it of me, my Lord…”
-- Ліпше... благаю, володарю, ліпше вже померти, -- сказала вона. А тоді, ще
тихішим шепотом, ледь чутно, -- але я повернуся до камери, якщо треба,
володарю...

// 9760
//“We are not going back to your cell,” hissed Harry’s voice, on automatic.
//Nothing of what he felt was allowed to reach his face.
-- Ми не повертаємося до твоєї камери, -- автоматично прошипів голос Гаррі. На
його обличчі не було жодних проявів його справжніх емоцій.

// 9761
//__Um…__ said Hufflepuff. __Did you seriously just think, ‘You ought
//to work for me, __I__ would appreciate you?’__
__Ем...__ сказав гафелпафець. __Ти справді щойно подумав "`Ти маєш працювати на
мене, __я__ тебе цінуватиму?`"__

// 9762
//__A stone would respond to that kind of loyalty,__ Harry thought.
//__Even if I’m only getting it by mistake, I can’t help but -__
__Навіть камінь відреагував би на таку відданість,__ подумав Гаррі. __Навіть
якщо я отримую її через помилку, я не можу не...__

// 9763
//__She’s the Dark Lord’s loyal killer and torturer, and the supposed
//reason she’s loyal is because an innocent girl was broken into pieces and used
//as raw material to make her,__ said Hufflepuff. __Did you forget?__
__Вона вірна вбивця й кат Темного Лорда, теоретично вона віддана через те, що
невинну дівчину розібрали до гвинтика й використали як запчастини, щоб створити
її,__ сказав гафелпафець. __Чи ти забув?__

// 9764
//__If someone shows me that much loyalty, even by mistake, there’s a part
//of me that can’t help but feel something. The Dark Lord must have been…
//__evil__ doesn’t seem like a strong enough word, he must have been
//__empty__… to not appreciate her loyalty, artificial or not.__
__Якщо хтось виявляє таку відданість мені, навіть через помилку, частина мене
не може не відчути щось. Темний Лорд мав бути... __лихим__ видається
недостатньо сильним словом, він мав бути __порожнім__... щоб не цінувати її
відданості -- штучна вона чи ні.__

// 9765
//The better parts of Harry didn’t have much to say to that.
Найліпші частини Гаррі не мали на це відповіді.

// 9766
//And that was when Harry heard it.
А тоді Гаррі почув його.

// 9767
//It was faint, and it grew louder with every step they took forward.
Він був тихим, але сильнішав щокроку.

// 9768
//A woman’s voice, distant, indistinct.
Далекий, невиразний жіночий голос.

// 9769
//His ears, automatically, strained to make out the words.
Гаррі автоматично нашорошив вуха, щоб розчути слова.

// 9770
//“…please don’t…”
-- ...будь ласка, не...

// 9771
//“…didn’t mean…”
-- ...не хотіла...

// 9772
//“…don’t die…”
-- ...не помирай...

// 9773
//Then his brain knew __who__ he was hearing, and in almost the same moment,
//figured out __what__ he was hearing.
Розум Гаррі збагнув, __кого__ він чує, тієї ж миті, як він зрозумів, __що__ він
чує.

// 9774
//Because Professor Quirrell wasn’t there to keep the silence any more, and
//Azkaban was not, in fact, silent.
Бо професор Квірел більше не підтримував тишу, а Азкабан, насправді, не був
тихим.

// 9775
//Faint the woman’s voice, repeating:
Слабкий жіночий голос повторював:

// 9776
//“No, I didn’t mean it, please don’t die!”
// hedrok: цього буде багато копій, тут буде повний список.
// hedrok: копія у 060:10458, 063:11401-11403, 085:15132-15133
-- Ні, я не хотіла, будь ласка, не помирай!

// 9777
//“No, I didn’t mean it, please don’t die!”
-- Ні, я не хотіла, будь ласка, не помирай!

// 9778
//It got louder with every step Harry took, he could hear the emotion in the
//words now, the horror, the remorse, the desperation of…
Він гучнішав з кожним кроком Гаррі, тепер можна було почути емоції в словах:
жах, жаль, відчай...

// 9779
//“No, I didn’t mean it, please don’t die!”
-- Ні, я не хотіла, будь ласка, не помирай!

// 9780
//…the woman’s worst memory, rehearsing over and over again…
...бо найгірші спогади жінки повторювалися знову й знову...

// 9781
//“No, I didn’t mean it, please don’t die!”
-- Ні, я не хотіла, будь ласка, не помирай!

// 9782
//…the murder that had sent her to Azkaban…
...вбивство, через яке її відправили до Азкабану...

// 9783
//“No, I didn’t mean it, please don’t die!”
-- Ні, я не хотіла, будь ласка, не помирай!

// 9784
//…where she was sentenced by the Dementors to watch whoever she’d killed, die
//and die and die in an infinite repeating loop. Though she must have been put in
//Azkaban recently, from the amount of life left in her voice.
...де за вироком дементорів вона мала дивитися на те, як її жертва вмирає,
вмирає і знову вмирає в нескінченному циклі. Її мали посадити в Азкабан
нещодавно, судячи з сили життя в її голосі.

// 9785
//The thought came to Harry, then, that Professor Quirrell had passed those
//doors, heard those sounds, and given not the slightest sign of disturbance; and
//Harry would have called it a positive proof of evil, if Harry’s own lips hadn’t
//remained silent in the presence of Bellatrix, his breathing regular, while
//something inside him screamed and screamed and screamed.
Тоді Гаррі спало на думку, що професор Квірел проходив повз ці двері, чув ці
звуки і не виказав ані краплі занепокоєння. Гаррі б назвав це беззаперечним
доказом зла, якби він сам не мовчав у присутності Белатриси, не тримав дихання
рівним, хоча всередині нього все волало, волало й волало.

// 9786
//The Patronus brightened, not out of control, but it brightened, with every step
//Harry took forward.
Патронус пояскравішав, не безконтрольно, але яскравішав з кожним кроком Гаррі
вперед.

// 9787
//It brightened further as Harry and Bellatrix descended the stairs, she stumbled
//and Harry offered her his left arm thrust outside the Cloak, braving the sense
//of doom from being that close to the snake draped around her neck. There was a
//surprised look on her face, but she accepted it, and said nothing.
Він пояскравішав ще, коли Гаррі й Белатриса спускалися сходами, вона перечепилася,
а Гаррі подав їй свою лівицю з-під Плаща, незважаючи на лиховісне передчуття
через близькість змі{stress}я навколо її шиї. Вона здивувалася, проте прийняла
допомогу й нічого не сказала.

// 9788
//It helped Harry, being able to help Bellatrix, but it wasn’t enough.
Це допомогло Гаррі -- бути в змозі допомогти Белатрисі -- проте цього
було недостатньо.

// 9789
//Not when he saw the huge metal door in the center of that level’s corridor.
Не могло бути достатньо, коли він бачив величезні металеві двері в центрі
коридору цього рівня.

// 9790
//Not when they came closer, and the woman’s voice fell silent, because there was
//a Patronus near her now, and she wasn’t reliving her worst memory any more.
Не могло бути достатньо, коли вони підійшли ближче, і жінка замовкла, бо патронус
був поряд, і їй більше не треба було проживати знову свої найгірші спогади.

// 9791
//__Good,__ said a voice inside him. __That was step one.__
__Добре,__ сказав його внутрішній голос. __Це перший крок.__

// 9792
//Harry’s steps carried him inevitably forward toward the metal door.
Кроки Гаррі неминуче наближали його до металевих дверей.

// 9793
//And…
І...

// 9794
//__Now unlock the door -__
__Тепер відчини двері...__

// 9795
//…Harry kept walking…
...Гаррі йшов далі...

// 9796
//__What do you think you’re doing? Go back and get her out of there!__
__Що це ти робиш? Повернися й витягни її звідси!__

// 9797
//…kept walking…
...йшов далі...

// 9798
//__Save her! What are you doing? She’s hurting YOU HAVE TO SAVE HER!__
__Врятуй її! Що ти робиш? Вона страждає ТИ МУСИШ ЇЇ ВРЯТУВАТИ!__

// 9799
//The portkey Harry was carrying could transport two humans, only two, plus or
//minus a snake. If they’d had Professor Quirrell’s portkey too… but they
//__didn’t__, Professor Quirrell’s human form was carrying that, there was
//no way to get it… Harry could only save one person today, and there was only
//one person on the lowest level of Azkaban, in the most desperate need…
Летиключ Гаррі міг перемістити двох людей, лише двох, плюс-мінус одну змію.
Якби в них був і летиключ професора Квірела... проте __не було__, він був у
людської подоби професора Квірела, і не було жодного способу отримати цей
летиключ... Сьогодні Гаррі міг врятувати лише одну людину, і лише одна людина
була на найнижчому рівні Азкабану, найстрашеннішим чином потребувала його
допомоги...

// 9800
//“DON’T GO!” The voice came in a scream from behind the metal door. “No, no, no,
//don’t go, don’t take it away, don’t don’t don’t -”
// hedrok: копія у 060:10460, 063:11396, 085:15134
-- НЕ ЙДИ! -- почувся крик з-за металевих дверей. -- Ні-ні-ні, не йди, не забирай
його, не-не-не...

// 9801
//There was a light in the corridor and it grew brighter.
У коридорі сяяло світло, і воно стало яскравішим.

// 9802
//“Please,” sobbed the woman’s voice, “please, I can’t remember my children’s
//names any more -”
// hedrok: копія у 060:10459
-- Благаю, -- схлипував жіночий голос, -- благаю, я вже не можу згадати імен
своїх дітей...

// 9803
//“Sit down, Bella,” Harry’s voice said, somehow he kept his voice in a cold
//whisper, “I must deal with this,” the Hover Charm diminishing and switching off
//even as Bella obediently sat down, her skeletal form dark against the
//brightening air.
-- Сядь, Бело, -- сказав Гаррі, якимось чином йому вдалося сказати це холодним
шепотом. -- Я маю з цим розібратися.

Бела не встигла й сісти, а чари польоту зменшилися й зникли. Вона скидалася на
темний скелет у яскравому повітрі.

// 9804
//__I’ll die,__ thought Harry.
__Я помру,__ подумав Гаррі.

// 9805
//The air went on brightening.
Повітря й далі яскравішало.

// 9806
//After all, it wasn’t a __certainty__ that Harry would die.
Зрештою, він не __безперечно__ помре.

// 9807
//It was just a probability of death, and weren’t some things worth a probability
//of dying?
Це була ймовірність смерті, та хіба ж не існували речі жахливіші за ймовірність
смерті?

// 9808
//The air went on brightening, the greater Patronus was beginning to form around
//him, the brilliant human shape was becoming indistinct within the burning air,
//as Harry’s life went to feed the fire.
Повітря й далі яскравішало, більший патронус почав формуватися навколо нього,
срібну людську фігуру вже було ледь видно в палаючому повітрі -- цей вогонь
підтримувало життя Гаррі.

// 9809
//__If I wipe out the Dementors, then even if I live, they’ll know it was
//me, that I was the one who did this… I’ll lose my support, lose the war…__
__Якщо я знищу дементорів, то навіть якщо виживу, вони знатимуть, що
це був я... я втрачу підтримку, програю війну...__

// 9810
//__Yeah?__ said the inner voice that was urging him on. __After you
//destroy all the Dementors in Azkaban? I’d think that’d tend to prove your
//credentials as a Light Lord, actually, so SAVE HER SAVE HER YOU HAVE TO SAVE
//HER -__
__Та ну?__ сказав внутрішній голос, що підганяв його. __Після того, як ти
знищиш усіх дементорів Азкабану? Гадаю, це радше доведе твоє право на звання
Світлого Лорда, тож ВРЯТУЙ ЇЇ ВРЯТУЙ ЇЇ ТИ МАЄШ ВРЯТУВАТИ ЇЇ...__

// 9811
//The humanoid shape could no longer be seen as a separate entity.
Фігуру гуманоїда вже неможливо було розрізнити.

// 9812
//The corridor couldn’t be seen.
Коридор було не видно.

// 9813
//Harry’s own body was invisible within the Cloak.
Тіло Гаррі залишалося невидимим під Плащем.

// 9814
//There was only a bodiless viewpoint within an infinite expanse of silver light.
Він був лише безтілесною точкою серед нескінченного срібного світла.

// 9815
//Harry could feel the life leaving him, fueling the spell; far away, he could
//feel the shadows of Death begin to fray.
Гаррі відчував, як життя покидає його, живить закляття. Десь далеко він
відчував, що тіні смерті злякалися.

// 9816
//__I meant to accomplish more with my life than this… I was going to fight
//the Dark Lord, I was going to merge the wizarding and Muggle worlds…__
__Я збирався досягти більшого, ніж це... Я збирався битися з Темним Лордом,
об'єднати чаклунський та маґлівський світи...__

// 9817
//Lofty goals seemed very distant, very abstract, compared to one woman begging
//him for help, it wasn’t __certain__ that Harry would ever do anything more
//important than this one thing, this one thing that he could do now and here.
Піднесені цілі були такими далекими, такими абстрактними у порівнянні з
благаннями про допомогу однієї жінки. Не було __безперечним__, що Гаррі колись
вдасться зробити щось важливіше, ніж оцей вчинок тут і зараз.

// 9818
//And with what might have been his last breath, Harry thought:
І з тим, що могло стати його останнім подихом, Гаррі подумав:

// 9819
//__There are other Dementors, probably other Azkabans… if I’m going to do
//this, I should do it when I’m closer to the central pit, it will take less of
//my life that way, which increases the probability that I’ll survive to destroy
//other Dementors… even assuming this is the optimal thing to do, if there’s a
//right time and place to do this, it isn’t now and here, IT ISN’T NOW AND HERE!__
__Є й інші дементори, напевно інші Азкабани... якщо я збираюся це зробити, то
маю бути ближче до центральної ями, таким чином буде потрібно менше мого життя,
що збільшить імовірність того, що я виживу для знищення інших дементорів...
навіть якщо припустити, що це оптимальний вчинок, тут і зараз -- неправильні
час і місце для цього вчинку. НЕ ТУТ І НЕ ЗАРАЗ!__

// 9820
//__What?__ said the other part of him indignantly, as it searched for a
//counterargument that didn’t exist -
__Що?__ обурено запитали інші його частини, й заходилися шукати контраргумент,
що його не існувало...

// 9821
//Slowly the light died back down, as Harry concentrated on that one indisputable
//fact, the one obvious truth that they weren’t in the optimal place, the time
//__couldn’t__ be __now…__
Світло повільно згасало до звичайного рівня, доки Гаррі зосередився на єдиному
беззаперечному факті, єдиній очевидній істині, що вони не були в оптимальному
місці, зараз __не могло__ бути __правильним__ часом...

// 9822
//Slowly the light died back down.
Світло повільно згасало.

// 9823
//Part of Harry’s life flowed back into him.
Частина життя Гаррі повернулася до нього.

// 9824
//Part had been lost as radiation.
Частина була втрачена як випромінювання.

// 9825
//But Harry had enough left to stay on his feet, and keep the silver human shape
//bright; and when his wand arm raised and his voice whispered “Wingardium
//Leviosa”, the magic flowed obediently out of him and helped Bellatrix to her
//feet. (For it wasn’t his magic he had expended, it had never been his magic
//that fueled the Patronus Charm.)
Але в Гаррі залишилося достатньо, щоб стояти на ногах і підтримувати яскравість
срібної людської фігури. І коли він підвів руку з паличкою й прошепотів
"`Вінґардіум Левіоза`", магія слухняно допомогла Белатрисі підвестися. (Адже не
магію він витрачав, магія ніколи й не живила його чари патронуса.)

// 9826
//__I swear,__ Harry thought, breathing as regularly as he could in
//Bellatrix’s presence, while tears streamed down his invisible cheeks, __I
//swear upon my life and my magic and my art as a rationalist, I swear by
//everything I hold sacred and all my happy memories, I give my oath that someday
//I will end this place, please, please may I be forgiven…__
// hedrok: копія у 063:11405
__Присягаюся,__ подумав Гаррі, тримаючи дихання якомога рівніше в присутності
Белатриси, хоча сльози стікали його невидимими щоками, __Присягаюся своїм
життям, своєю магією, своїм мистецтвом раціоналіста, присягаюся всім, що дороге
мені, та всіма своїми щасливими спогадами, я даю клятву, що колись я покінчу з
цим місцем. Будь ласка, будь ласка, хай мене пробачать...__

// 9827
//And the two of them walked on, as a murderess’s voice screamed and begged
//someone to come back and save her.
І вони вдвох пішли далі, доки вбивця з-за дверей кричала й благала, щоб хтось
повернувся й врятував її.

// 9828
//There should have been more time, there should have been a ceremony, for
//Harry’s sacrifice of that piece of himself, but Bellatrix was beside him and so
//Harry just had to keep on walking without a pause, saying nothing, breathing
//evenly.
Він мав би витратити більше часу, мав би провести якусь церемонію на спогад про
свою жертву -- жертву частиною себе. Проте Белатриса була поряд, тому Гаррі
просто йшов без затримки, нічого не казав, дихав рівномірно.

// 9829
//So Harry walked on, leaving a piece of himself behind. It would dwell in this
//place and time forever, he knew. Even after Harry came back someday with a
//company of other True Patronus casters and they destroyed all the Dementors
//here. Even if he melted the triangular building and burned the island low
//enough that the sea would wash over it, leaving no trace that such a place as
//this had ever once existed. Even then he wouldn’t get it back.
Тому Гаррі йшов далі, залишивши частину себе позаду. Він знав, ця його частина
завжди скнітиме тут. Навіть після того, як Гаррі колись повернеться з
декількома чаклунами, що спроможні на чари справжнього патронуса, і вони разом
знищать тут усіх дементорів. Навіть якщо він розплавить трикутну будівлю й
спопелить острів до такого рівня, що води моря зімкнуться над ним, і не
залишиться жодної ознаки того, що це місце колись існувало. Навіть тоді Гаррі
не поверне собі цю частину.

***

// 9830
//The flock of luminous creatures stopped staring downward, and began patrolling
//the metal corridor as if nothing had happened.
Зграя створінь світла припинили витріщатися вниз і продовжили крокувати
металевим коридором, ніби нічого й не сталося.

// 9831
//“Just like last time?” Director Bones snapped in the direction of Auror Li, and
//the young Auror replied, “Yes, ma’am.”
-- Саме так було минулого разу? -- кинула директорка Боунз авророві Лі.

-- Так, мем, -- відповів молодий аврор.

// 9832
//The Director fired off another query to see if the Dementors could now find
//their target, and looked unsurprised to hear a negative reply a few seconds
//later.
Директорка наказала запитати дементорів ще раз, чи ті можуть знайти ціль, і без
подиву сприйняла негативну відповідь за декілька секунд.

// 9833
//Emmeline Vance was feeling torn between her loyalties.
Емелайн Венс стражденно вирішувала, що їй робити.

// 9834
//Emmeline wasn’t a member of the Order of the Phoenix any more, they had
//disbanded after the end of the last war. And during the war, she’d known,
//they’d all known, that Director Crouch had quietly approved of their
//off-the-books battle.
Вона вже не була членом Ордену Фенікса, бо його розпустили після завершення
останньої війни. Але впродовж війни -- вона знала, вони всі знали -- директор
Кравч тихо схвалював був їхню неофіційну битву.

// 9835
//Director Bones wasn’t Crouch.
Директорка Боунз не була Кравчем.

// 9836
//But they were hunting Bellatrix Black now, who had been a Death Eater, and who
//was certainly being rescued by Death Eaters. Their Patronuses were behaving
//oddly - all the bright creatures stopping and staring off downward, before
//they’d gone back to following their masters. And the Dementors couldn’t find
//their target.
Але зараз вони полювали на Белатрису Блек, що була смертежеркою, і її точно
рятували інші смертежери. Патронуси поводилися дивно -- усі яскраві створіння
зупинялися й витріщалися вниз, а потім поверталися до своїх господарів. І
дементори не могли знайти свою ціль.

// 9837
//It seemed to her that this would be an extremely good time to consult Albus
//Dumbledore.
Їй здавалося, що надзвичайно доречно порадитися з Албусом Дамблдором.

// 9838
//Should she just __suggest__ to Director Bones that they contact
//Dumbledore? But if Director Bones hadn’t contacted him already…
Чи може варто просто __запропонувати__ директорці Боунз звернутися до
Дамблдора? Але якщо директорка Боунз досі не зв'язалася з ним...

// 9839
//Emmeline wavered for a while, probably too long, and then finally decided.
//__The hell with it,__ she thought. __We’re all on the same side, we
//need to stick together whether Director Bones likes it or not.__
Емелайн деякий час вагалася, напевно надто довго, але зрештою наважилася.
__До біса все,__ подумала вона. __Ми всі на одній стороні, і маємо
триматися купи, подобається це директорці Боунз чи ні.__

// 9840
//At a thought, her silver sparrow fluttered onto her shoulder.
Від цієї думки її срібний горобець приземлився їй на плече.

// 9841
//“Drop behind us to guard our rear,” Emmeline murmured softly, almost without
//moving her lips, “wait until no one is looking directly at you, then go to
//Albus Dumbledore. If he is not already by himself, wait until he is. And tell
//him this: Bellatrix Black is breaking out of Azkaban, and the Dementors cannot
//find her.”
-- Тримайся позаду, охороняй наш тил, -- тихесенько пробурмотіла Емелайн, ледве
розтуляючи губи, -- дочекайся, доки ніхто не дивитиметься прямо на тебе, а тоді
знайди Албуса Дамблдора. Якщо він буде не сам, дочекайся, доки він залишиться
сам. І скажи йому: "`Белатриса Блек тікає з Азкабану, а дементори не можуть
її знайти.`"
