// 11419
//== Omake Files 4, Alternate Parallels
== Розділ 64. Омаке-файли №4, Альтернативні паралелі

// 11420
//If you’re five hours past your bedtime and still reading this, may I suggest
//getting some sleep? The fic will still be here tomorrow… unless, you know,
//something __bad __happens to it and the next morning there’s just a 404 at
//this address and you’re left with nothing but a fading memory and an eternal
//regret that you didn’t stay awake longer and keep reading while you still had
//the chance… but hey, how probable is that?
Якщо вам ще 5 годин тому треба було піти спати, а ви досі читаєте це, може
варто б було поспати? Цей фанфік буде тут і завтра... якщо, знаєте, з ним
не станеться чогось __поганого__ й наступного ранку за цією веб-адресою не буде лише
404-та і не залишиться нічого, окрім бляклих спогадів та безмежного жалю, що ви не
боролися зі сном довше й не читали далі, поки ще була така можливість... Та годі вам, хіба
ж така халепа можлива?

// 11421
//This story spreads by blogging, tweeting, word of mouth, favoriting, plugging
//on forums, and adding to lists; and remember, if the readers before you hadn’t
//taken a moment to do that, you probably wouldn’t have found this. If that’s not
//enough to motivate you, then let me add that if you don’t help spread
//rationality, Hermione will be sad. You don’t want her to be sad, right?
Ця історія поширюється блогами, твітами, з вуст у вуста, через додавання в
улюблене, на форуми та у списки; і памʼятайте, якби читачі до вас не приділили
кілька секунд, щоб поширити її, ви ймовірно ніколи не натрапили б на цей текст. Якщо
цього не достатньо для того, щоб змотивувати вас поширити раціональність,
дозвольте мені сказати, що якщо ви не поширите цей текст, Герміона сумуватиме.
Ви ж не хочете, щоб вона сумувала, правда?

// 11422
//Don’t forget to visit LessWrong dot com and read the Sequences, the true
//existence of which this fic is but a shadow. I recommend starting with the
//sequence __How to Actually Change Your Mind.__
Не забудьте навідати LessWrong крапка com та почитати Послідовності (Sequences,
англійською мовою), у порівнянні з якими цей фанфік у суті своїй лиш тінь. Рекомендую
почати з "`How to Actually Change Your Mind`".

// 11423
//And now, with all universes owned by their respective creators, I
//present:____
А зараз (усі світи належать відповідним авторам), я представляю:

// 11424
//____

***

// 11425
//**OMAKE FILES #4:**
[center]#**ОМАКЕ ФАЙЛИ №4**#

// 11426
//**THE OTHER FANFICTIONS**
[center]#**ІНШІ ФАНФІКИ**#

// 11427
//**YOU COULD’VE BEEN READING**
[center]#**ЯКІ ВИ МОГЛИ Б ЧИТАТИ**#

***

// 11428
//LORD OF THE RATIONALITY
[center]#ВОЛОДАР РАЦІОНАЛЬНОСТІ#

// 11429
//Frodo glanced at all the faces, but they were not turned to him. All the
//Council sat with downcast eyes, as if in deep thought. A great dread fell on
//him, as if he was awaiting the pronouncement of some doom that he had long
//foreseen and vainly hoped might after all never be spoken. An overwhelming
//longing to rest and remain at peace by Bilbo’s side in Rivendell filled all his
//heart. At last with an effort he spoke, and wondered to hear his own words, as
//if some other will was using his small voice.
Фродо обвів усіх поглядом, та ніхто на нього не дивився. Вся Рада сиділа з опущеними
очима, ніби у глибокій задумі. Величезний острах охопив його, ніби він очікував
проголошення якоїсь давно пророкованої долі, та намарно сподівався,
що зрештою її ніколи не буде виголошено. Всеохопне прагнення зостатися й
залишитись у спокої у Рівенделі поруч із Більбо заполонило його серце. Зрештою,
не без зусиль, він заговорив і здивувався власним словам, ніби воля когось іншого
використовувала його тихий голос.

// 11430
//“We cannot,” said Frodo. “We must not. Do you not see? It is exactly what the
//Enemy desires. All of this he has foreseen.”
-- Ми не можемо, -- сказав Фродо. -- Ми не повинні. Хіба ви не бачите? Це саме те,
чого прагне Ворог. Усе це було передбачено.

// 11431
//The faces turned to him, puzzled the Dwarves and grave the Elves; sternness in
//the eyes of the Men; and so keen the gazes of Elrond and of Gandalf that Frodo
//almost could not withstand it. It was very hard, then, not to grasp the Ring in
//his hand, and harder still not to put it on, to face them as only Frodo.
Усі обличчя повернулися до нього: здивовані ґноми, похмурі ельфи; суворість
в очах людей, і такі пронизливі погляди Ельронда й Ґандальфа, що Фродо майже не міг
витримати їх. Тоді було дуже важко не схопити Перстень у руку, і ще важче не вдягти
його, а дивитися на них лише як Фродо.

// 11432
//“Do you not question it?” Frodo said, thin like the wind his voice, and
//wavering like a breeze. “You have chosen, of all things, to send the Ring into
//Mordor; should you not wonder? How did it come to this? That we might, of all
//our choices, do that single thing our Enemy most desires? Perhaps the Cracks of
//Doom are already guarded, strongly enough to hold off Gandalf and Elrond and
//Glorfindel all together; or perhaps the Master of that place has cooled the
//lava there, set it to trap the Ring so that he may simply bring it out after it
//is thrown in…” A memory of awful clarity came over Frodo then, and a flash of
//black laughter, and the thought came to him that it was __just__ what the
//Enemy would do. Only the thought came to him so: __thus it would amuse me
//to do, if I meant to rule…__
-- Хіба у вас це не викликає сумнівів? -- сказав Фродо голосом тихим, як вітерець,
і тремтливим, наче бриз. -- Ви обрали, серед усього, відправити Перстень до Мордору;
хіба не варто запитати себе? Як до такого дійшло? Чи можемо ми, серед усіх
можливостей, обрати ту єдину, якої Ворог прагне найбільше? Може Розколини
Судьби вже охороняються силами достатніми, щоби стримати Ґандальфа, Ельронда та
Ґлорфіндела разом узятих. А може правитель того місця охолодив лаву там, щоб вона
вловила Перстень, і він міг би його просто дістати після того, як ми його вкинемо
туди...

Тоді жахливої ясності спогад зʼявився у голові Фродо, потім спалах злого
сміху, і йому спало на думку, що це було __якраз__ те, що Ворог би зробив. Тільки ця думка
прийшла йому у такому вигляді: "`__І це розважило б мене, якби правити волів я...__`"

// 11433
//There were doubtful glances exchanged within the council; Glóin and Gimli and
//Boromir were now looking at the Elves more skeptically than before, like they
//had awoken out of a dream of words.
Рада обмінялася поглядами, в яких було повно сумнівів. Ґлоїн, Ґімлі й Боромир
дивилися на ельфів ще більш скептично, ніж до цього, наче вони прокинулись зі сну
від цих слів.

// 11434
//“The Enemy is very wise,” said Gandalf, “and weighs all things to a nicety in
//the scales of his malice. But the only measure that he knows is desire, desire
//for power; and so he judges all hearts. Into his heart the thought will not
//enter that any will refuse it, that having the Ring we may seek to destroy it
//-”
-- Ворог дуже мудрий, -- сказав Ґандальф, -- і зважує усе до найдрібнішої деталі на
терезах власної злоби. Але єдине мірило, яке йому знайоме -- це жага, жага до влади,
і саме так він судить усі серця. Його серцю не збагнути, що хтось захоче відмовитись
від нього, що маючи Перстень, хтось шукатиме способу його знищити...

// 11435
//“He __will__ think of it!” cried Frodo. He struggled for words, trying to
//convey things that had once seemed perfect in his comprehension, and then faded
//like melting snow. “If the Enemy thought that all his foes were moved by desire
//for power alone - he would guess wrongly, over and over, and the Maker of this
//Ring would __see__ that, he would __know__ that somewhere he had made
//a mistake!” Frodo’s hands stretched forth pleadingly.
-- Він __дійсно__ подумає про це! -- закричав Фродо. Йому було важко підібрати слова,
щоб передати те, що колись для його розуміння було бездоганним, а потім щезало як
сніг, що тане. -- Якби Ворог думав, що всі його суперники керувалися лише жагою
до влади -- він би помилявся, знову й знову, але Той, хто створив Перстень, це б
__побачив__, він би __знав__, що у чомусь він помилився.

Фродо благально випростав руки.

// 11436
//Boromir stirred, and his voice was doubtful. “You speak fair of the Enemy,”
//said Boromir, “for one of his foes.”
Боромир ворухнувся, його голос був наповнений сумнівами:

-- Ти досить добре говориш за Ворога, -- сказав Боромир, -- як на одного з його
недругів.

// 11437
//Frodo’s mouth opened and shut in desperate bewilderment; for Frodo knew, he
//knew the Man was mad, but he could think of nothing to say.
Рот Фродо відкрився й закрився у відчайдушному здивуванні. Фродо ж знав, він знав,
що цей чоловік був скаженим, але він не зміг придумати, що б сказати.

// 11438
//Then Bilbo spoke, and his withered voice silenced the whole room, even Elrond
//who had been about to speak. “Frodo is right, I fear,” whispered the old
//hobbit. “I remember, I remember what it was like. To see with the Black Sight.
//I remember. The Enemy will think that we might not trust one another, that the
//weaker among us will propose to destroy the Ring so that the stronger may not
//have it. He knows that even one not truly good might still cry to destroy the
//Ring, to make a show of pretended goodness. And the Enemy will __not__
//think it impossible that such a decision be made by this council, for you see,
//he does not trust us to be wise.” A whispering chuckle rose from the ancient
//hobbit’s throat. “And if he did - why, he would __still__ guard the Cracks
//of Doom. It would cost him little.”
Тоді заговорив Більбо, і його ослаблений голос змусив замовкнути всю кімнату,
навіть Ельронда, який саме збирався заговорити:

-- Фродо має рацію, я боюся, -- прошепотів старий гобіт. -- Я памʼятаю, я памʼятаю,
як це було. Бачити Темним Зором. Я памʼятаю. Ворог думатиме, що ми можемо не
довіряти один одному, що найслабший з нас запропонує знищити Перстень, щоб він не
дістався найсильнішому. Він знає, що навіть той, хто не є насправді добрим, може все
одно кричати про знищення Персня, аби продемонструвати удавану доброту. І Ворог
__не__ подумає, що ця рада нездатна ухвалити таке рішення, бо, бачте, він не вірить
у нашу мудрість, -- придушений смішок вирвався із горла древнього гобіта. -- А навіть
якщо і подумає, він __все одно__ охоронятиме Розколини Судьби. Йому це майже нічого
не вартуватиме.

// 11439
//Now foreboding was on the faces even of the Elves, and the Wise; Elrond had
//frowned, and the sharp eyebrows of Gandalf furrowed.
// hedrok: the Wise = чаклуни, тут він один, Ґандальф.
//         В Астролябї вони "Мудрі" (з великої).
Зараз передчуття було навіть на лицях ельфів та Мудрого. Ельронд насупився,
а на гострих бровах Ґандальфа пролягла борозна.

// 11440
//Frodo gazed at them all, feeling a wildness come over him, a despair; and as
//his heart weakened a shadow came over his vision, a darkness and a wavering.
//From within the shadow Frodo saw Gandalf, and the wizard’s strength was
//revealed as weakness, and his wisdom folly. For Frodo knew, as the Ring seemed
//to drag and weigh on his breast, that Gandalf had not thought at all of history
//and lore, when the wizard spoke of how the Enemy would not understand any
//desire save power; that Gandalf had not remembered how Sauron had cast down and
//corrupted the Men of Númenor in the days of their glory. Just as it had not
//occurred to Gandalf that the Enemy might learn to comprehend foes of goodwill
//by __looking…__
Фродо поглянув на кожного, він відчував, як на нього находить пустота, розпач. Коли
його серце ослабло, на його зір найшла тінь, чорнота й мерехтіння. Зсередини тіні
Фродо побачив Ґандальфа, та його сила відкрилася як слабкість, а його мудрість --
як дурість. Бо ж Фродо знав, поки Перстень, здавалося, тягнув своєю вагою його
груди, що Ґандальф знехтував історією та своїми знаннями, коли чарівник твердив, ніби
Ворог не зрозуміє жодного бажання, крім влади, що Ґандальф не памʼятав, як Саурон
пригнічував і розбещував народ Нуменору у дні їхньої слави. Так само, як не
спадало на думку Ґандальфові, що Ворог міг навчитися розуміти добро,
просто __дивлячись__ на інших...

// 11441
//Frodo’s gaze swung to Elrond, but there was no hope there, no answer and no
//rescue in the shadowy vision; for Elrond had let Isildur go, carrying the Ring
//from the Cracks of Doom where it should have been destroyed, to the cost of all
//this war. Not for Isildur’s own sake, not for friendship had it been done, for
//the Ring had killed Isildur in the end, and far worse fates could have followed
//him. But the Doom that had stemmed from Isildur’s deed would have seemed unsure
//to Elrond then, unsure and distant in time; and yet the cost to Elrond himself
//of taking his sword’s pommel to the back of Isildur’s head would have been
//surer, and nearer…
Погляд Фродо повернувся до Ельронда, але там не було надії, жодної відповіді та
жодного порятунку в тіньовому зорі, адже Ельронд був відпустив Ісільдура, переніс
Перстень із Судної гори, де його треба було знищити, й ціною за це стала уся ця
війна. Не заради Ісільдура, не заради їхньої дружби він зробив це, бо ж Перстень убив
Ісільдура зрештою, та й набагато гірше могла скластися його доля. Але фатум, який
випливав із вчинку Ісільдура тоді мав би здаватися Ельронду непевним, непевним та й
віддаленим у часі. Та все ж ціна для самого Ельронда -- вдарити руківʼям
свого меча у потилицю Ісільдура -- була більш певною і ближчою...

// 11442
//As though in desperation, Frodo turned to look at Aragorn, the weathered man
//who had donned his travel-worn clothes for this council, the heir of kings who
//spoke softly to hobbits. But Frodo’s vision seemed to double, and in the
//shadowy second image Frodo saw a Man who had spent too much of his youth among
//Elves, who had learned to wear humble and stained clothes amid the gold and
//jewels, knowing he could not match them wisdom for wisdom, and hoping to
//outplay them in a fashion they would not emulate…
Ніби у розпачі, Фродо повернувся й поглянув на Араґорна -- на бувалого чоловіка,
вдягненого у потріпаний подорожами одяг на цій раді, спадкоємця королів, який
тихо говорив до гобітів. Але зір Фродо ніби роздвоювався, і у тіньовому другому
зображенні Фродо бачив чоловіка, який провів забагато років своєї молодості між ельфами,
який навчився вдягати скромний та заплямований одяг серед золота та коштовностей,
бо знав, що не зможе зрівнятися мудрістю з їхньою мудрістю, та сподівався перевершити
їх у спосіб, який вони не наслідуватимуть...

// 11443
//In the sight of the Ring, which was the sight of the Ring’s own Maker, all
//noble things faded into stratagems and lies, a world of grey and darkness
//without any light. They had not made their choices knowingly, Gandalf or Elrond
//or Aragorn; the impulses had come from the dark hidden parts of themselves, the
//black secret depths which the Ring had rendered plain in Frodo’s vision. Would
//they outthink the Shadow, when they could not comprehend even their own selves,
//or the forces that moved them?
Завдяки баченню Персня, яке було баченням творця Персня, усі благородні речі
поступово згасали, перетворювалися на підступи та брехню, на світ темряви й сірості, без жодного
світла. Вони не робили власні вибори свідомо -- Ґандальф, Ельронд чи Араґорн.
Імпульси приходили з темних прихованих частин них самих, чорних таємних глибин,
які Перстень чітко висвітлював у зорі Фродо. Невже
вони перехитрують Тінь, коли вони не здатні зрозуміти самих себе, не в змозі
збагнути, що ними керує?

// 11444
//“Frodo!” came the sharp whisper of Bilbo’s voice, and Frodo came to himself,
//and halted his hand reaching up toward where the Ring lay on his breast, on its
//chain, dragging like a vast stone around his neck.
-- Фродо! -- долинув різкий шепіт Більбо, і Фродо оговтався й забрав руку,
яка торкалася того місця на його грудях, де лежав Перстень, відтягуючи ланцюжок
навколо його шиї, наче величезний камінь.

// 11445
//Reaching up to grasp the Ring wherein all answers lay.
Потягнувся, щоб схопити Перстень, у якому були усі відповіді.

// 11446
//“How did you bear this thing?” Frodo whispered to Bilbo, as if the two of them
//were the only souls in the room, though all the Council watched them. “For
//years? I cannot imagine it.”
-- Як ти витримував цю річ? -- шепотів Фродо до Більбо, ніби вони двоє були єдиними
душами у кімнаті, хоч уся рада й спостерігала за ними. -- Роками? Я не можу уявити
цього.

// 11447
//“I kept it locked in a room to which only Gandalf had the key,” said his uncle,
//“and when I began to imagine ways to open it, I remembered Gollum.”
-- Я тримав його зачиненим у кімнаті, до якої тільки у Ґандальфа був ключ, -- сказав
його дядько, -- а коли я починав мріяти про способи відкрити її, я згадував про
Ґолума.

// 11448
//A shudder went through Frodo, remembering the tales. The horror of the Misty
//Mountains, thinking, always thinking in the dark; ruling the goblins from the
//shadows and filling the tunnels with traps; but for Bilbo wearing the ring that
//first time not a single dwarf would have lived. And now, Legolas the Elf had
//told them, Gollum had given up on sending his agents against the Shire, had at
//last found the courage to leave his mountains and seek the Ring himself. That
//was Gollum, the fate which Frodo would share himself, if the Ring were not
//destroyed.
Фродо здригнувся, згадуючи ці оповідки. Жах з Імлистих гір, який думав, весь час
думав у темряві, правлячи орками із тіні та заповнюючи тунелі пастками. Якби
Більбо не вдягнув був Перстень той перший раз, жодного ґнома не лишилося б у живих.
А зараз ельф Леґолас сказав їм, що Ґолум покинув відправляти агентів у Шир та
нарешті віднайшов сміливість залишити гори й шукати Перстень самостійно. Цим був
Ґолум, долею, яка чекала на самого Фродо, якщо Перстень не знищити.

// 11449
//Only they had no way to destroy the Ring.
От тільки у них не було способу знищити Перстень.

// 11450
//The Shadow had foreseen every move they could make. Had __almost__ - Frodo
//still could not imagine how it had been done, how the Shadow had arranged such
//a thing - had __almost __maneuvered the Council into sending the Ring
//straight into Mordor with only a tiny guard set on it, as they would have done
//if Frodo and Bilbo had not been there.
Тінь передбачила кожен хід, який вони могли зробити. Вона __майже__ -- Фродо досі
не міг уявити, як це було зроблено, -- __майже__ направила раду на те, щоб
відіслати Перстень прямо у Мордор із приставленою до нього лише невеличкою охороною,
як вони б і зробили, якби Фродо та Більбо не було там.

// 11451
//And having foregone that swiftest of all possible defeats, the only question
//remaining was how long it would take to lose. Gandalf had delayed too long,
//delayed far too long to set this march in motion. It could have been so easy,
//if only Bilbo had set out eighty years earlier, if only Bilbo had been told
//what Gandalf had already suspected, if only Gandalf’s heart had not silently
//flinched away from the prospect of being embarrassingly wrong…
І відмовившись від цього найшвидшого із можливих шляхів до поразки, єдиним
запитанням залишалось те, скільки часу у них займе програш. Ґандальф зволікав
довго, дуже-дуже довго, перш ніж відправити цю ходу в путь. Було б набагато
простіше, якби Більбо вирушив на вісімдесят років раніше, якби Більбо тільки
хтось сказав те, що Ґандальф вже підозрював, якби тільки серце Ґандальфа не
відвернулося від перспективи ганебно помилитися...

// 11452
//Frodo’s hand spasmed on his breast; without thought, his fingers began to rise
//again toward the vast weight of the chain on which the Ring hung.
Рука Фродо стислася на його грудях, несвідомо його пальці почали підійматися знову
до великої ваги на ланцюжку, на якому висів Перстень.

// 11453
//All he had to do was put on the Ring.
Все, що йому треба було зробити -- вдягти Перстень.

// 11454
//Just that, and all would become clear to him, once more the slowness and mud
//would leave his thoughts, all possibilities and futures transparent to him, he
//would see through the Shadow’s plans and devise an irresistible counterstroke -
Лише це, і все йому стане ясно, знову повільність і багнюка покине його думки, усі
можливості та варіанти майбуття стануть прозорими для нього, він зможе бачити
наскрізь усі плани Тіні та розробити непереборний контрудар.

// 11455
//- and he would never be able to take off the Ring, not again, not by any will
//that would be left to him. All Frodo had of those moments were fading
//memories, but he knew that it had felt like dying, to let all his towers of
//thought collapse and become only Frodo once more. It had felt like dying, he
//remembered that much of Weathertop even if he remembered little else. And if he
//did wear the Ring again, it would be better to die with it on his finger, to
//end his life while he was still himself; for Frodo knew that he could not
//withstand the effects of wearing the Ring a second time, not afterward when the
//limitless clarity was lost to him…
А ще він ніколи не буде у змозі зняти Перстень, не знову, навіть зусиллями всієї
волі, яка ще була в нього. Памʼять Фродо про той час поступово згасала,
але він знав, що за відчуттями це було ніби померти -- дати всім баштам
його думок обвалитися й знову залишитися всього лише Фродо. Це відчувалося як
смерть, хоч він і небагато памʼятав про Вітровий пагорб, та цього
йому не забути. І якби він дійсно вдяг Перстень знову, було б краще померти із ним на
пальці, закінчити життя, поки він ще був собою, бо, Фродо знав, він вдруге не
витримає дії Персня, не після того, як втратить ту безмежну ясність...

// 11456
//Frodo looked around the Council, at the poor lost leaderless Wise, and he knew
//they could not defeat the Shadow by their own strength.
Фродо окинув оком раду, бідних розгублених мудреців без лідера, і він знав, що
вони не зможуть побороти Тінь власними силами.

// 11457
//“I will wear it one last time,” Frodo said, his voice broken and failing, as he
//had known from the beginning that he would say in the end, “one last time to
//find the answer for this Council, and then there will be other hobbits.”
-- Я вдягну його один останній раз, -- сказав Фродо, поламаним і неслухняним голосом,
бо він знав був від самого початку, що він скаже у кінці, -- один останній раз, щоби
знайти відповідь для цієї ради, а потім будуть інші гобіти.

// 11458
//“__No!__” screamed the voice of Sam, as the other hobbit began to rush
//forward from where he had hidden; even as Frodo, with movement as swift and
//precise as a Nazgﾃｻl, took out the Ring from beneath his shirt; and somehow
//Bilbo was already standing there and had already thrust his finger through.
-- Ні! -- закричав голос Сема, що почав вибігати зі свого сховку,
поки Фродо, рухом швидким і точним, як назґул, вийняв Перстень з-під сорочки,
та Більбо вже стояв там і вже протягнув свій палець крізь нього.

// 11459
//It all happened before even Gandalf’s staff could point, before Aragorn could
//level the hilt-shard of his sword; the Dwarves shouted in shock, and the Elves
//were dismayed.
Це все сталось до того, як Ґандальф встиг спрямувати патерицю, до того, як Араґорн
встиг вирівняти руківʼя власного меча. Ґноми кричали від подиву, ельфи були нажахані.

// 11460
//“Of course,” said Bilbo’s voice, as Frodo began to weep, “I see it now, I
//understand everything at last. Listen, listen and swiftly, here is what you
//must do -”
-- Ну звісно, -- сказав голос Більбо, коли Фродо почав ридати, -- зараз я бачу це,
я нарешті розумію все. Слухайте. Слухайте і швидко, ось що ви маєте зробити...

***

// 11461
//THE WITCH AND THE WARDROBE
[center]#ВІДЬМА ТА ШАФА#

// 11462
//With a critical eye, Peter looked over the encamped Centaurs with their bows,
//Beavers with their long daggers, and talking Bears with their chain-mail draped
//over them. He was in charge, because he was one of the mythical Sons of Adam
//and had declared himself High King of Narnia; but the truth was he didn’t
//really know much about encampments, weapons, and guard patrols. In the end all
//he could see was that they all looked proud and confident, and Peter had to
//hope they were right about that; because if you couldn’t believe in your own
//people, you couldn’t believe in anyone.
Критичним оком Пітер оглянув табір кентаврів з їхніми стрілами, бобрів із їхніми
довгими кинджалами та балакучих ведмедів, вдягнених у кольчуги. Він був головним,
бо він був одним із міфічних синів Адама й оголосив себе верховним правителем Нарнії,
але правда полягала у тому, що він дійсно не знав багато про те, як розташовуватись
табором, про зброю та патрулювання. Кінець кінцем все, що він міг бачити, це те,
що вони виглядали гордими та впевненими, і Пітерові залишалось лиш сподіватися,
що вони мали рацію щодо всього цього, бо якщо ти не можеш вірити у свій власний
народ, ти ні у кого не зможеш повірити.

// 11463
//“They’d scare __me__, if I had to fight ‘em,” Peter said finally, “but I
//don’t know if it’s enough to beat… __her.__”
-- Вони б налякали __мене__, якби мені довелося воювати проти них, -- нарешті сказав
Пітер. -- Але я не знаю, чи достатньо цього, щоб перемогти... __її__.

// 11464
//“You don’t suppose this mysterious lion will actually show up and help us,
//d’you?” said Lucy. Her voice was very quiet, so that none of the creatures
//around them would hear. “Only it’d be nice to really have him, don’t you think,
//instead of just letting people think that he put us in charge?”
-- Чи ти не думаєш, що цей таємничий лев дійсно зʼявиться та допоможе нам? --
спитала Люсі. Її голос був дуже тихим, настільки, що ніхто зі створінь навколо
не почув би її. -- От тільки було б добре, якби він дійсно був, ніж давати людям
думати, що він зробив нас головними, згоден?

// 11465
//Susan shook her head, shaking the magical arrows in the quiver on her back. “If
//there was really someone like that,” Susan said, “he wouldn’t have let the
//White Witch cover the land in winter for a hundred years, would he?”
Сьюзан похитала головою, розмахуючи магічними стрілами у сагайдаку за її спиною.

-- Якби дійсно був би хтось схожий на нього, -- зауважила Сьюзан, -- хіба б він
дозволив Білій відьмі вкрити цю землю зимою на сто років?

// 11466
//“I had the strangest dream,” Lucy said, her voice even quieter, “where we
//didn’t have to organize any creatures or convince them to fight, we just walked
//into this place and the lion was already here, with all the armies already
//mustered, and he went and rescued Edmund, and then we rode alongside him into
//this tremendous battle where he killed the White Witch…”
-- У мене був найдивніший сон, -- сказала Люсі ще тихішим голосом, -- у якому
ми не мали організовувати жодних створінь чи переконувати їх воювати разом, ми
просто прийшли у це місце і лев уже був тут, усі армії були зібрані, та він просто
пішов і врятував Едмунда, а потім ми їхали верхи біля нього у величезну битву, де
він й убив Білу відьму.

// 11467
//“Did the dream have a moral?” said Peter.
-- Була у цьому сні якась мораль? -- спитав Пітер.

// 11468
//“I don’t know,” said Lucy, blinking and looking a little puzzled. “In the dream
//it all seemed pointless somehow.”
-- Я не знаю, -- відгукнулася Люсі, вона кліпала й видавалася трохи спантеличеною.
-- Уві сні все це здавалося якимось безґлуздям.

// 11469
//“I think maybe the land of Narnia was trying to tell you,” said Susan, “or
//maybe it was just your own dreams trying to tell you, that if there was really
//such a person as that lion, there’d be no use for __us__.”
-- Гадаю, можливо, це земля Нарнії намагалася сказати тобі, -- промовила Сьюзан,
-- а може це просто твій сон намагався сказати тобі, що якби дійсно існувала така
особа, як цей лев, не було б жодної користі __з нас__.

***

// 11470
//MY LITTLE PONY: FRIENDSHIP IS SCIENCE
//! https://uk.wikipedia.org/wiki/My_Little_Pony:_Дружба_—_це_диво
[center]#MY LITTLE PONY: ДРУЖБА -- ЦЕ НАУКА#

// 11471
//“Applejack, who told me outright that I was mistaken, represents the spirit of…
//__honesty! __” Twilight Sparkle raised her head even higher, mane blowing
//like a wind about the dusky sky of her neck. “Fluttershy, who approached the
//manticore to find out about the thorn in its paw, represents the spirit of…
//__investigation! __Pinkie Pie, who realized that the awful faces were just
//trees, represents the spirit of… __formulating alternative hypotheses!
//__Rarity, who solved the serpent’s problem represents the spirit of…
//__creativity!__ Rainbow Dash, who saw through the false offer of her
//heart’s desire, represents the spirit of… __analysis! __Marie-Susan, who
//made us convince her that we were right before she agreed to come on our
//expedition, represents the spirit of… __peer review!__ And when those
//Elements are ignited by the spark of curiosity that resides in the heart of all
//of us, it creates the seventh element - the Element of Sci-”
-- Еплджек, яка сказала мені прямо, що я помилялася, являє собою дух...
__чесності!__, -- Твайлайт Спаркл підняла голову ще вище, грива обвивала її шию
наче вітер на тлі темного неба. -- Флатершай, яка підійшла до мантикори, щоб
дізнатись про колючку у її лапі, являє собою дух __експерименту__! Пінкі Пай, яка
зрозуміла, що жахливі обличчя були лише деревами, являє собою дух...__формулювання
альтернативних гіпотез__! Реріті, яка розвʼязала задачу змія, являє собою дух
__творчості!__ Рейнбоу Деш, яка розрізнила нещирість у бажаннях власного серця,
являє собою дух... __аналізу__! Марі-Сюзан, яка змусила нас переконати її, що ми
мали рацію, перш ніж погодилась приєднатися до нашої експедиції, являє собою дух...
__експертної оцінки__! І коли всі ці елементи запалюються від іскри допитливості,
яка живе у серцях кожної з нас, це утворює сьомий елемент -- елемент нау...

// 11472
//The blast of power that came forth was like a wind of moonless night, it caught
//Marie-Susan before the pony could even flinch, and she was gone without a trace
//before any of them had the chance to rear in shock.
Вибух енергії, який зʼявився наче вітер безмісячної ночі, схопив Марі-Сюзан ще до
того, як поні встигли навіть здригнутися, та її не стало ще до того, як вони мали
змогу відчути шок.

// 11473
//From the dark thing that stood in the center of the dais where the Elements had
//shattered, from the scarce-recognizable void-black outline of a horse, came a
//voice that seemed to bypass all ears and burn like cold fire, sounding directly
//in the brain of everypony who heard:
З темної матерії, що стояла по центру помосту, де розбилися були елементи, із
заледве впізнаваних у чорній порожнечі обрисів коня, зʼявився голос, який ніби
оминав усі вуха та випалював холодним вогнем звук прямо всередині мозку кожної
поні, яка почула таке:

// 11474
//__Did you expect me to just stand there and let you finish?__
"`Невже ви очікували, що я просто стоятиму там і дам вам закінчити?`"

// 11475
//Twilight Sparkle stared at the space where Marie-Susan had been, where not a
//trace of the unicorn remained. __She - she just - she -__ In the back of
//her mind, unheard, she was aware that Rarity was screaming.
Твайлайт Спаркл витріщилася на те місце, де щойно була Марі-Сюзан, але вже й не
залишилось жодного сліду єдинорогу.

-- Вона, вона просто, вона... -- не почула, а радше підсвідомо відчула пронизливий
крик Реріті.

// 11476
//__That wasn’t a disintegration,__ said the voice of Nightmare. __I
//sent her somewhere else.__
"`Це не була дезінтеграція, -- сказав голос Нічного Жахіття. -- Я просто відправив
її в інше місце`".

// 11477
//Rarity’s scream stopped abruptly.
Крик Реріті різко обірвався.

// 11478
//Twilight Sparkle felt like her own scream was only beginning. Seven. It took
//seven ponies to use the Elements of Inquiry. Everyone knew that no matter how
//honest, investigating, skeptical, creative, analytic, or curious you were, what
//really made your work Science was when you published your results in a
//prestigious journal. Everyone knew that. Could there be more than one Element
//of Peer Review at a time - how long would it take to find another one - and the
//Nightmare wouldn’t just stand there and let them do it -
Твайлайт Спаркл відчувала, ніби її власний крик лише починався. Семеро. Щоби
використати Елементи Дослідження, потрібно було семеро поні. Кожен знав: хай
який ти чесний, допитливий, скептичний, творчий, аналітичний чи цікавий,
те, що дійсно наближало тебе до Науки -- це публікація твоїх результатів
у престижному науковому журналі. Всі це знали. Чи міг одночасно існувати ще один
елемент експертної оцінки, скільки часу їм знадобиться, щоби знайти його, та хіба
буде Жахіття просто чекати, поки вони це зроблять?

// 11479
//“Where?” yelled Rainbow Dash. “Where’d you put her?”
-- Куди? -- прокричала Рейнбоу Деш. -- Куди ти її подів?

// 11480
//__I put the little pony in the same place I bound my pathetic sister, in
//the heart of her pathetic Sun.__
"`Я подів маленьку поні у те саме місце, де я тримаю свою жалюгідну сестру --
до серця її жалюгідного сонця`".

// 11481
//“She’ll die!” cried Fluttershy, staring at the Nightmare in horror. “It’s too
//hot, she’ll burn!”
-- Вона ж помре, -- скрикнула Флатершай, дивлячись на Жахіття зі страхом. -- Там
же занадто гаряче, вона ж згорить!

// 11482
//__Oh, don’t worry. The power of the Nightmare surrounds your little
//friend, keeping her safe and cool, sustaining her without food or drink. She
//will suffer nothing more than boredom…__
"`О, не хвилюйся. Сила жахіття оточує вашу маленьку подружку, тримає її у безпеці
та прохолоді, підтримує її життя без їжі та води. Вона страждатиме лише від
нудьги...`"

// 11483
//The void-black outline stepped off the dais, walking slowly, deliberately, past
//the remaining six ponies.
Обрис чорної порожнечі зіскочив із помосту, повільно й поважно почав ходити вздовж
шістьох вільних поні.

// 11484
//__…so long as the Nightmare’s power is not broken. By any backup plans my
//sister may have set in motion, for example, and which may be known to you. In
//that case she will vaporize instantly. Such a lovely thing, friendship. It
//makes such a wonderful instrument of blackmail. Be sure to keep safe the
//Elements of Inquiry. You wouldn’t want anyone else using them on me, now would
//you?__
"`...принаймні так буде доти, доки сила жахіття не розбита. Наприклад, у випадку,
якщо моя сестра пустить в дію якийсь резервний план, про який ви можете знати, вона моментально
випарується. Дружба -- така приємна річ. Вона стає прекрасним інструментом для
шантажу. Також будьте обережними з елементами дослідження. Ви ж не захочете, щоб
хтось використав їх проти мене, чи не так?`"

// 11485
//“No,” whispered Twilight Sparkle, as the horror began to dawn on her.
-- Ні, -- прошепотіла Твайлайт Спаркл, осягаючи увесь жах ситуації.

// 11486
//Then a crawling sensation all over her skin, as the Nightmare walked past her,
//and the deadly power brushed her with its cold caress.
Її шкірою пробіг холодок, коли Жахіття пройшло повз неї та його смертельні сили
торкнулися її, холодно попестили.

// 11487
//__Now if you’ll pardon me, my little ponies, I have an eternal night to
//rule over.__
"`А зараз, прошу мене вибачити, мої маленькі поні, мені ще треба керувати довічною
ніччю`".

***

// 11488
//THE VILLAGE HIDDEN IN THE CLARITY
[center]#СЕЛИЩЕ, СХОВАНЕ НА ВИДНОТІ#

// 11489
//“Consider the computational power required to manifest over a hundred shadow
//clones,” the Uchiha genius said in his dispassionate tones. “It is an error of
//rationality, Sakura, to say ‘fluke’ and think you have explained anything.
//‘Fluke’ is simply the name one gives to data that one is ignoring.”
// hedrok: двійник взяв з українського озвучення аніме
-- Подумай про обчислювальну потужність, необхідну для того, щоб створити сотню
тіньових двійників, -- сказав геній Учіха безпристрасним тоном. -- Це помилка раціональності,
Сакуро, казати "`раптова удача`" й думати, що ти пояснила усе. "`Раптова удача`" --
це лише назва, яку люди дають даним, які вони ігнорують.

// 11490
//“But it __has__ to be a fluke!” Sakura yelled. With effort, she calmed her
//voice into the careful precision expected of a rationality ninja; it wouldn’t
//do to have her crush think she was stupid. “Like you said, the computational
//power required to use over a hundred Kage Bunshin is simply absurd. We’re
//talking the level of a major superintelligence. Naruto’s the dead last of our
//class. He’s not even jounin-level smart, let alone a superintelligence!”
-- Але це __має бути__ раптовою удачею! -- скрикнула Сакура. Не без зусилля, вона
вгамувала свій голос до рівня обережної точності, якої вимагають від раціонального
ніндзі, не хотілося, щоб хлопець, в якого вона була закохана, подумав, що вона
тупа. -- Як ти й казав, обчислювальна потужність, необхідна для використання сотні
Каґе Буншінів просто абсурдна. Ми говоримо про рівень повноцінного суперінтелекту.
Наруто ж далеко в кінці нашого класу, він навіть не сягає рівня джоніна, не кажучи
вже про суперінтелект!

// 11491
//The Uchiha’s eyes gleamed, almost as though he had activated his Smartingan.
//“Naruto can manifest a hundred independently acting clones. He __must__
//have the raw brainpower. But, under ordinary circumstances, something prevents
//him from using this computational power efficiently… like a mind at war within
//itself, perhaps? We now have cause to believe that Naruto is in some way
//connected to a superintelligence, and as a recently graduated genin, he, like
//us, is fifteen years old. What happened fifteen years ago, Sakura?”
Очі Учіхи зблиснули, майже немовби він активував свій Смартінґан.

-- Наруто може створити сотню незалежних клонів. У нього __має__ бути достатньо
мозкових сил. Однак, за звичних обставин, щось певно заважає йому використовувати
обчислювальну потужність ефективно... можливо, мозок, який воює сам з собою? У нас
зараз є причина вірити, що Наруто певним чином повʼязаний із суперінтелектом, і
якщо він нещодавно закінчив рівень ґеніна, йому, як і нам, пʼятнадцять років. Що
сталося пʼятнадцять років тому, Сакуро?

// 11492
//It took a moment for Sakura to comprehend, to remember, and then she
//understood.
Сакурі потрібна була мить, щоб осмислити, згадати, а тоді й зрозуміти.

// 11493
//The attack of the Nine-Brains Demon Fox.
Атака девʼятимозкого демона лиса.

// 11494
//Just a small bone-white creature with big ears and bigger tail and beady red
//eyes. It was no stronger than an ordinary fox, it didn’t breathe fire or flash
//laser eyes, it possessed no chakra and no magic of any kind, but its
//intelligence was over nine thousand times that of a human being.
Лише маленьке створіння кольору білої кістки із великим вухами й ще більшим
хвостом та червоними очками-намистинами. Воно було не сильніше за звичайного лиса,
воно не дихало вогнем та не стріляло лазером з очей, воно не мало жодної чакри чи
магії, але його інтелект перевищував людський у девʼять тисяч разів.

// 11495
//Hundreds had been killed, half the buildings wrecked, almost the whole village
//of Beisugakure had been destroyed.
Сотні людей було вбито, половина будівель розбито, майже все селище Бейсуґакуре
було знищено.

// 11496
//“You think the Kyubey is hiding inside Naruto?” Sakura said. A moment later,
//her brain automatically went on to fill in the obvious implications of the
//theory. “And the software conflict between their existences is why he acts like
//a gibbering idiot half the time, but can control a hundred Kage Bunshin. Huh.
//That makes… a lot of sense… actually…”
-- Ти думаєш, що Кюбі ховається всередині Наруто? -- спитала Сакура. Через мить
її мозок автоматично продовжив заповнювати очевидні наслідки цієї теорії. -- А
конфлікт програмного забезпечення між їх існуванням -- це причина, чому він поводиться
як слабоумний йолоп половину часу, але може контролювати сотню Каґе Буншінів. Так.
Це справді... має... сенс.

// 11497
//Sasuke gave her the brief, contemptuous nod of someone who had figured all this
//out on his own, without anyone else needing to prompt __him__.
Саске коротко кивнув їй, наче хтось, хто самостійно дійшов до всього цього,
без жодної підказки __йому__.

// 11498
//“Ano…” said Sakura. Only years of sanity exercises channeled her complete
//screaming panic into pragmatically useful policy options. “Shouldn’t we…
//__tell__ someone about this? Like, sometime in the next five seconds?”
-- Ано... -- сказала Сакура. Лишень роки розумових вправ дозволили їй направити
свою абсолютно пронизливу паніку у прагматично корисні варіанти поведінки. -- Хіба
нам не треба __сказати__ про це? Типу, у найближчі пʼять секунд?

// 11499
//“The adults already know,” Sasuke said emotionlessly. “It is the obvious
//explanation for their treatment of Naruto. No, the real question is how this
//fits into the outwitting of the Uchiha…”
-- Дорослі вже знають, -- беземоційно відповів Саске. -- Це очевидне пояснення того,
як вони ставляться до Наруто. Ні, справжнє питання полягає у тому, як це узгоджується
із тим, як Учіха перехитрив його...

// 11500
//“I don’t see how it fits at all -” began Sakura.
-- Взагалі не бачу, щоб це узгоджувалось, -- почала Сакура.

// 11501
//“It __must__ fit!” A tinge of frantic emotion flickered in Sasuke’s voice.
//“I asked that man __why__ he did it, and he told me that when I knew the
//answer to that, it would explain __everything! __Surely __this__ must
//also be part of what is to be explained!”
-- У цьому __має__ бути логіка! -- відтінок несамовитої емоції промайнув у голосі Саске. --
Я запитав цього чоловіка, __чому__ він зробив це, і він сказав, що коли я знатиму
відповідь на це питання, це пояснить __усе__! __Ясно__, що __це__ має бути також
частиною того, що треба пояснити!

// 11502
//Sakura sighed to herself. Her personal hypothesis was that Itachi had just been
//trying to drive his brother into clinical paranoia.
Сакура тихенько зітхнула. Її власна гіпотеза полягала у тому, що Ітачі просто
намагався довести свого брата до клінічної параної.

// 11503
//“Yo, kids,” said the voice of their rationality sensei from their radio
//earpieces. “There’s a village in Wave trying to build a bridge, and it keeps
//falling down for no reason anyone can figure out. Meet up at the gates at noon.
//It’s time for your first C-ranked analysis mission.”
-- Гей, дітки, -- промовив із радіонавушників голос їхнього сенсея із раціональності. --
Є селище у Вейві, яке намагається побудувати міст, який весь час падає, і ніхто
не може зрозуміти, з якої причини. Зустріньмося біля брами в полудень. Час вам
отримати вашу першу місію з аналізу із рейтингом "`С`".

// 11504
//(__This has now inspired an extended fanfiction, _Lighting Up the Dark_
//by Velorien.__)
(__Ця історія стала натхненням для більш розширеного фанфіку Velorien "`Lighting Up
the Dark`".__)

***

// 11505
//ERDﾅ心 IN CHAINS
[center]#ЕРДЕШ У ЛАНЦЮГАХ#

// 11506
//“How could you do it, Anita?” said Richard, his voice very tight. “How could
//you coauthor a paper with Jean-Claude? You __study__ the undead, you don’t
//collaborate with them on papers!”
-- Як ти могла зробити це, Аніто? -- запитав Річард дуже напруженим голосом. -- Як
ти могла взяти у співавтори статті Жан-Клода? Ти маєш __вивчати__ немертвих істот, а не
співпрацювати з ними у наукових статтях!

// 11507
//“And what about you?” I spat. “You coauthored a paper with Sylvie! It’s all
//right for __you__ to be prolific but not __me?__”
-- А як щодо тебе? -- плюнула я. -- Ти ж видав статтю у співавторстві з Сильвією.
__Тобі__ підходить бути плодовитим науковцем, але не __мені__?

// 11508
//“I’m the __head of her institute__,” Richard growled. I could feel the
//waves of science radiating off him; he was angry. “I __have__ to work with
//Sylvie, it doesn’t mean anything! I thought our own research was special,
//Anita!”
-- Я ж __голова її інституту__, -- прогарчав Річард. Я прямо відчувала хвилі науки,
які він випромінював; він був розлюченим. -- Я __маю__ працювати з Сильвією, але
це нічого не означає. Я думав, наше з тобою дослідження було особливим, Аніто!

// 11509
//“It __is,__” I said, feeling helpless about my inability to explain things
//to Richard. He didn’t understand the thrill of being a polymath, the new worlds
//that were opening up to me. “I didn’t share __our__ research with anyone
//-”
-- Воно і __є__ особливим, -- сказала я, почуваючись безпорадною через неспроможність
пояснити щось Річарду. Він не розумів, як трепетно бути поліматом, які нові світи
відкривалися мені. -- Я ні з ким не ділилася __нашим__ дослідженням.

// 11510
//“But you wanted to,” said Richard.
-- Але ж ти хотіла, -- сказав Річард.

// 11511
//I didn’t say anything, but I knew that the look on my face said it all.
Я не відповіла нічого, але я знала, що вираз мого обличчя промовив все за мене.

// 11512
//“God, Anita, you’ve changed,” said Richard. He seemed to slump in on himself.
//“Do you realize that the monsters are joking about Blake numbers, now? I used
//to be your partner in everything, and now - I’m just another werewolf with a
//Blake number of 1.”
-- О боже, Аніто, як ти змінилася, -- видихнув Річард. Здавалося, що він навіть
змарнів. -- Чи розумієш ти, що монстри вже жартують про числа Блейк? Я був колись
твоїм партнером у всьому, а зараз я просто ще один перевертень із числом Блейк 1.

***

// 11513
//THUNDERSMARTS
//! https://uk.wikipedia.org/wiki/Громові_коти_(2011)
[center]#ГРОМОВІ РОЗУМНИКИ#

// 11514
//“I am __sick__ of this!” shouted Liono. “Sick of doing this __every
//single week!__ Our species was capable of __interstellar travel__, Panthro,
//I __know__ the quantities of energy involved! There is no __way__ you
//can’t build a nuke or steer an asteroid or __somehow__ blow up that
//ever-living idiot’s pyramid!”
// hedrok: Liono 052:9259
-- Мені це __остогидло__! -- вигукнув Лайон-О. -- Остогидло робити це
__щотижня__! Наш вид володів технологією __міжзоряних перельотів__, Пантро,
я __знаю__, які для цього потрібні енергетичні витрати! Просто
__неможливо__, щоби ти не зміг збудувати ядерну боєголовку чи скерувати
астероїд, чи __будь-яким__ іншим чином підірвати піраміду того
невмирущого телепня!

***

// 11515
//HE-MAN AND THE MASTERS OF RATIONALITY
//! https://en.wikipedia.org/wiki/He-Man_and_the_Masters_of_the_Universe
[center]#ХІ-МЕН ТА ВОЛОДАРІ РАЦІОНАЛЬНОСТІ#

// 11516
//“Fabulous secret knowledge was revealed to me on the day I held aloft my magic
//book and said: __By the power of Bayes’s Theorem!__”
//! Це фраза, якою починається кожна серія мультфільму.
//@ Використав "фоліянт", бо в оригіналі слово чоловічого роду "меч"
Приголомшливі таємні знання відкрилися мені того дня, коли я здійняв догори
свій чарівний фоліант та мовив: -- "`Силою Теореми Баєса!`"

***

// 11517
//FATE/SANE NIGHT
//
// Оригінал фантазму з аніме:
// I am the Bone of my Sword
// Steel is my Body and Fire is my Blood
// I have created over a Thousand Blades
// Unaware of Loss,
// Nor aware of Gain.
// Withstood Pain to create Weapons, Waiting for one’s Arrival
// I have no Regrets. This is the only Path
// My whole life was Unlimited Blade Works
//
// Unlimited Blade Works - це щось на кшталт його кишенькового виміру,
// з якого він може дістати будь яку зброю і використовувати її
[center]#ДОЛЯ/НІЧ ЗДОРОВОГО ҐЛУЗДУ#

// 11518
//__I am the core of my thoughts__
__Я є осердя моїх думок__ +
// 11519
//__Belief is my body__
__Переконання -- плоть моя, а вибір -- кров__ +
// 11520
//__And choice is my blood__
// 11521
//__I have revised over a thousand judgments__
__Я розглянув тисячі міркувань__ +
// 11522
//__Unafraid of loss__
__Не знаючи страху втрати__ +
// 11523
//__Nor aware of gain__
__Не відаючи здобутку__ +
// 11524
//______Have withstood pain to update many times__
__Я вистояв біль і оновився щораз__ +
// 11525
//__Waiting for truth’s arrival.__
__Чекаючи на прибуття істини.__ +
// 11526
//__This is the one uncertain path.__
__Невизначений шлях цей.__ +
// 11527
//__My whole life has been…__
__Життя моє назавжди є__  +
// 11528
//__Unlimited Bayes Works!__
// Це дуже мемна фраза, але змінюється зазвичай тільки слово Blade,
// переклад пропонує Бежмежний світ мечів, що більш менш передає сутність явища, але зовсім не підходить до Баєса...
// Мої інші варіанти зберігають Баєса, але не переклад аніме: Безмежна майстерня Баєса/Нескінчені Баєсові роботи!
__Безмежний світ інтерпретацій!__

***

// 11529
//THE NAME OF THE RATIONALITY
[center]#ІМʼЯ РАЦІОНАЛЬНОСТИ#

// 11530
//The eleven-year-old boy who would someday become legend - slayer of dragons,
//killer of kings - had but one thought upon his mind, as he approached the
//Sorting Hat to enter into the study of mysteries.
Одинадцятирічний хлопець, якому судилося стати легендою -- переможцем драконів,
вбивцею королів -- мав в голові лише одну думку. Ось він вже наблизився до
Сортувального Капелюха, готовий долучитися до пізнання таїнств:

// 11531
//__Anywhere but Ravenclaw anywhere but Ravenclaw oh please anywhere but
//Ravenclaw…__
"`Аби не Рейвенклов, аби не Рейвенклов, аби не Рейвенклов...`"

// 11532
//But no sooner the brim of the ancient felted device slipped over his forehead -
Однак, щойно криси древньої повстяної штукенції накрили його чоло...

// 11533
//“RAVENCLAW!”
-- РЕЙВЕНКЛОВ!

// 11534
//As the table decked in blue began to applaud him, as he approached the dread
//table where he would spend the next seven years, Kvothe was already wincing
//inside, waiting for the inevitable; and the inevitable happened almost at once,
//exactly as he had feared it, before he’d even had a chance to sit down
//properly.
Ще коли з боку стола в синьому оздобленні залунали оплески, ще коли він тільки
підходив до жахливого гуртожитку, в якому він проведе найближчі сім років, Коут вже
зіщулився всередині в очікуванні неминучого; і неминуче трапилось майже одразу,
і саме так, як він і боявся -- перш ніж він встиг вмоститися на своєму стільці.

// 11535
//“So!” an older boy said with the happy expression of someone who’s thought of
//something terribly clever. “Kvothe the Raven, huh?”
// https://www.reddit.com/r/KingkillerChronicle/comments/3schhb/the_name_of_the_rationality_no_spoilers/
//https://www.reddit.com/r/ShittyFanTheories/comments/1uxwog/kvothe_from_the_kingkiller_chronicle_is_actually/
// і з оригіналу Едґара По,"quath the raven" -- "ворон каркає".
// Варіанти ДмитраК:
// "Тричі "кар" Коутові Круку!"
// "Чом нічого не каркнеш, Коуте Крук?"
// "Значить Коут Великий Крук, так?"
// Поточний варіант - пропозиція Ельвіри
// Принаймні він дає можливість збагнути, що коїться :)
-- Отже! -- промовив старший за нього хлопчина з щасливим виразом обличчя
людини, яка вигадала щось напрочуд розумне. -- Коут зе рейвен невермор?

***

// 11536
//! https://uk.wikipedia.org/wiki/Ґуррен_Лаґанн
//! https://uk.wikipedia.org/wiki/Warhammer_40,000
//TENGEN TOPPA GURREN RATIONALITY 40K
[center]#ТЕНҐЕН ТОППА ҐУРРЕН РАЦІОНАЛЬНОСТІ 40К#

// 11537
//I have a truly marvelous story for this crossover which this margin is too
//narrow to contain.
Я вигадав справді епічну історію для цього кросоверу. Але береги тут
завузькі, щоб її вмістити.

***

// 11538
//UTILITARIAN TWILIGHT
[center]#УТИЛІТАРНІ СУТІНКИ#

// 11539
//__(Note: Written after I heard Alicorn was writing a Twilight fanfic, but
//before I read _Luminosity_. It’s obvious if you’re one of us.)__
__(Примітка: це було написано після того, як я почув, що Alicorn писав фанфік на
"`Сутінки`", але до того, як я прочитав "`Luminosity`". Це очевидно, якщо ви один
із нас.)__

// 11540
//“Edward,” said Isabella tenderly. She reached up a hand and stroked his cold,
//sparkling cheek. “You don’t have to protect me from anything. I’ve listed out
//all the upsides and all the downsides, assigned them consistent relative
//weights, and it’s just really obvious that the benefits of becoming a vampire
//outweigh the drawbacks.”
-- Едварде, -- сказала Ізабелла ніжно. Вона простягнула руку та попестила його холодну
блискучу щоку. -- Ти не маєш захищати мене ні від чого. Я склала список всіх плюсів
та мінусів, призначила кожному з них відповідну відносну вагу, й це просто очевидно,
що переваг у тому, щоб стати вампіром, більше за недоліки.

// 11541
//“Bella,” Edward said, and swallowed desperately. “Bella -”
-- Белло, -- промовив Едвард й відчайдушно ковтнув слину. -- Белло...

// 11542
//“Immortality. Perfect health. Awakening psychic powers. Easy enough to survive
//on animal blood once you do it. Even the beauty, Edward, there are people who
//would give their lives to be pretty, and don’t you dare call them shallow until
//you’ve tried being ugly. Do you think I’m scared of the word ‘vampire’? I’m
//tired of your arbitrary deontological constraints, Edward. The whole human
//species ought to be in on your fun, and people are dying by the thousands even
//as you hesitate.”
-- Безсмертя. Відмінне здоровʼя. Пробудження психічних здібностей. Достатньо легко
виживати на крові тварин, коли перетворення завершиться. А ще й краса, Едварде, є
люди, які віддали б власне життя, щоб бути гарними, й навіть не смій називати їх
поверхневими, доки не спробував бути потворним. Чи ти думаєш, що я боюся слова
"`вампір`"? Я вже втомилася від твоїх довільних деонтологічних обмежень, Едварде.
Весь людський вид мав би приєднатися до вас і радіти, до того ж люди гинуть тисячами просто
поки ти вагаєшся.

// 11543
//The gun in his lover’s hand was cold against his forehead. It wouldn’t kill
//him, but it would disable him for long enough -
Пістолет у руці його коханки холодив його чоло. Це його не вбʼє, та він буде
непритомний достатньо довго...

***

// 11544
//JASMINE AND THE LAMP
[center]#ЖАСМІН ТА ЛАМПА#

// 11545
//Aladdin’s face was wistful, but determined, as the newly minted street urchin
//addressed the blue being of cosmic power for one last time, prepared to leave
//behind the wealth and hope he had so briefly tasted for the sake of his friend.
//“Genie, I make my third wish. I wish for you to be -”
Обличчя Аладдіна було задумливим, але рішучим, коли новоспечений волоцюга
звернувся до синьої істоти космічної сили востаннє, приготувався заради
свого друга залишити позаду багатство та надію, смак якої він так коротко відчував.

-- Джине, ось моє третє бажання, я хочу, щоби ти був...

// 11546
//Princess Jasmine, who had been staring at this with her mouth open, not quite
//believing what she was seeing, just barely managed to overcome her paralysis
//and yank the lamp out of the boy’s hand before he could finish the fatal
//sentence.
Принцеса Жасмін, яка витріщалася на цю картину із відкритим ротом, не до кінця
вірячи у те, що вона бачила, заледве встигла опанувати свій параліч та вихопити
лампу, доки хлопець не встиг доказати це фатальне речення.

// 11547
//“Excuse me,” said Jasmine. “Aladdin, my darling, you’re cute but you’re an
//idiot, do you know that? Did you not notice how once Jafar got his hands on
//this lamp, he got his own three wishes - oh, never mind. Genie, I wish for
//everyone to always be young and healthy, I wish nobody ever had to die if they
//didn’t want to, and I wish for everyone’s intelligence to gradually increase at
//a rate of 1 IQ point per year.” She tossed the lamp back to Aladdin. “Go back
//to what you were doing.”
-- Пробач мені, -- промовила Жасмін, -- Аладдіне, любий, ти гарненький, але ти ідіот,
ти це знаєш? Хіба ти не помітив, як одного разу Джафар був поклав свої руки на цю
лампу і вже мав свої три бажання? Ох, не зважай. Джине, я бажаю, щоб усі були завжди
молодими й здоровими, я бажаю, щоб ніхто не помирав, якщо вони не хочуть померти,
та я бажаю, щоб інтелектуальний рівень кожної людини поступово зростав, прибавляючи
по 1 пункту IQ щороку, -- вона кинула лампу назад Алладіну. -- Завершуй те, що
почав робити.

***

// 11548
//RATIONALIST HAMLET
[center]#ГАМЛЕТ-РАЦІОНАЛІСТ#

// 11549
//(**contributed by Histocrat **on LiveJournal, post 13389, aka
//**HonoreDB **on LessWrong)
[center]#(створено Histocrat-ом на LiveJournal, допис 13389, HonoreDB на LessWrong)#

// 11550
//(reposted with permission)
[center]#(викладено за дозволом)#

[center]#(прим. перекладачів: при перекладі використовувався переклад Юрія Андруховича)#

// 11551
//HAMLET
ГАМЛЕТ +
// 11552
//Interloper, abandon this strange prank,
Гостю непроханий, облиш свої ти дивні жарти, +
// 11553
//which makes cruel use of the blindness of my grief,
над сліпотою смутку мого і добрим серцем  +
// 11554
//and the good heart of my good friend Horatio.
Гораціо -- близького мого друга. +
// 11555
//Or else, if thou hast true title to this belov’d form,
Або ж, коли і справді ти -- мій любий батько, +
// 11556
//tell me:
скажи: +
// 11557
//What drawing did I present to Hamlet King,
Який малюнок підніс у дар я королю, +
// 11558
//when six years old and scarce out of my sling?
як був малим дитям -- шість років од колиски?

// 11559
//Ghost
ПРИВИД +
// 11560
//‘twas a unicorn clad all in mail.
// mail - armour made of metal rings or plates joined together flexibly
// У "Гамлеті" немає згадок єдинорогів, але є у "Бурі" і "Юлії Цезарі"
// Перекладають наче просто - єдиноріг
То був єдиноріг, і весь в броні.

// 11561
//HAMLET
ГАМЛЕТ +
// 11562
//What.
// Я хочу щоб тут була трохи незграбна реакція, яка перекликатиметься з 11594
Як так.

// 11563
//Ghost
ПРИВИД +
// 11564
//Mark me.
// взято з перекладу Андруховича
Послухай же.

// 11565
//HAMLET
ГАМЛЕТ +
// 11566
//Father, I will.
// "кажи" взято з перекладу Андруховича
Батьку, кажи.

// 11567
//Ghost
ПРИВИД +
// 11568
//My hour is almost come,
// 11568-11570 взято з перекладу Андруховича
Близька година, +
// 11569
//When I to sulphurous and tormenting flames
Коли я повернуся знов до сірки, +
// 11570
//Must render up myself.
В огонь і муки, й сморід.

// 11571
//HAMLET
ГАМЛЕТ +
// 11572
//Thou art in torment?
То в муках ти?

// 11573
//Ghost
ПРИВИД +
// 11574
//Ay, as are all who die unshriven.
У муках всі, хто вмер без сповіді.

// 11575
//HAMLET
ГАМЛЕТ +
// 11576
//Like every Dane this is what I’ve been taught.
Як данця всякого, й мене цього навчали. +
// 11577
//Yet I did figure such caprice ill-suited to almighty God.
Але, на думку мо{stress}ю, не личить забаганка така Господеві. +
// 11578
//For all who suffer unlook’d for deaths, unattended by God’s chosen priests,
Карати всіх, хто вмер без догляду, без нагляду Богом обраних святих отців, +
// 11579
//to be then punish’d for the ill-ordering of the world…
за те, як лихо світ влаштовано...

// 11580
//Ghost
ПРИВИД +
// 11581
//‘twas not the world that killed me, nor accident of any kind.
Не влаштування світу мене вбило, і не нещасний випадок якийсь.

// 11582
//HAMLET
ГАМЛЕТ +
// 11583
//What?
// Андрухович теж так робить (змінює Що? на питання за контекстом)
Що то було?

// 11584
//Ghost
ПРИВИД +
// 11585
//If thou didst ever thy dear father love,
// 11585 - 11586 взято з перекладу Андруховича
Якщо ти справді син своєму батьку, +
// 11586
//Revenge his foul and most unnatural murder.
То помстися за убивство.

// 11587
//HAMLET
ГАМЛЕТ +
// 11588
//Oh God.
// взято з перекладу Андруховича
О Боже.

// 11589
//Ghost
ПРИВИД +
// 11590
//My time grows ever shorter. Wilt thou hear the tale?
Мій час спливає. Чи прагнеш ти почути як все було?

// 11591
//HAMLET
ГАМЛЕТ +
// 11592
//No.
Ні.

// 11593
//Ghost
ПРИВИД +
// 11594
//What?
Як так?

// 11595
//HAMLET
ГАМЛЕТ +
// 11596
//My love for you does call me to avenge your death,
Любов до тебе й справді закликає мене помститися, +
// 11597
//but greater crimes have I heard told this night.
але страшніші речі я почув сьогодні. +
// 11598
//If all those murdered go to Hell, and others as well,
Якщо всі вбиті опиняються у Пеклі, та й інші всі, +
// 11599
//who would have confess’d had they the time,
хто радий був сповідатись, коли б мав час, +
// 11600
//If people who are, in balance, good, suffer grisly
Якщо людей, що переважно добрі, чекають моторошні муки +
// 11601
//at the hands of God, then I defy God’s plan.
від Божих рук, тоді я Богові й Провидінню виклик кину.  +
// 11602
//Good Ghost, as one who dwells beyond the veil,
Мій привиде, ти той, хто за завісою існує, +
// 11603
//you know things that we mortals scarce conceive.
ти знаєш те, що смертним недоступне. +
// 11604
//Tell me: is there some philter or device,
Кажи: чи існує пристрій, або навар такий, +
// 11605
//outside nature’s ken but not outside her means,
що він природі невідомий, але не суперечить їй, +
// 11606
//by which death itself may be escap’d?
і дозволяє назавжди Смерті запобігти?

// 11607
//Ghost
ПРИВИД +
// 11608
//You seek to evade Hell?
Уникнути ти хочеш Пекла?

// 11609
//HAMLET
ГАМЛЕТ +
// 11610
//I seek to deny Hell to everyone!
Я хочу спростувати Пекло -- для всіх! +
// 11611
//and Heaven too, for I suspect the Heaven of our mad God
і Рай також. Бо я підозрюю, що наш шалений Бог  +
// 11612
//might be a paltry thing, next to the Heaven I will make of Earth,
Рай влаштував нікчемно. На райський сад перетворю я Землю, +
// 11613
//when I am its immortal king.
тоді як стану її безсмертним королем.

// 11614
//Ghost
ПРИВИД +
// 11615
//I care not for these things.
Думи такі мене вже не займають. +
// 11616
//Death and hell have stripp’d away all of my desires,
Смерть і Пекло омили мене від всіх бажань, +
// 11617
//save for revenge upon my murderer.
одне лишилося -- то помста за моє убивство.

// 11618
//HAMLET
ГАМЛЕТ +
// 11619
//Thou shalt not be avenged, save that thou swear:
Відплати кривді завданій тобі не має бути, та клянися: +
// 11620
//an I slay thine killer, so wilt thou vouchsafe to me the means
як знищу я твого убивцю, надаси мені ти спосіб  +
// 11621
//by which I might slay death.
подолати смерть.  +
// 11622
//He who killed you will join you in the Pit,
Хто вбив тебе до тебе приєднається у Пеклі, +
// 11623
//and then that’s it. No further swelling of Hell’s ranks will I permit.
на тому все. Відтоді, Геєні не дозволю я зростати.

// 11624
//Ghost
ПРИВИД +
// 11625
//Done. When my brother is slain, he who poured the poison in my ear,
//у Андруховича - Підповз мій брат, знавець рідких отрут, І влив мені у вуха сік смертельний.
Згода. Як вбитий буде брат мій, що влив мені у вуха сік смертельний, +
// 11626
//then will I pour in yours the precious truth:
тоді тобі я увіллю у вуха дорогоцінну правду: шляхи створіння каменю.  +
// 11627
//the making of the Philosopher’s Stone. With this Stone, thou may’st procure
Камінь філософський навар породжує, що здатен +
// 11628
//a philter to render any man immune to death, and more transmute
людину всяку од смерті захистити. Перетворити може він метали будь-які на золото, яке  +
// 11629
//base metal to gold, to fund the provision of this philter to all mankind.
покриє витрати на те, щоб цей навар ти людству всьому міг роздати.

// 11630
//HAMLET
ГАМЛЕТ +
// 11631
//Truly there is nothing beyond the dreaming of philosophy.
Воістину нема такого, що було б мріям філософів чуже. +
// 11632
//Wait.
Чекай-но. +
// 11633
//The man whom I must kill-my uncle the king?
// Андрухович використовує "твій брат" замість "мій дядько", мабуть звучить краще
Чи маю вбити короля я, твого брата?

// 11634
//Ghost
ПРИВИД +
// 11635
//Ay, that incestuous, that adulterate beast,
//11635-11636 взято з перекладу Андруховича
Так, ця тварина, кровозмісно-сласна +
// 11636
//With witchcraft of his wit, with traitorous gifts-
Своїми чаруваннями і чорним своїм талантом...

// 11637
//HAMLET
ГАМЛЕТ +
// 11638
//Indeed, he has such gifts I near despair,
Дійсно, його таланти вражають так, що відчай +
// 11639
//of killing him and yet succeeding to his throne.
бере мене од думки про вбивство його і здобуток трону. +
// 11640
//‘twill be an awesome fight for awesome stakes.
Це буде гарна битва, за ще кращі надбання. +
// 11641
//Hast thou advice?
Чи даси мені пораду?

// 11642
//__A cock crows. Exit Ghost.__
// взято з перекладу Андруховича
__Піє півень. Привид виходить.__

// 11643
//(HonoreDB has now extended this to a complete ebook)
[center]#(HonoreDB зробив з цього електронну книгу.)#

// 11644
//(entitled _A Will Most Incorrect to Heaven: The Tragedy of Prince Hamlet and
//the Philosopher’s Stone_)
[center]#(Вона називається "`A Will Most Incorrect to Heaven: The Tragedy of Prince Hamlet and
the Philosopher’s Stone`")#

// 11645
//(available for $3 at makefoil dot com)
[center]#(продається за 3 долари на makefoil крапка com)#

// 11646
//(yes, really)
[center]#(так, це не жарт)#

***

// 11647
//MOBY DICK AND THE METHODS OF RATIONALITY
[center]#МОБІ ДІК ТА МЕТОДИ РАЦІОНАЛЬНОСТИ#

// 11648
//(as related by **Eneasz **on LessWrong)
// https://www.lesswrong.com/posts/y2Hszb4Dsm5FggnDC/harry-potter-and-the-methods-of-rationality-discussion-22?commentId=fCQY4KyZBzAPb5Tc5
[center]#(підказано **Eneasz** на LessWrong.com)#

// 11649
//“Revenge?” said the peg-legged man. “On a __whale?__ No, I decided I’d
//just get on with my life.”
-- Мститися?, -- спитав одноногий чоловʼяга. -- __Китові__? Ні, я вирішив радше
зосередитися на своїх справах.

***

// 11650
//ALICE IN THE LAND WHERE THINGS ARE EVEN CRAZIER THAN HERE
[center]#АЛІСА В КРАЇНІ, ДЕ ВСЕ ЩЕ ХИМЕРНІШЕ, НІЖ ТУТ#

// 11651
//(as first written by **braindoll** in a review of this chapter, with some
//further edits)
[center]#(спершу написано **braindoll** в коментарі до цього розділу, з деякими
редагуваннями)#

// 11652
//Alice was sitting by her sister on the bank, reading a book. She had several
//friends who were older, and if she just asked nicely, they were often happy to
//lend her books without __quite__ so many pictures and conversations as was
//thought appropriate for a girl her age.
Аліса сиділа з сестрою на березі ріки та читала книжку. Вона мала декількох
старших друзів, які, коли їх чемно попросити, без проблем позичали їй книжки
де не було __аж так__ багато малюнків та розмов, як вважалося відповідним для її
вікової категорії.

// 11653
//Hot days often made her feel sleepy and stupid, so Alice had thoughtfully wet a
//handkerchief and placed it at the back of her neck. Still her mind had gone off
//wandering (just as if it was some little kitten whose owner had taken off her
//eyes for just a moment), and she had just decided that the pleasure of making a
//daisy-chain would be worth around 4/3 of the trouble of getting up and picking
//the daisies, which was nonetheless not equal to the opportunity cost of putting
//down her book, when suddenly a White Rabbit with pink eyes ran close by her.
У спеку в неї часто туманіла голова і злипалися повіки, тож Аліса завбачливо
змочила у воді хустинку та поклала її собі на шию. І все одно її думки
розпорошилися (достоту як маленькі кошенята, що їхній господар на секунду
відволікся від них), і вона якраз собі прикинула, що втіха від сплетіння
віночка вартуватиме 4/3 зусиль, потрібних, щоб встати й нарвати стокроток, а втім
однаково не покриє вартість альтернативи (читання), аж гульк -- мимо, за якийсь
крок від неї, проскочив рожевоокий Білий Кролик.

// 11654
//There was nothing so __very __remarkable in that; nor, in fact, did Alice
//think it so__ very__ much out of the way to hear the Rabbit say to itself,
//“Oh dear! Oh dear! I shall be late!” But when the Rabbit actually __took
//a watch out of its waistcoat- pocket,__ and looked at it, and then hurried on,
//Alice froze in sudden clarity and fear, for she had never before seen a rabbit
//with either a waistcoat-pocket, or a watch to take out of it. “Oh bother,” she
//said to herself (though not aloud; she had long since cured herself of that
//habit, as it made people take her even less seriously than they already did).
//“If I did not immediately recognize how much curiouser that was than the
//average rabbit, then something is interfering with my curiosity, and that is
//most curious of all.” So, burning with questions, she ran across the field
//after it, and was just in time to see it pop down a large rabbit-hole under the
//hedge.
Диво, зрештою, невелике, та й Кроликове бубоніння собі під ніс: "`О Боже! О Боже!
Як я забарився!`", -- також не вразило її слуху, та коли Кролик раптом __вихопив
із камізельчаної кишеньки годинника__ і, глипнувши на нього, помчав щодуху далі,
вона остовпіла з переляку, яскраво усвідомивши -- вона ніколи була не бачила
кролика, що мав би камізельчану кишеньку, чи то пак годинник, щоб з неї вихопити.
"`Ой, лишенько`", -- сказала вона сама собі (але тихенько; вона давно вже була
відівчилася звертатися до себе вголос, бо через цю звичку люди сприймали її ще
менш серйозно).
"`Якби я не визначила одразу, наскільки це цікавинніше за середньостатистичного
кролика, це б означало, що щось притлумлює мою природну цікавість, і ось цей
феномен був би найцікавинним`". Тож жагучі питання погнали її полем навздогін
за ним, і вона ще встигла помітити, як він гулькнув у велику кролячу нору під
живоплотом.

//диковижно
//цікавічно

***

// 11655
//WELCOME TO THE REAL WORLD
//! Фразу узято з оригінального дубляжу українською фільму "The Matrix"
//! студією "Так Треба Продакшн"
[center]#ЛАСКАВО ПРОСИМО У РЕАЛЬНИЙ СВІТ#


// 11656
//(thanks to **dsummerstay **for reminding me to post this one)
[center]#(подяка **dsummerstay** за нагадування опублікувати це)#

// 11657
//MORPHEUS: For the longest time, I wouldn’t believe it. But then I saw the
//fields with my own eyes, watched them liquefy the dead so they could be fed
//intravenously to the living -
//! Це абзац узято з оригінального дубляжу українською фільму "The Matrix"
//! студією "Так Треба Продакшн"
МОРФЕЙ: Я сам довго не міг у це повірити, доки не побачив ці поля на власні очі.
Доки не побачив, як вони переробляють мертвих на рідину, щоб внутрішньовенно
годувати нею живих...

// 11658
//NEO __(politely)__: Excuse me, please.
НЕО (__ввічливо__): Даруйте, та...

// 11659
//MORPHEUS: Yes, Neo?
МОРФЕЙ: Так, Нео?

// 11660
//NEO: I’ve kept quiet for as long as I could, but I feel a certain need to speak
//up at this point. The human body is the most inefficient source of energy you
//could possibly imagine. The efficiency of a power plant at converting thermal
//energy into electricity __decreases __as you run the turbines at lower
//temperatures. If you had any sort of food humans could eat, it would be more
//efficient to burn it in a furnace than feed it to humans. And now you’re
//telling me that their food is __the bodies of the dead, fed to the
//living?__ Haven’t you ever heard of the laws of thermodynamics?
НЕО: Я сидів тихо так довго, як міг, але зараз я відчуваю потребу вибалакатися.
Людське тіло є найменш ефективним джерелом енергії, яке тільки можна уявити.
Ефективність електростанції, що перетворює теплову енергію в електрику,
__падає__, якщо крутити турбіни за нижчих температур. Якщо у наявності є
будь-яка їжа, якою можна нагодувати людську істоту, то було б ефективніше
її спалити у печі, ніж згодувати людині. І зараз ви мені кажете, що їхня
їжа -- це __тіла мертвих, що згодовують живим__? Та ви взагалі чули
про закони термодинаміки?

// 11661
//MORPHEUS: Where did __you __hear about the laws of thermodynamics, Neo?
МОРФЕЙ: А звідки __ти__ дізнався про закони термодинаміки, Нео?

// 11662
//NEO: Anyone who’s made it past one science class in high school ought to know
//about the laws of thermodynamics!
НЕО: Усі, хто відвідав бодай одне заняття з фізики у старших класах,
мають знати про закони термодинаміки!

// 11663
//MORPHEUS: Where did you go to high school, Neo?
МОРФЕЙ: Де ти вчився, Нео?

// 11664
//(Pause.)
(Пауза.)

// 11665
//NEO: …in the Matrix.
НЕО: ...у Матриці.

// 11666
//MORPHEUS: The machines tell elegant lies.
МОРФЕЙ: Машини зіткали елегантне павутиння брехні.

// 11667
//(Pause.)
(Пауза.)

// 11668
//NEO __(in a small voice)__: Could I please have a real physics textbook?
НЕО (__тихим голосом__): Можна мені отримати підручник зі справжньої фізики?

// 11669
//MORPHEUS: There is no such thing, Neo. The universe doesn’t run on math.
МОРФЕЙ: Такого не існує, Нео. Цим світом математика не керує.
