// 14457
//== Taboo Tradeoffs, Pt 3
== Розділ 81. Неприпустимі поступки, ч.3

// 14458
//In rising half-circles of dark stone, a great sea of upraised hands.
Море піднятих рук заповнювало напівкола з темного каменю, що здіймалися вгору.

// 14459
//The Lords and Ladies of the Wizengamot, in plum-colored robes marked with a
//silver ‘W’, stared down in stern rebuke at a young girl trembling in chains. If
//they had, in any particular ethical system, damned themselves, they clearly
//thought quite highly of themselves for having done so.
// @Не розумію останнє речення взагалі
//!hedrok: Йдеться про те, що якщо ті, хто проголосував, і усвідомлювали, що
//чинять жахливо (а голосували просто через політичні обставини), і розуміли, що
//прокляли себе, вони явно вважали, що приносять себе в жертву, і вони молоді.
Лорди й леді Чарверсуду, вдягнені у мантії сливового кольору з вишитою на них
літерою "`Ч`", із мовчазним докором дивилися вниз, на сковану ланцюгами тремтячу
дівчинку. Якщо вони, згідно якоїсь етичної системи, і прокляли себе цим, вони
явно були про себе високої думки через це.

// 14460
//Harry’s breath was trembling in his chest. His dark side had come up with a
//plan - and then rotated itself back out again because speaking too icily would
//not be to Hermione’s advantage; a fact which the only-half-cold Harry had
//somehow not realized…
Подих Гаррі тремтів. Його темна сторона придумала план -- а тоді швидко віддала
керування,
бо надто холодний тон міг нашкодити Герміоні. Чомусь холодний-лише-наполовину Гаррі
не зрозумів цього одразу...

// 14461
//“The vote carries, in favor,” intoned the secretary, when all the tallying was
//done, and the upraised hands fell back down. “The Wizengamot recognizes the
//blood debt owed by Hermione Granger to House Malfoy for the attempted murder of
//its scion and ending of its line.”
-- Більшість проголосувала "`за`", -- промовив секретар, коли усі підрахунки було
завершено, і руки опустилися. -- Чарверсуд визнає кровний борг Герміони Ґрейнджер
родові Мелфоїв за спробу вбити його спадкоємця й обірвати його лінію.

// 14462
//Lucius Malfoy was smiling in grim satisfaction. “And now,” said the white-maned
//wizard, “I say that her debt shall be paid -”
Луціус Мелфой посміхався зі зловісною втіхою.

-- А тепер, -- сказав біловолосий чарівник, -- гадаю, її борг має бути сплачено...

// 14463
//Harry clenched his fists beneath the bench and shouted, “By the debt owed from
//House Malfoy to House Potter!”
-- За рахунок боргу роду Мелфоїв родові Поттерів! -- викрикнув Гаррі, стиснувши
кулаки під лавою.

// 14464
//“Silence!” snapped the woman in too much pink makeup sitting next to Minister
//Fudge. “You’ve disrupted these proceedings quite enough already! Aurors, escort
//him out!”
-- Тиша! -- скрикнула жінка, що сиділа біля міністра Фаджа й була аж надто нафарбована
рожевим. -- Ви вже достатньо переривали ці слухання! Аврори, виведіть його!

// 14465
//“Wait,” said Augusta Longbottom from the top tier of seats. “What debt is
//this?”
-- Чекайте, -- з верхнього ряду почувся голос Авґусти Лонґботом. -- Про який борг
йдеться?

// 14466
//Lucius’s hands whitened on his cane. “House Malfoy owes no debt to you!”
Рука Луціуса побіліла на його палиці.

-- Рід Мелфоїв немає перед тобою жодного боргу!

// 14467
//It wasn’t the world’s most solid hope, it was based on one newspaper article
//from a woman who’d been False-Memory-Charmed, but Rita Skeeter had seemed to
//find it plausible, that Mr. Weasley had allegedly owed James Potter a debt
//because…
Це не була найстійкіша надія у світі, вона спиралася на одну газетну статтю,
написану жінкою під дією чарів хибної памʼяті, але Ріта Скітер вважала правдоподібним,
що містер Візлі нібито був у боргу перед Джеймсом Поттером через...

// 14468
//“I’m surprised you’ve forgotten,” Harry said evenly. “Surely it was a cruel and
//painful period of your life, laboring under the Imperius curse of
//He-Who-Must-Not-Be-Named, until you were freed of it by the efforts of House
//Potter. By my mother, Lily Potter, who died for it, and by my father, James
//Potter, who died for it, and by me, of course.”
-- Я здивований, що ви забули, -- спокійно сказав Гаррі. -- Звісно ж, це був
сповнений жорстокості і болю період вашого життя, коли вам доводилося трудитися
під Імперіусом Того-Кого-Не-Можна-Називати, доки вас не було звільнено стараннями
роду Поттерів. Моєю матірʼю, Лілі Поттер, яка вмерла заради цього, моїм батьком,
Джеймсом Поттером, який вмер заради цього, і, звісно, мною.

// 14469
//There was a brief silence within the Most Ancient Hall.
У Найдавнішій Залі запала коротка тиша.

// 14470
//“Why, what an excellent point, Mr. Potter,” said the old witch who’d been
//identified as Madam Bones. “I, too, am quite surprised that Lord Malfoy would
//forget such a significant event. It must have been such a happy day for him.”
-- Що ж, яке визначне зауваження, містере Поттер, -- сказала стара відьма, яку
Гаррі ідентифікував як мадам Боунз. -- Я теж дуже здивована, що лорд Мелфой забув
про таку значущу подію. Це мав бути такий щасливий день для нього.

// 14471
//“Yes,” said Augusta Longbottom. “He must have been so grateful.”
-- Так, -- додала Авґуста Лонґботом, -- впевнена, він був дуже вдячний.

// 14472
//Madam Bones nodded. “House Malfoy could not possibly deny that debt - unless,
//perhaps, Lord Malfoy is to tell us that he has misremembered something? I
//should take quite a professional interest in that. We are always trying to
//improve our picture of those dark days.”
-- Рід Мелфоїв не може заперечувати цей борг, хіба що лорд Мелфой розповість нам,
що запамʼятав щось неправильно? У мене прокинувся професіональний інтерес, бо ж
ми постійно намагаємося поліпшити бачення тих темних часів.

// 14473
//Lucius Malfoy’s hands gripped the silver snake-handle of his cane like he was
//about to strike with it, unleash whatever power it kept -
Луціус Мелфой стискав ціпок за срібний держак у формі змії так, наче був готовий
вдарити ним, випустивши усі сили, що вона приховувала...

// 14474
//Then the Lord Malfoy seemed to relax, and a chill smile came over his face. “Of
//course,” he said easily. “I do confess I had not understood, but the child is
//quite correct. But I do not quite think the two debts cancel - House Potter was
//only trying to save itself, after all -”
А тоді лорд Мелфой наче розслабився, холодна посмішка заграла на його обличчі.

-- Звісно, -- з легкістю сказав він. -- Визнаю, я не одразу зрозумів, але дитя має
рацію. Та я не думаю, що ці два борги можуть скасувати один одного. Зрештою, рід Поттерів
просто намагався врятувати себе...

// 14475
//“Not so,” Dumbledore said from above.
-- Це не так, -- сказав Дамблдор згори.

// 14476
//“- and therefore,” intoned Lucius Malfoy, “I demand monetary compensation as
//well, for the redemption of the blood debt owed my son. That, too, is the law.”
-- ...а тому я вимагаю грошової компенсації для спокути кровного боргу моєму синові.
Це також закон.

// 14477
//Harry felt a strange inward flinch. That had also been in the newspaper
//article, Mr. Weasley had demanded an additional ten thousand Galleons -
У Гаррі щось перевернулося в животі. Це також було у тій газетній статті: містер
Візлі вимагав додаткові десять тисяч ґалеонів...

// 14478
//“How much?” said the Boy-Who-Lived.
-- Скільки? -- спитав Хлопчик-Що-Вижив.

// 14479
//Lucius was still wearing the cold smile. “One hundred thousand Galleons. If you
//have not that much in your vault, I suppose I must accept a promissory note for
//the remainder.”
Холодна посмішка не покидала обличчя Луціуса.

-- Сто тисяч ґалеонів. Якщо такої суми немає у вашому сховищі, то, гадаю, я маю
прийняти вексель на сплату залишку.

// 14480
//A roar of protest went up from Dumbledore’s side of the room, even some of the
//plum-colored robes in the middle looked shocked.
З Дамблдорової сторони приміщення вибухнули крики протесту, навіть деякі центральні
мантії сливового кольору видавалися шокованими.

// 14481
//“Shall we put it to vote of the Wizengamot?” said Lucius Malfoy. “I think few
//of us would like to see the little murderess go free. By a show of hands, that
//additional compensation of one hundred thousand Galleons would be required to
//cancel the debt!”
-- Може нам варто поставити це на голосування Чарверсуду? -- спитав Луціус Мелфой.
-- Гадаю, мало кому з нас хочеться бачити, як маленька вбивця піде на волю.
Підніміть руки за те, що скасування боргу потребує виплати додаткової компенсації
у сто тисяч ґалеонів!

// 14482
//The clerk began tallying, but that vote was also clear.
Клерк почав рахувати, але, як і попереднього разу, все і так було зрозуміло.

// 14483
//Harry stood there, breathing deeply.
Гаррі глибоко дихав.

// 14484
//__You’d better not even have to think about this,__ Harry’s inner
//Gryffindor said threateningly.
__Краще навіть не думай вагатися__, пригрозив внутрішній ґрифіндорець Гаррі.

// 14485
//__It’s a major purchase,__ observed Ravenclaw. __We ought to spend a
//lot of time thinking about it.__
__Це велика витрата__, зазначив рейвенкловець. __Нам треба серйозно
все обміркувати.__

// 14486
//It shouldn’t have been hard. It __shouldn’t__ have. Two million pounds was
//only money, and money was only worth what it could buy…
Це не мало бути важко. __Не мало__. Два мільйони фунтів -- це всього лише гроші,
а гроші варті лише того, що за них можна купити...

// 14487
//It was strange how much psychological attachment you could have to ‘only
//money’, or how painful it could be to imagine losing a bank vault full of gold
//that you hadn’t even imagined existed just one year earlier.
Дивно, яку сильну психологічну привʼязаність можна відчувати до "`всього лише грошей`",
чи як боляче уявляти втрату банківського сховища, повного золота, хоча рік тому ти навіть
не уявляв, що воно існує.

// 14488
//__Kimball Kinnison wouldn’t hesitate,__ said Gryffindor.
//__Seriously. Like, snap decision. What sort of hero are you? I already
//hate you just for having to think about it for longer than 50 milliseconds.__
// @wiki https://en.wikipedia.org/wiki/Lensman_series - Kimball Kinnison
// hedrok: Kimball Kinnison є в 027:5332
__Кімбол Кінісан би не вагався__, сказав ґрифіндорець. __Серйозно. Це
було б миттєве рішення. Що ти за герой такий? Я ненавиджу тебе вже за те,
що ти думаєш про це більше за 50 мілісекунд.__

// 14489
//__This is real life,__ said Ravenclaw. __Losing all your money is a
//lot more painful for real people in real life than in heroic books.__
__Це справжнє життя__, сказав рейвенкловець. __Втрачати всі свої
гроші набагато важче для справжніх людей у справжньому світі, ніж у героїчних
книжках.__

// 14490
//__What?__ demanded Gryffindor. __Whose side are you on?__
__Що?__ обурився ґрифіндорець. __На чиєму ти боці?__

// 14491
//__I wasn’t advocating for a particular answer,__ said Ravenclaw, __I
//was just saying it because it was true.__
__Я не виступаю на користь конкретної відповіді__, сказав рейвенкловець,
__я просто говорю правду.__

// 14492
//__Could a hundred thousand Galleons be used to save more than one life if
//spent some other way? __said Slytherin. __We have research to do, battles
//to fight, the difference between being 40,000 Galleons rich and being 60,000
//Galleons in debt is not trivial -__
__Хіба не можна використати сто тисяч ґалеонів для порятунку більше ніж
одного життя, якщо витратити їх інакше?__ спитав слизеринець. __Ми
маємо зробити дослідження, вести боротьбу, а різниця між тим, щоб мати 40 тисяч
ґалеонів і заборгувати 60 тисяч ґалеонів доволі помітна...__

// 14493
//__So we’ll just use one of our ways to make money fast and earn it all
//back,__ said Hufflepuff.
__Тоді ми просто використаємо один з наших засобів швидкого заробітку грошей
і отримаємо все назад__, сказав гафелпафець.

// 14494
//__It’s not certain those will work,__ said Slytherin, __and a lot of
//them require starting cash -__
__Немає впевненості, що вони спрацюють__, сказав слизеринець, __І більшість з
них потребує початкового капіталу...__

// 14495
//__Personally,__ said Gryffindor,__ I vote that we save Hermione and
//then gang up and kill our inner Slytherin.__
__Особисто я__, сказав ґрифіндорець, __голосую за те, щоб врятувати
Герміону, а потім зібратися й вбити нашого внутрішнього слизеринця.__

// 14496
//The clerk’s voice said that the tally had been recorded and the vote had
//passed…
Голос клерка повідомив, що результати голосування записано й пропозицію
схвалено...

// 14497
//Harry’s lips opened.
Гаррі розтулив рота.

// 14498
//“I accept your offer,” said Harry’s lips, without any hesitation, without any
//decision having been made; just as if the internal debate had been pretense and
//illusion, the true controller of the voice having been no part of it.
-- Я приймаю вашу пропозицію, -- сказав рот Гаррі без жодних роздумів, без жодного
рішення. Наче внутрішні дебати були лише грою, ілюзією, а той, хто насправді контролював
голос, не брав у ній участі.

// 14499
//Lucius Malfoy’s mask of calm shattered, his eyes widened, he stared at Harry in
//sheer blank astonishment. His mouth had opened slightly, though he wasn’t
//speaking, and if he was making any peculiar noises it couldn’t be heard over
//the roar of simultaneous gasps from the Wizengamot -
Маска спокою на обличчі Луціуса Мелфоя розбилася, його очі розширилися,
він дивився на Гаррі сповненим щирого здивування поглядом. Він розтулив рота,
але нічого не говорив. І, навіть якщо він і видавав якісь звуки, цього не
було чутно у галасі спільних зойків і скриків Чарверсуду...

// 14500
//A tap of stone silenced the crowd.
Натовп затих, почувши стукіт каменю.

// 14501
//“No,” said the voice of Dumbledore.
-- Ні, -- промовив голос Дамблдора.

// 14502
//Harry’s head jerked around to stare at the ancient wizard.
Гаррі різко повернув голову і подивився на старого чарівника.

// 14503
//Dumbledore’s lined face was pale, the silver beard was visibly trembling, he
//looked like he was in the final throes of a terminal illness. “I’m - sorry,
//Harry - but this choice is not yours - for I am still the guardian of your
//vault.”
Вкрите зморшками обличчя Дамблдора було блідим, срібна борода помітно дрижала.
Видавалося, наче він був на термінальній стадії смертельного захворювання.

-- Мені... шкода, Гаррі... Але не тобі обирати, я досі опікун твого сховища.

// 14504
//“__What?__” said Harry, too shocked to compose his reply.
-- __Що?__ -- Гаррі був надто шокований, щоб сформулювати нормальну відповідь.

// 14505
//“I cannot let you go into debt to Lucius Malfoy, Harry! I cannot! You do not
//know - you do not realize -”
-- Я не можу дозволити тобі бути в боргу перед Луціусом Мелфоєм, Гаррі! Ти не
знаєш, не усвідомлюєш...

// 14506
//__DIE.__
__ПОМРИ.__

// 14507
//Harry didn’t even know which part of himself had spoken, it might have been a
//unanimous vote, the pure rage and fury pouring through him. For an instant he
//thought that the sheer force of the anger might take magical wing and fly out
//to strike the Headmaster, send him tumbling back dead from the podium -
Гаррі навіть не знав, яка з його частин заговорила. Можливо, це було одностайне
рішення, кристальна лють і злоба лилися крізь нього. На мить він навіть подумав,
що абсолютна міць його гніву надбає магічні крила, полетить до директора і змусить
його впасти мертвим, скотитися з подіуму...

// 14508
//But when that mental voice had spoken, the old wizard was still standing there,
//gazing at Harry, long dark wand in his right hand, short black rod in his left.
Але коли той внутрішній голос заговорив, старий чарівник так і стояв на
місці й дивився на Гаррі, тримаючи довгу темну паличку в правиці й короткий чорний
жезл у лівиці.

// 14509
//And Harry’s eyes also went to the red-golden bird with its claws resting on the
//shoulder of Dumbledore’s black robes, silent when no phoenix should have been
//silent. “Fawkes,” Harry said, his voice sounding strange in his own ears, “can
//you scream at him for me?”
Погляд Гаррі перемістився на червоного із золотом птаха, який сидів на Дамблдоровому
плечі, на чорній мантії. Сидів тихо, хоча жоден фенікс не зміг би змовчати.

-- Фоуксе, -- голос Гаррі здавався дивним йому самому, -- чи не міг би ти нагримати
на нього за мене?

// 14510
//The fiery bird on the old wizard’s shoulder didn’t scream. Maybe the Wizengamot
//had demanded that a spell of silence be put on the creature, otherwise it
//probably would have been screaming the whole time. But Fawkes hit his master,
//one golden wing buffeting the old wizard’s head.
Вогняний птах на плечі старого чарівника не закричав. Можливо, Чарверсуд вимагав,
щоб на істоту наклали закляття тиші, інакше він кричав би без упину. Але Фоукс вдарив
свого хазяїна по голові, давши ляпаса одним зі своїх золотих крил.

// 14511
//“I cannot, Harry!” the old wizard said, the agony clear in his voice. “I am
//doing as I must do!”
-- Я не можу, Гаррі! -- в голосі старого чарівника чулася агонія. -- Я роблю те,
що маю зробити!

// 14512
//And Harry knew, then, as he looked at the red-golden bird, what he had to do as
//well. It should have been obvious from the beginning, that solution.
Гаррі подивився на червоно-золотого птаха. А тоді він теж знав, що має зробити.
Це рішення мало бути очевидним від початку.

// 14513
//“Then I too will do what I must,” Harry said up to Dumbledore, as though the
//two of them stood alone in the room. “You do realize that, don’t you?”
-- Тоді я теж зроблю те, що повинен, -- Гаррі звернувся до Дамблдора, дивлячись
угору, наче в кімнаті лишилися тільки вони двоє. -- Ви ж це розумієте, чи не так?

// 14514
//The old wizard shook his trembling head. “You will change your mind when you
//are older -”
Старий чарівник похитав головою, він продовжував дрижати.

-- Ти передумаєш, коли станеш старшим...

// 14515
//“I’m not talking about that,” Harry said, his voice still strange in his own
//ears. “I mean that I will not allow Hermione Granger to be eaten by Dementors
//under any circumstances. Period. Regardless of what any law says, and no matter
//what I have to do to stop it. Do I still need to spell it out?”
-- Я не про це, -- голос досі здавався йому дивним. -- Я маю на увазі, що за жодних
умов не дозволю дементорам зʼїсти Герміону Ґрейнджер. Крапка. Незважаючи на жодні закони,
і неважливо, що мені доведеться для цього зробити. Ви хочете, щоб я
розжував, що маю на увазі?

// 14516
//A strange male voice spoke from somewhere far away, “Be sure that the girl is
//taken directly to Azkaban, and put under extra guard.”
-- Упевніться, що дівчинку заберуть прямо в Азкабан, і додайте охоронців, -- промовив дивний
чоловічий голос звідкісь здалеку.

// 14517
//Harry waited, staring at the old wizard, and then spoke again. “I will go to
//Azkaban,” Harry said to the old wizard, as though they stood alone in the
//world, “before Hermione can be taken there, and start snapping my fingers. It
//may cost me my life, but by the time she gets there, there won’t be an Azkaban
//anymore.”
Гаррі чекав, дивлячись на старого чарівника. А тоді заговорив знову.

-- Я піду в Азкабан, -- Гаррі звертався до старого чарівника, наче більше нікого
не було у світі, -- до того, як туди заберуть Герміону Ґрейнджер, і почну клацати
пальцями. Можливо, це коштуватиме мені життя, але до того часу, як її туди доставлять,
Азкабану вже не існуватиме.

// 14518
//Some members of the Wizengamot gasped in surprise.
Деякі з членів Чарверсуду шоковано зойкнули.

// 14519
//Then a greater number started laughing.
А тоді ще більше почали сміятися.

// 14520
//“How would you even get there, little boy?” someone said, from among those who
//were laughing.
-- І як ти збираєшся туди дістатися, хлопчисько? -- спитав хтось з тих, хто сміявся.

// 14521
//“I have my ways of going places,” said the boy’s distant voice. Harry kept his
//eyes on Dumbledore, on the old wizard staring at him in shock. Harry didn’t
//look directly at Fawkes, didn’t give his plan away; but in his mind he prepared
//to summon the phoenix to transport him, prepared to fill his mind with light
//and fury, to call for the fire-bird with all his might, he might have to do it
//upon the instant if Dumbledore pointed his wand -
-- У мене є власні способи пересування.

Гаррі не відводив очей від Дамблдора, від
старого чарівника, що шоковано дивився у відповідь. Гаррі не дивився прямо на Фоукса,
не видавав йому свій план. Але подумки він вже приготувався викликати фенікса, щоб той
переніс його, приготувався наповнити розум світлом і люттю, покликати вогнептаха
з усіх сил. Якщо Дамблдор наведе паличку, йому доведеться зробити це миттєво...

// 14522
//“Would you truly?” the old wizard said to Harry, also as if the two of them
//stood alone in the room.
-- Ти справді це зробиш? -- старий чарівник також звертався так, наче нікого більше
не було в кімнаті.

// 14523
//The room went silent again as everyone stared in shock at the Chief Warlock of
//the Wizengamot, who seemed to be taking the mad threat completely seriously.
Кімната знову затихла, адже всі шоковано дивилися на головного мага Чарверсуду,
який, видавалося, сприйняв божевільну загрозу цілком серйозно.

// 14524
//The old wizard’s eyes were locked only on Harry. “Would you risk everything -
//everything - only for her?”
Старий чарівник дивився тільки на Гаррі.

-- Ти насправді ризикуватимеш усім -- усім -- тільки заради неї?

// 14525
//“Yes,” Harry said back in reply.
-- Так, -- відповів Гаррі.

// 14526
//__That’s the wrong answer, you know,__ said Slytherin. __Seriously.__
__Знаєш, це неправильна відповідь__, сказав слизеринець, __Серйозно__.

// 14527
//__But it’s the true answer.__
__Але це щира відповідь__.

// 14528
//“You will not see reason?” said the old wizard.
-- Ти не дослухатимешся розуму? -- спитав старий чарівник.

// 14529
//“Apparently not,” Harry said back.
-- Судячи з усього, ні, -- відповів Гаррі.

// 14530
//The gazes stayed locked.
Вони обидва не відводили очей.

// 14531
//“This is terrible folly,” said the old wizard.
-- Це жахливе безґлуздя, -- сказав старий чарівник.

// 14532
//“I am aware of this,” answered the hero. “Now get out of my way.”
-- Я це розумію, -- відповів герой. -- А тепер, забирайтеся з мого шляху.

// 14533
//Strange light glinted in the ancient blue eyes. “As you will, Harry Potter, but
//know that this is not over.”
У стародавній блакиті очей Дамблдора блиснуло дивне світло.

-- Як забажаєш, Гаррі Поттере. Але знай, це ще не скінчено.

// 14534
//The rest of the world faded back into existence.
Решта світу потрохи проявилася навколо них.

// 14535
//“I withdraw my objection,” said the old wizard, “Harry Potter may do as he
//wishes,” and the Wizengamot exploded in a roar of shock, only to be silenced by
//a final tap of the stone rod.
-- Я відкликаю своє заперечення. Гаррі Поттер може робити те, що бажає.

Чарверсуд вибухнув шокованим гамором, але знову затих від звуку камʼяного жезла.

// 14536
//Harry turned his head back to look at Lord Malfoy, who looked like he’d seen a
//cat turn into a person and start eating other cats. To call the look confused
//did not begin to describe it.
Гаррі повернув голову в бік лорда Мелфоя. Той виглядав так, наче побачив як кицька
перетворилася на людину і почала їсти інших кицьок. Назвати його вигляд "`здивованим`"
було менш ніж недостатньо.

// 14537
//“You would truly…” Lucius Malfoy said slowly. “You would truly pay a hundred
//thousand Galleons, to save one mudblood girl.”
-- Ти й справді... -- повільно сказав Луціус Мелфой. -- Ти й справді заплатиш
сто тисяч ґалеонів, щоб врятувати одну бруднокровку.

// 14538
//“I think there’s about forty thousand in my Gringotts vault,” Harry said. It
//was strange how that was __still__ causing more internal pain than the
//thought of taking an over-fifty-percent risk to his life to destroy Azkaban.
//“As for the other sixty thousand - what are the rules, exactly?”
-- Гадаю, в моєму сховищі у "`Ґрінґотсі`" близько сорока тисяч, -- сказав Гаррі.
Дивно, як йому й __досі__ більше боліло від думки про втрату цих грошей, ніж від
пʼятдесятипроцентного ризику померти, знищуючи Азкабан. -- А щодо решти
шістдесяти тисяч -- які саме правила?

// 14539
//“It comes due when you graduate Hogwarts,” the old wizard said from high above.
//“But Lord Malfoy has certain rights over you before then, I fear.”
-- Ти маєш виплатити їх, коли закінчиш Гоґвортс, -- сказав згори старий
чарівник. -- Але, боюся, лорд Мелфой матиме й деякі права на тебе доти.

// 14540
//Lucius Malfoy stood motionless, frowning down at Harry. “Who is she to you,
//then? __What__ is she to you, that you would pay so much to keep her from
//harm?”
Луціус Мелфой стояв, витріщившись на Гаррі, і не виказував жодної емоції.

-- Хто вона тобі? __Що__ вона тобі, якщо ти готовий стільки заплатити, щоб вберегти її
від шкоди?

// 14541
//“My friend,” the boy said quietly.
-- Мій друг, -- тихо відповів хлопець.

// 14542
//Lucius Malfoy’s eyes narrowed. “By the report I received, you cannot cast the
//Patronus Charm, and Dumbledore knows this. The power of a single Dementor
//nearly killed you. You would not dare venture near Azkaban in your own person
//-”
Очі Луціуса Мелфоя звузилися.

-- Згідно зі звітом, який я отримав, ти не здатен використовувати закляття патронуса,
і Дамблдорові це відомо. Один єдиний дементор мало не вбив тебе. Ти не ризикнеш наблизитися
до Азкабану...

// 14543
//“That was in January,” said Harry. “This is April.”
-- То було у січні, -- сказав Гаррі. -- Зараз квітень.

// 14544
//Lucius Malfoy’s eyes remained cool and calculating. “You pretend you can
//destroy Azkaban, and Dumbledore pretends to believe it.”
Погляд Луціуса Мелфоя був холодним і розважливим.

-- Ти робиш вигляд, що можеш знищити Азкабан, Дамблдор робить вигляд, що у це
вірить.

// 14545
//Harry did not reply.
Гаррі не відповів.

// 14546
//The white-haired man turned slightly, toward the center of the half-circle, as
//though to address the greater Wizengamot. “I withdraw my offer!” shouted the
//Lord of Malfoy. “I will not accept the debt to House Potter in payment, not
//even for a hundred thousand Galleons! The girl’s blood debt to House Malfoy
//stands!”
Біловолосий чоловік повернувся до середини півкола, наче звертався до всього
Чарверсуду.

-- Я відкликаю свою пропозицію! Я не прийму борг роду Поттерів грошима, навіть
за сто тисяч ґалеонів. Кровний борг дівчини родові Мелфоїв не скасовано!

// 14547
//Again the roar of many voices. “Dishonorable!” someone cried. “You acknowledge
//the debt to House Potter, and yet you would -” and then that voice cut off.
Знову загули голоси.

-- Безчесно, -- вигукнув хтось. -- Ви визнаєте борг родові Поттерів, і все одно...

А тоді цей голос перервався.

// 14548
//“I acknowledge the debt, but the law does not strictly oblige me to accept it
//in cancellation,” said Lord Malfoy with a grim smile. “The girl is no part of
//House Potter; the debt I owe House Potter is no debt to her. As for the
//__dishonor__ -” Lucius Malfoy paused. “As for the grave shame I feel at my
//ingratitude toward the Potters, who have done so much for me -” Lucius Malfoy
//bowed his head. “May my ancestors forgive me.”
-- Я визнаю борг, але закон строго не зобовʼязує мене прийняти його скасування,
-- сказав лорд Мелфой із похмурою посмішкою. -- Дівчина не є членом роду Поттерів,
мій борг родові Поттерів не є боргом їй. А щодо __безчестя__, -- Луціус Мелфой
зробив паузу. -- Я відчуваю страшенний сором за свою невдячність родові Поттерів, який так багато
зробив для мене.

Луціус Мелфой опустив голову.

-- Нехай мої пращури пробачать мене.

// 14549
//“Well, boy?” called the scarred man sitting at Lord Malfoy’s right hand. “Go
//and destroy Azkaban, then!”
-- Ну що ж, хлопче, -- озвався чоловік зі шрамом, що сидів праворуч від лорда Мелфоя.
-- Іди й знищ Азкабан!

// 14550
//“I’d like to see that,” said another voice. “Will you be selling tickets?”
-- Я б хотів це побачити, -- почувся інший голос. -- Чи продаватимуть квитки?

// 14551
//It went without saying that Harry didn’t pick this particular moment to give
//up.
Очевидно, Гаррі не збирався здаватися цієї ж миті.

// 14552
//__The girl is no part of House Potter -__
__Дівчина не є членом роду Поттерів...__

// 14553
//He had, in fact, seen the obvious way out of the dilemma almost instantly.
Насправді він побачив очевидний розвʼязок цієї задачі миттєво.

// 14554
//It might have taken him longer if he hadn’t recently overheard a number of
//conversations between older Ravenclaw girls, and read a certain number of
//Quibbler stories.
Можливо, йому знадобилося б більше часу, якби він раніше не чув достатньо
розмов між старшими рейвенкловками й не читав чимало статей з "`Базікала`".

// 14555
//He was, nonetheless, having trouble accepting it.
Але прийняти це все одно було важко.

// 14556
//__This is ridiculous,__ said a part of Harry which had just dubbed itself
//the Internal Consistency Checker. __Our actions here are completely
//incoherent. First you feel less emotional reluctance to risk your bloody LIFE
//and probably DIE for Hermione, than to part with a stupid heap of gold. And now
//you’re balking just at getting married?__
__Це сміховинно__ промовила та частина Гаррі, яка щойно проголосила себе Контролером
Внутрішньої Узгодженості. __Наші дії в цій ситуації цілковито непослідовні. Спочатку
тобі емоційно легше ризикнути клятим
ЖИТТЯМ і ймовірно ПОМЕРТИ заради Герміони, ніж розстатися з дурною купою
золота. А тепер ти пасуєш перед простим одруженням?__

// 14557
//__SYSTEM ERROR.__
__СИСТЕМНА ПОМИЛКА.__

// 14558
//__You know what?__ said Internal Consistency Checker. __You’re
//stupid.__
__Знаєш що?__ спитав Контролер Внутрішньої Узгодженості. __Ти дурний.__

// 14559
//__I didn’t say no,__ thought Harry. __I was just saying SYSTEM
//ERROR.__
__Я не сказав "`ні`"__, подумав Гаррі. __Я сказав СИСТЕМНА
ПОМИЛКА.__

// 14560
//__I vote for destroying Azkaban,__ said Gryffindor. __It needs to be
//done anyway.__
__Я голосую за знищення Азкабану__, сказав ґрифіндорець. __Все одно
це треба зробити.__

// 14561
//__Really, really stupid,__ said Internal Consistency Checker. __Oh,
//screw this, I’m assuming control of our body.__
__Дуже, дуже дурний__, сказав Контролер Внутрішньої Узгодженості.
__Та в біса це, я забираю контроль над нашим тілом.__

// 14562
//The boy took a deep breath, and opened his mouth -
Хлопчик глибоко вдихнув і відкрив рота...

// 14563
//By this point Harry Potter had entirely forgotten the existence of Professor
//McGonagall, who had been sitting there this whole time undergoing a number of
//interesting changes of facial expression which Harry had not been looking at
//because he was distracted. It would have been overly harsh to say that Harry
//had forgotten her because he did not consider her a PC. It could be more kindly
//said that Professor McGonagall was not visibly a solution to any of his current
//problems, and therefore she was not part of the universe.
Гаррі повністю забув про існування професорки Макґонеґел, яка весь цей час сиділа в
залі. Вона змінила кілька дуже цікавих виразів обличчя, але Гаррі їх не побачив, бо був
зайнятий. Було б надмірно грубим сказати, що Гаррі забув про неї, адже вважав її
ботом.
Кажучи мʼякше, професорка Макґонеґел жодним чином не видавалася йому рішенням
поточної ситуації, а тому вона не була частиною всесвіту.

// 14564
//So Harry, who at this point had a fair amount of adrenaline in his bloodstream,
//startled and jumped quite visibly when Professor McGonagall, her eyes now
//blazing with impossible hope and the tears on her cheek half-dried, leapt to
//her feet and cried, “__With me, Mr. Potter!__” and, without waiting for a
//reply, tore down the stairs that led to the bottom platform where waited a
//chair of dark metal.
Тож Гаррі, який на цей час уже мав чимало адреналіну в крові, аж підстрибнув, коли
професорка Макґонеґел зірвалася на ноги й крикнула: "`__Зі мною, містере Поттер!__`".
Її очі сяяли неможливою надією, сльози на щоках лише напіввисохли. І, навіть не
чекаючи на відповідь, вона кинулася вниз сходами, до нижньої платформи, де
чекав стілець із темного металу.

// 14565
//It took a moment, but Harry ran after; though it took him longer to reach the
//bottom, after Professor McGonagall vaulted half the stairs with a strange
//catlike motion and landed with the astonished-looking Auror trio already
//pointing their wands at her.
За мить Гаррі побіг за нею. Йому знадобилося більше часу, адже вона подолала
половину сходів одним рухом, схожим на котячий. Коли вона приземлилася, шокована
трійка аврорів вже націлила на неї палички.

// 14566
//“Miss Granger!” cried Professor McGonagall. “Can you speak yet?”
-- Міс Ґрейнджер! -- вереснула професорка Макґонеґел. -- Ви вже можете говорити?

// 14567
//Much as with Professor McGonagall, there was a certain sense in which it could
//be said that Harry had forgotten about the existence of Hermione Granger,
//because Harry had been tilting his neck back to look upward rather than
//downward, and because he hadn’t considered her a solution to any of his current
//problems. Though it was hardly certain, in fact it wasn’t at all probable, that
//Harry remembering to look at Hermione or think about what she must be feeling,
//would have helped anything in the slightest.
Так само, як і з професоркою Макґонеґел, можна було сказати, що в якомусь сенсі Гаррі
забув і про існування Герміони Ґрейнджер. Він повертав голову, щоб дивитися догори,
а не вниз, і він не вважав її рішенням жодної з поточних проблем. Тим більше, не було
жодних гарантій, а точніше було малоймовірним, що якби він пригадав подивитися на
Герміону й подумати, як вона почувається, це бодай якось допомогло б.

// 14568
//Harry reached the bottom of the stairs and saw Hermione Granger full on -
Гаррі спустився сходами й побачив Герміону Ґрейнджер...

// 14569
//Without thinking, without being able to help himself, Harry shut his eyes, but
//he’d seen.
Не думаючи, неспроможний зупинити себе, він заплющив очі, але він вже побачив.

// 14570
//Her school robes around her neck, soaked all the way through with tears.
Її шкільна мантія навколо шиї вся була просякнута сльозами.

// 14571
//The way she’d been looking away from __him__.
Те, як вона дивилася вбік, аби не дивитися на __нього__.

// 14572
//And the eye of memory and sympathy, which could not be shut, which could not
//look away, knew that Hermione had recounted the worst shame of her life in
//front of the nobility of magical Britain and Professor McGonagall and
//Dumbledore and Harry; and then been sentenced to Azkaban where she would be
//exposed to darkness and cold and all her worst memories until she went mad and
//died; and then she’d heard that Harry was going to give away all his money and
//go into debt to save her, and maybe even sacrifice his life
І погляд памʼяті та співчуття, якого неможливо було заплющити, який неможливо
було відвести вбік,
знав, що Герміона пережила найбільший сором свого життя перед усією знаттю чарівної
Британії, перед професоркою Макґонеґел, і Дамблдором, і Гаррі. А тоді була засуджена
на увʼязнення в Азкабані, де вона буде відкрита темряві, холоду й усім своїм найстрашнішим
спогадам, аж доки вона не збожеволіє й доки не помре. А тоді вона почула, що Гаррі збирається
віддати всі свої гроші і стати боржником, аби врятувати її, і може навіть
пожертвувати своїм
життям

// 14573
//and with the Dementor standing only a few paces behind her
і хоч дементор і стояв лише за кілька кроків від неї,

// 14574
//she hadn’t said anything…
вона нічого не казала була...

// 14575
//“Y-yes,” whispered the voice of Hermione Granger. “I c-can talk.”
-- Т-так, -- почувся шепіт Герміони Ґрейнджер. -- Я м-можу говорити.

// 14576
//Harry opened his eyes again and saw her face, now looking at him. It didn’t say
//anything like what he thought Hermione was feeling, faces couldn’t say anything
//that complicated, all facial muscles could do was contort themselves into
//knots.
Гаррі розплющив очі й побачив її обличчя. Тепер вона дивилася на нього. Її обличчя не
казало всього того, що на думку Гаррі вона відчувала. Обличчя не можуть передавати такі
складні почуття. Все, на що здатні лицеві мʼязи, -- скручуватися у вузли.

// 14577
//“H-H-Harry, I-I’m so, I’m so -”
-- Г-Г-Гаррі, м-мені так, так...

// 14578
//“Shut up,” Harry suggested.
-- Замовкни, -- запропонував Гаррі.

// 14579
//“s-s-sorry -”
-- ш-ш-шкода...

// 14580
//“If you’d never met me on the train you wouldn’t be in any trouble right now.
//So shut up,” said Harry Potter.
-- Якби ти не зустріла мене у потязі, то зараз в тебе не було б жодних проблем.
Тому замовкни.

// 14581
//“Both of you stop being silly,” Professor McGonagall said in her firm Scottish
//accent (it was strange how much that helped). “Mr. Potter, hold out your wand
//so that Miss Granger’s fingers can touch it. Miss Granger, repeat after me.
//Upon my life and magic -”
-- Ви обидва, припиніть поводитися наче дурні, -- сказала професорка Макґонеґел
своїм суровим шотландським акцентом (дивно, як сильно це допомогло). -- Містере Поттер,
виставте паличку так, щоб міс Ґрейнджер могла торкатися її пальцями. Міс Ґрейнджер,
повторюйте за мною. На своєму житті й магії...

// 14582
//Harry did as he was bid, thrusting his wand forward to touch Hermione’s
//fingers; and then Hermione’s faltering voice said, “Upon my life and magic -”
Гаррі зробив так, як йому сказали. Він протягнув паличку до пальців Герміони,
а тоді її тремтячий голос промовив: "`На своєму житті і магії...`"

// 14583
//“I swear service to the House of Potter -” said Professor McGonagall.
-- Я клянуся служити родові Поттерів... -- сказала професорка Макґонеґел.

// 14584
//And Hermione, without waiting for any further instructions, said, the words
//spilling out of her in a rush, “I swear service to the House of Potter, to obey
//its Master or Mistress, and stand at their right hand, and fight at their
//command, and follow where they go, until the day I die.”
Не чекаючи на подальші інструкції, Герміона швидко повторювала.

// hedrok "the day I die" копія в 122:20107
-- Я клянуся служити родові Поттерів, підкорятися його володарю чи володарці, і стояти
коло їхньої правиці, і битися за їхнім наказом, і всюди слідувати за ними, аж до
дня моєї смерті.

// 14585
//All those words had been blurted out in a desperate gasp before Harry could
//have thought or said anything, if he’d been mad enough to interrupt.
Всі ці слова були сказані одним відчайдушним поривом раніше, ніж Гаррі міг встигнути
подумати чи сказати щось, навіть якби він був достатньо божевільним, щоб втрутитися.

// 14586
//“Mr. Potter, repeat these words,” said Professor McGonagall. “I, Harry, heir
//and last scion of the Potters, accept your service, until the end of the world
//and its magic.”
-- Містере Поттер, повторюйте такі слова, -- сказала професорка Макґонеґел. -- Я,
Гаррі, спадкоємець і останній нащадок Поттерів, приймаю твоє служіння, до кінця світу
і його магії.

// 14587
//Harry took a breath and said, “I, Harry, heir and last scion of the Potters,
//accept your service, until the end of the world and its magic.”
Гаррі зробив подих і сказав: "`Я, Гаррі, спадкоємець і останній нащадок Поттерів,
приймаю твоє служіння, до кінця світу і його магії.`"

// 14588
//“That’s it,” said Professor McGonagall. “Well done.”
-- От і все, -- сказала професорка. -- Молодці.

// 14589
//Harry looked up, and saw that the entire Wizengamot, whose existence he’d
//forgotten, was staring at them.
Гаррі подивився вгору й зрозумів, що весь Чарверсуд, про існування якого він
вже встиг забути, дивився на них.

// 14590
//And then Minerva McGonagall, who __was__ Head of House Gryffindor even if
//she didn’t always act like it, looked up high above at where Lucius Malfoy
//stood; and she said to him before the entire Wizengamot, “I regret every point
//I ever gave you in Transfiguration, you vile little worm.”
А тоді Мінерва Макґонеґел, яка __була__ головою гуртожитку Ґрифіндор, хоча й не завжди
діяла відповідно, подивилася високо вгору, туди, де стояв Луціус Мелфой, і сказала йому
перед усім Чарверсудом:

-- Я шкодую про кожен бал, що його колись дала тобі на трансфігурації,
мерзенний маленький червʼяк.

// 14591
//Whatever Lucius was about to say in reply was silenced by a tap of the short
//rod in Dumbledore’s hand. “Ahem!” said the old wizard from his podium of dark
//stone. “This session has carried on quite considerably, and if it is not
//dismissed soon, some of us may miss their entire luncheon. The law of this
//matter is clear. You have already voted on the terms of the bargain, and Lord
//Malfoy cannot legally decline it. As we have far exceeded our allotted time, I
//now, in accordance with the last decision of the survivors of the eighty-eighth
//Wizengamot, adjourn this session.”
Хай що Луціус хотів сказати у відповідь, він затих почувши стукіт Дамблдорового
короткого жезла.

-- Кхм! -- сказав старий чарівник зі свого темного камʼяного подіуму. -- Це слухання
затягнулося на доволі значний час, і якщо воно не завершиться незабаром, дехто з нас
ризикує пропустити весь обід. Закон з цього приводу чіткий. Ви вже проголосували щодо
умов угоди, і лорд Мелфой не може легально відхилити її. Адже ми вже давно перейшли далеко
за виділений нам час, я, згідно з останнім рішенням вцілілих з вісімдесят восьмого Чарверсуду,
припиняю це слухання.

// 14592
//The old wizard tapped the rod of dark stone three times.
Старий чарівник тричі стукнув камʼяним жезлом.

// 14593
//“You fools!” shouted Lucius Malfoy. The white hair was shaking as though in a
//wind, the face beneath was pale with fury. “Do you think you’ll get away with
//what you’ve done today? Do you think that girl can try to murder my son and
//escape unscathed?”
-- Дурні! -- кричав Луціус Мелфой. Його біле волосся розвивалося, наче від вітру,
обличчя було блідим від люті. -- Думаєте, ви можете отак просто дозволити цій дівчині
уникнути покарання після спроби вбити мого сина, і вам за це нічого не буде?

// 14594
//The toad-like pink-makeup woman, whose name Harry could no longer remember, was
//standing up from her seat. “Why, of course not,” she said with a sickening
//smile. “After all, the girl __is__ still a murderess, and I think the
//Ministry shall be watching her affairs quite closely - it hardly seems wise
//that she should be allowed to wander the streets, after all -”
Жабоподібна жінка з рожевим макіяжем, імʼя якої Гаррі не памʼятав, встала зі свого
місця.

-- Звісно ж ні, -- сказала вона з нудотною посмішкою. -- Зрештою, дівчина все ще
__вбивця__. Гадаю, міністерству варто пильно стежити за всіма її справами. Навряд чи
їй можна дозволяти вільно блукати вулицями...

// 14595
//Harry was fed up at this point.
З Гаррі було достатньо.

// 14596
//Without waiting to listen, Harry turned on his heel and strode forward in long
//steps toward -
Не дослухавши, він розвернувся і швидко покрокував убік...

// 14597
//The horror only he could truly see, the absence of color and space, the wound
//in the world, above which floated a tattered cloak; most imperfectly guarded by
//a running moonlit squirrel and fluttering silver sparrow.
Жаху, що його він єдиний міг бачити насправді, відсутності кольору й простору,
рани світу, на яку було накинуто подраного плаща. Під зовсім недостатнім наглядом
кольору місячного світла білки, що бігала довкола, та срібного горобця, що
пурхав залою.

// 14598
//His dark side had also noticed, when it was looking through the entire room for
//anything that could possibly be used as a weapon, that the enemy had been
//foolish enough to bring a Dementor into Harry’s presence. That was a powerful
//weapon indeed, and one that Harry might wield better than its supposed masters.
//There had been a time in Azkaban when Harry had told twelve Dementors to turn
//and go, and they had gone.
Темна сторона Гаррі також помітила була, коли роздивлялася кімнату в пошуках будь-чого,
що може бути використано як зброя, що ворог був достатньо дурним, аби лишити
дементора в присутності Гаррі. Це, безумовно, була потужна зброя. До того ж,
Гаррі міг володіти нею набагато краще, ніж її так звані хазяї. Якось в Азкабані він
сказав дванадцятьом дементорам повернутися і піти, й вони пішли.

// 14599
//__The Dementors are Death, and the Patronus Charm works by thinking about
//happy thoughts instead of Death.__
__Дементори -- це смерть, а закляття патронуса працює, якщо думати про щасливі
спогади замість смерті.__

// 14600
//If Harry’s theory was correct, that one sentence would be all it took to pop
//the Aurors’ Patronus Charms like a soap bubble, and ensure that nobody within
//reach of his voice could cast another one.
Якщо теорія Гаррі була правильною, одного цього речення буде достатньо, щоб патронуси
аврорів луснули наче мильні бульбашки, і щоб усі в межах досягнення
його голосу втратили здатність створити іншого.

// 14601
//__I am going to cancel the Patronus Charms and prevent any more
//Patronuses from being cast. And then my Dementor, flying faster than any
//broomstick, is going to Kiss everyone here who voted to send a twelve-year-old
//girl to Azkaban.__
__Я збираюся скасувати патронуси й зупинити створення нових. А тоді мій дементор,
що літає швидше за будь-яку мітлу, поцілує кожного в цій залі, хто проголосував за
те, щоб відіслати дванадцятирічну дівчинку в Азкабан.__

// 14602
//Say that, to set up the if-then expectation, and wait for people to understand
//and laugh. Then speak the fatal truth; and when the Aurors’ Patronuses winked
//out to prove the point, either people’s __anticipations__ of the mindless
//void, or Harry’s threat of its destruction, would make the Dementor obey. Those
//who had sought to compromise with the darkness would be consumed by it.
// hedrok: останнє речення - змінене з 053:9381-9382
Сказати це, щоб встановити очікування типу "`якщо-то`", і почекати, доки люди
усвідомлять ці слова й розсміються. Тоді вимовити фатальну правду. А коли
патронуси аврорів зникнуть, щоб довести його слова, чи то __очікування__ людей
щодо дій безмозкої порожнечі, чи то загроза знищення від Гаррі, змусять
дементора підкоритися. Тих, хто шукав компромісу з пітьмою, вона й зжере.

// 14603
//It was the other solution his dark side had devised.
Це було інше рішення, яке вигадала була його темна сторона.

// 14604
//Ignoring the gasps rising from behind him, Harry crossed the radius of the
//Patronuses, strode to a single pace from Death. Its unhindered fear burst
//around him like a whirlpool, like stepping next to the sucking drain of some
//huge bathtub emptying out its water; but with the false Patronuses no longer
//obscuring the level on which they interacted, Harry could reach the Dementor
//even as it could reach him. Harry looked straight into the pulling vacuum and -
Ігноруючи зойки оточуючих, Гаррі перетнув радіус патронусів і став за крок від
Смерті. Безперешкодний страх виник навколо нього, наче вихор, наче він стояв біля
водовідливу якоїсь величезної ванної, з якої спускали воду. Але тепер, коли
фальшиві патронуси більше не перешкоджали рівню, на якому вони взаємодіяли, Гаррі
міг дістатися дементора, хоча й дементор міг дістати його. Гаррі подивився прямо
у засмоктуючий вакуум і...

// 14605
//__the Earth among the stars__
__Земля посеред зірок__

// 14606
//all his triumph at saving Hermione
увесь його тріумф від порятунку Герміони

// 14607
//__someday the reality of which you are a shadow will cease to exist__
__колись реальність, лише тінню якої ти є, припинить існувати__

// 14608
//Harry took all the silver emotion that fueled his Patronus Charm and
//__shoved__ it at the Dementor; and expected Death’s shadow to flee from
//him -
Гаррі взяв усі срібні емоції, що наповнювали його патронуса, і __жбурнув__ їх
у дементора, очікуючи, що тінь Смерті побіжить від нього...

// 14609
//- and as Harry did that, he flung his hands up and shouted “BOO!”
...і роблячи це він викинув руки до гори й крикнув "`БУ!`"

// 14610
//The void retreated sharply away from Harry until it came up against the dark
//stone behind.
Безодня відступала якомога далі від Гаррі, аж доки не дісталася темного каменю
позаду себе.

// 14611
//In the hall there was a deathly silence.
Смертельна тиша запанувала в залі.

// 14612
//Harry turned his back on the empty void, and looked up at where the toad-woman
//stood. She was pale beneath the pink makeup, her mouth opening and closing like
//a fish.
Гаррі повернувся спиною до порожньої безодні й подивився вгору, на жабоподібну
жінку. Вона зблідла під шаром рожевого макіяжу, її рот відкривався й закривався,
наче в риби.

// 14613
//“I make you this one offer,” said the Boy-Who-Lived. “I never learn that you’ve
//been interfering with me or any of mine. And you never find out why the
//unkillable soul-eating monster is scared of me. Now sit down and shut up.”
-- Я зроблю вам лише одну пропозицію, -- сказав Хлопчик-Що-Вижив. -- Я ніколи не
почую, що ви втручалися у мої справи чи справи моїх людей. А ви ніколи не дізнаєтеся,
чому невмирущий монстр, що пожирає душі, мене боїться. А тепер сядьте й замовкніть.

// 14614
//The toad-woman fell back down to her bench without a word.
Жабоподібна жінка впала назад на свою лаву без жодного слова.

// 14615
//Harry looked further up.
Гаррі підняв погляд ще вище.

// 14616
//“A riddle, Lord Malfoy!” the Boy-Who-Lived shouted across the Most Ancient
//Hall. “I know you weren’t in Ravenclaw, but try to answer this one anyway! What
//destroys Dark Lords, frightens Dementors, and owes you sixty thousand
//Galleons?”
-- Загадка, лорде Мелфою! -- прокричав Хлопчик-Що-Вижив, через усю Найдавнішу Залу.
-- Я знаю, ви не були в Рейвенклові, але все одно, спробуйте відповісти! Що
знищує Темних Лордів, залякує дементорів і винне вам шістдесят тисяч ґалеонів?

// 14617
//For an instant Lord Malfoy stood there with eyes slightly widened; then his
//face fell back into calm scorn, and his voice spoke coolly in reply. “Are you
//openly threatening me, Mr. Potter?”
Якусь мить лорд Мелфой стояв із широко розплющеними очима. Тоді його обличчя знову
набуло спокійного виразу, а його голос холодно промовив:

-- Ви що, відкрито погрожуєте мені, містере Поттер?

// 14618
//“I’m not threatening you,” said the Boy-Who-Lived. “I’m __scaring__ you.
//There’s a difference.”
-- Я вам не погрожую, -- сказав Хлопчик-Що-Вижив. -- Я вас __залякую__. Є різниця.

// 14619
//“Enough, Mr. Potter,” said Professor McGonagall. “We shall be late for
//afternoon Transfiguration as it is. And do come back here, you’re still
//terrifying that poor Dementor.” She turned to the Aurors. “Mr. Kleiner, if you
//would!”
-- Годі, містере Поттер, -- сказала професорка Макґонеґел. -- Ми спізнимося
на післяобідню трансфігурацію. І нумо сюди, ви й досі лякаєте того
бідолашного дементора.

Вона повернулася до аврорів:

-- Містере Клейнер, якщо ваша ласка!

// 14620
//Harry strode back to them, as the Auror addressed moved forward and pressed a
//short rod of dark metal to the dark metal chair, muttering an inaudible word of
//dismissal.
Гаррі покрокував до них, доки аврор, до якого звернулася професорка, притиснув
короткий металевий жезл до металового стільця, промовляючи нечутні слова звільнення.

// 14621
//The chains slithered back as smoothly as they had come forth; and Hermione
//pushed herself out of the chair as fast as she could, and half-ran and
//half-staggered forward a few steps.
Ланцюги зісковзнули назад так само легко, як вийшли вперед, і Герміона виштовхнула
себе зі стільця якнайшвидше. Вона чи то пробігла, чи то хитнулася на
кілька кроків вперед.

// 14622
//Harry held out his arms -
Гаррі простягнув руки...

// 14623
//- and Hermione half-jumped half-fell into Professor McGonagall’s arms,
//beginning to sob hysterically.
...і Герміона напівстрибнула, напівупала в обійми професорки Макґонеґел,
почавши істерично ридати.

// 14624
//__Hmpfh,__ said a voice inside Harry. __I kind of thought we’d
//earned that one ourselves.__
__Гм__, сказав якийсь голос всередині Гаррі. __Чесно кажучи, я сподівався, що ми
самі це заслужили__.

// 14625
//__Oh, shut up.__
__Ой, замовкни__.

// 14626
//Professor McGonagall was holding Hermione so firmly that you might have thought
//it was a mother holding her daughter, or maybe granddaughter. After a few
//moments Hermione’s sobs slowed, and then stopped. Professor McGonagall suddenly
//shifted her stance and grabbed onto her more tightly; the girl’s hands were
//dangling limply, now, and her eyes were closed -
Професорка Макґонеґел тримала Герміону так міцно, що можна було подумати, що це
мати обіймає доньку чи онуку. За декілька хвилин ридання Герміони стало повільнішим,
а згодом зовсім припинилося. Професорка Макґонеґел схопила дівчинку ще міцніше, адже тепер її
руки безвольно бовталися, а очі були заплющені...

// 14627
//“She’ll be fine, Mr. Potter,” Professor McGonagall said softly in Harry’s
//direction, without looking at him. “She just needs a few hours in one of Madam
//Pomfrey’s beds.”
-- З нею все буде гаразд, містере Поттер, -- мʼяко звернулася професорка до Гаррі, не
дивлячись на нього. -- Їй варто провести кілька годин в одному з ліжок мадам Помфрі.

// 14628
//“All right, then,” Harry said. “Let’s get her to Madam Pomfrey’s.”
-- Тоді добре, -- сказав Гаррі. -- Доставмо її до мадам Помфрі.

// 14629
//“Yes,” said Dumbledore, as he descended to the bottom of the dark stone stairs.
//“Let us all go home, indeed.” His blue eyes were locked on Harry, as hard as
//sapphires.
-- Так, -- сказав Дамблдор, спустившись темними камʼяними сходами. --
Повернімося всі додому.

Його блакитні очі, тверді мов сапфіри, були прикуті до Гаррі.

***

// 14630
//The Lords and Ladies of the Wizengamot are departing their wooden benches,
//leaving as they came, looking rather nervous.
Лорди та Леді Чарверсуду полишали деревʼяні лави та покидали приміщення тим
самим чином, яким прийшли. Вони виглядали доволі схвильовано.

// 14631
//The vast majority are thinking ‘The Dementor was frightened of the
//Boy-Who-Lived!’
Більшість з них думала: "`Дементор злякався Хлопчика-Що-Вижив!`"

// 14632
//Some of the shrewder ones are already wondering how this will affect the
//delicate power balance of the Wizengamot - if a new piece has appeared upon the
//gameboard.
Найбільш проникливі вже замислилися, як саме це вплине на тендітний баланс сил у
Чарверсуді -- поява на дошці нової фігури.

// 14633
//Almost none are thinking anything along the lines of ‘I wonder how he did
//that.’
Майже ніхто не думав нічого на кшталт: "`Цікаво, а як він це зробив?`"

// 14634
//This is the truth of the Wizengamot: Many are nobles, many are wealthy magnates
//of business, a few came by their status in other ways. Some of them are stupid.
//Most are shrewd in the realms of business and politics, but their shrewdness is
//circumscribed. Almost none have walked the path of a powerful wizard. They have
//not read through ancient books, scrutinized old scrolls, searching for truths
//too powerful to walk openly and disguised in conundrums, hunting for true magic
//among a hundred fantastic fairy tales. When they are not looking at a contract
//of debt, they abandon what shrewdness they possess and relax with some
//comfortable nonsense. They believe in the Deathly Hallows, but they also
//believe that Merlin fought the dread Totoro and imprisoned the Ree. They know
//(because that too is part of the standard legend) that a powerful wizard must
//learn to distinguish the truth among a hundred plausible lies. But it has not
//occurred to them that they might do the same.
Отакою була правда Чарверсуду. Чимало знаті, чимало заможних магнатів бізнесу,
і всього лише кілька отримали свій статус іншим чином. Деякі з них дурні. Більшість
доволі хитрі і проникливі у сфері бізнесу і політики, але їхня проникливість обмежена.
Майже ніхто з них не пройшов шляху могутнього чарівника. Вони не читали давні книжки,
не вивчали старі сувої, не шукали істин надто потужних, щоб про них казали вільно, а тому
замаскованих головоломками. Не полювали на справжню магію посеред сотні фантастичних казок.
Якщо вони не розглядають контракт чи борг, то втрачають свою проникливість і розслабляються
з якоюсь комфортною нісенітницею. Вони вірять у Смертельні Реліквії, але вони також вірять,
що Мерлін побив жахливого Тоторо і увʼязнив Рі. Вони знають (бо це також є частиною стандартної
легенди), що могутній чарівник має вміти відрізнити правду посеред сотні правдоподібних неправд.
Але їм не приходить у голову, що їм самим варто вміти те саме.

// 14635
//(Why not? Why, indeed, would wizards with enough status and wealth to turn
//their hands to almost any endeavor, choose to spend their lives fighting over
//lucrative monopolies on ink importation? The Headmaster of Hogwarts would
//hardly see the question; of course most people should not be powerful wizards,
//just as most people should not be heroes. The Defense Professor could explain
//at great and cynical length why their ambitions are so trivial; to him, too,
//there is no puzzle. Only Harry Potter, for all the books he has read, is unable
//to understand; to the Boy-Who-Lived the life choices of the Lords and Ladies
//seem incomprehensible - not what a good person would do, nor yet an evil person
//either. Now which of the three is most wise?)
(А чому ні? Чому чарівники, у яких достатньо влади і заможності, щоб зробити практично
будь-що, обирають життя, наповнене боротьбою за прибуткову монополію на експорт чорнил?
Директор Гоґвортсу навряд вважатиме це запитанням. Звісно, більшість людей не має бути
могутніми чарівниками, так само, як більшість не має бути героями. Професор із захисту
дасть довге цинічне пояснення жалюгідності їхніх амбіцій. Для нього це також не було загадкою.
І тільки Гаррі Поттер, хоч скільки книжок він прочитав, не міг зрозуміти. Для
Хлопчика-Що-Вижив, життєві вибори лордів і леді Чарверсуду були незбагненними. Це не те, що зробила
б хороша людина, але й не те, що зробила б зла. То хто ж з трьох наймудріший?)

// 14636
//For whatever reason, then, most of the Wizengamot has never walked the path
//that leads to powerful wizardry; they do not seek out what is hidden. For them,
//there is no __why.__ There is no explanation. There is no causality. The
//Boy-Who-Lived, who was already halfway into the magisterium of legend, has now
//been promoted all the way there; and it is a brute fact, simple and
//unexplained, that the Boy-Who-Lived frightens Dementors. Ten years earlier they
//were told that a one-year-old boy defeated the most terrible Dark Lord of their
//generation, perhaps the most evil Dark Lord ever to live; and they just
//accepted that too.
Хай якою була причина, більшість членів Чарверсуду ніколи не ступала шляхом, що вів
до могутнього чарівництва, вони не шукали того, що приховано. Для них не існувало
__чому__. Не існувало пояснення. Не існувало причинності. Хлопчик-Що-Вижив, який і
так вже був напівдорозі до міфічності, отримав підвищення до цілковитої легенди. Це
був бузґлуздий факт, простий і ніяк не пояснений: Хлопчик-Що-Вижив лякає дементорів.
Десять років тому їм сказали, що однорічна дитина перемогла найжахливішого темного лорда
їхнього покоління, можливо, найзлішого темного лорда за всі часи. І вони просто прийняли
це.

// 14637
//You are not meant to question that sort of thing (they know in some unspoken
//way). If the most terrible Dark Lord in history, confronts an innocent baby -
//why, how could he __not__ be vanquished? The rhythm of the play demands
//it. You are supposed to applaud, not stand up from your seat in the audience
//and say ‘Why?’ It is just the story’s conceit, that in the end the Dark Lord is
//brought down by a little child; and if you are going to question that, you
//might as well not attend the play in the first place.
Вважається, що в таких речах не сумніваються (якимось чином знали вони). Якщо
найжахливіший темний лорд в історії нападає на безневинну дитину, то як він може
__не бути__ переможеним? Цього потребує ритм вистави. А ви маєте аплодувати, як решта
аудиторії, а не вставати зі свого місця і питати "`Чому?`" Така задумка історії, зрештою,
Темного Лорда переможе маленька дитина. І якщо ви збираєтеся виказувати сумніви щодо цього,
то можете просто не приходити на виставу.

// 14638
//It does not occur to them to second-guess the application of such reasoning to
//the events they have seen with their own eyes in the Most Ancient Hall. Indeed,
//they are not consciously aware that they are using story-reasoning on real
//life. As for scrutinizing the Boy-Who-Lived with the same careful logic they
//would use on a political alliance or a business arrangement - what brain would
//associate to __that,__ when a part of the legendary magisterium is at
//hand?
// @magisterium
Їм не спадає на думку придивитися до впливу такого способу мислення на події, які
вони власними очами бачили у Найдавнішій Залі. Звісно, вони не усвідомлюють, що
використовують казковий спосіб мислення у реальному житті. А щодо того, щоб
вивчати Хлопчика-Що-Вижив з тою самою обережною логічністю, яку вони б використали
у політичному альянсі чи діловій домовленості, -- та хто про таке взагалі подумає,
коли йдеться про легенду?

// 14639
//But there are a very few, seated on those wooden benches, who do __not__
//think like this.
Але було серед тих, хто сидів на деревʼяних лавах, кілька таких, хто __не__
мислив таким чином.

// 14640
//There are a certain few of the Wizengamot who have read through
//half-disintegrated scrolls and listened to tales of things that happened to
//someone’s brother’s cousin, not for entertainment, but as part of a quest for
//power and truth. They have already marked the Night of Godric’s Hollow, as
//reported by Albus Dumbledore, as an anomalous and potentially important event.
//They have wondered why it happened, if it did happen; or if not, why Dumbledore
//is lying.
Їх було небагато, але деякі члени Чарверсуду читали напівзнищені сувої, слухали
історії про те, що сталося з двоюрідним братом чийогось свата, не заради розваги, а
у пошуках могутності та істини. Вони вже зазначили Ніч Ґодрикової Долини, як звітував
Дамблдор, як аномальну і потенційно важливу подію. Вони замислилися, чому це сталося,
якщо це й справді сталося. Чи, якщо ні, то чому Дамблдор бреше.

// 14641
//And when an eleven-year-old boy rises up and says “Lucius Malfoy” in that cold
//adult voice, and goes on to speak words one simply would not expect to hear
//from a first-year in Hogwarts, they do not allow the fact to slip into the
//lawless blurs of legends and the premises of plays.
//@premises of plays.
А коли одинадцятирічний хлопчик встає і каже "`Луціусе Мелфой`" холодним, дорослим
голосом, і промовляє слова, які не очікуєш почути від першокласника Гоґвортсу, вони не
дозволяють факту зісковзнути у хаотичні розмиті легенди та сценарії вистав.


// 14642
//They mark it as a clue.
Вони зазначають це як зачіпку.

// 14643
//They add it to the list.
Вони додають це у список.

// 14644
//This list is beginning to look somewhat alarming.
І цей список починає виглядати доволі тривожно.

// 14645
//It doesn’t particularly help when the boy yells “BOO!” at a Dementor and the
//decaying corpse presses itself flat against the opposite wall and its horrible
//ear-hurting voice rasps, “__Make him go away.__”
І стає ще гіршим, коли хлопчик кричить "`БУ!`" на дементора, і гниюче тіло притискається
до протилежної стіни і кричить своїм жахливим, що від нього болить у вухах, голосом:
"`__Заберіть його звідси__`".
