// 16239
//== Roles, Pt 1
== Розділ 90. Ролі, ч.1

// 16240
//A simple __Innervate__ from the Headmaster had awakened Fred Weasley,
//followed by a preliminary healing Charm for a broken arm and cracked ribs.
//Harry’s voice had distantly told the Headmaster about the Transfigured acid
//inside the troll’s head (Dumbledore had looked down over the side of the
//terrace and made a gesture before returning) and then about the Weasley twins’
//minds having been tampered with, carrying on a separate conversation that Harry
//remembered but could not process.
// hedrok @ carrying on a separate conversation that Harry remembered but could
//          not process
Звичайної "`__Інервації__`" від директора вистачило, щоб розбудити Фреда Візлі.
Далі директор наклав початкові цілющі чари на зламану руку й тріснуті ребра.
Ніби чужим голосом, Гаррі розповів директорові про трансфігуровану кислоту в голові
троля (Дамблдор зазирнув за край тераси й зробив якийсь жест перед тим, як
повернутися) та про те, що в розуми Візлі втручалися, вів далі розмову, яку він
памʼятав, та не міг ще усвідомити.

// 16241
//Harry still stood over Hermione’s body, he hadn’t moved from that spot,
//thinking as fast as he could through the sense of dissociation and fragmented
//time, was there anything he should be doing __now,__ any opportunities
//that were passing irrevocably. Some way to reduce the amount of magical
//omnipotence that would be required later. A temporal beacon effect to mark this
//instant for later time travel, if he someday found a way to travel back further
//than six hours. There were theories of time travel under General Relativity
//(which had seemed much less plausible before Harry had run across Time-Turners)
//and those theories said you couldn’t go back to before the time machine was
//built - a relativistic time machine maintained a continuous pathway through
//time, it didn’t teleport anything. But Harry didn’t see anything helpful he
//could do using spells in his lexicon, Dumbledore wasn’t being very cooperative,
//and in any case this was several minutes after the critical location within
//Time
Гаррі досі стояв над тілом Герміони, він не зрушив з місця, він як міг,
враховуючи відчуття дисоціації та розкладу часу, обмірковував, чи варто йому
зробити щось __зараз__, чи є якісь можливості, що от-от зникнуть назавжди.
Якийсь спосіб зменшити величину магічної всемогутності, що буде потрібна
пізніше. Може, темпоральний маяк для пізнішого переміщення в часі, якщо він
знайде спосіб повернутися більше, ніж на шість годин. Існували теорії
переміщення в часі, що підпадали під загальну теорію відносності (які видавалися
значно менш імовірними до того, як Гаррі отримав часоворот), і згідно з тими
теоріями неможливо повернутися в часі в мить, що передує миті побудови самої
машини -- релятивістська машина часу підтримувала сталий шлях крізь час -- вона
нічого не телепортувала. Та Гаррі не бачив нічого корисного у своєму арсеналі
заклять, а Дамблдор, видавалося, не надто бажав допомогти, у будь-якому разі це
вже було за сім хвилин після критичного розташування в часі

// 16242
//“Harry,” the Headmaster whispered, laying his hand on Harry’s shoulder. He had
//vanished from where he was standing over the Weasley twins and come into
//existence beside Harry; George Weasley had discontinously teleported from where
//he was sitting to be kneeling next to his brother’s side, and Fred was now
//lying straight with his eyes open and wincing as he breathed. “Harry, you must
//go from this place.”
-- Гаррі, -- прошепотів директор, поклавши руку Гаррі на плече. Він ніби зникнув
з місця, де він стояв над близнюками Візлі, і повернувся до дійсності поряд з
Гаррі. Джордж Візлі, видавалося, раптом телепортувався до брата, Фред тепер
лежав рівно, його очі були розплющені, і він трохи кривився, коли дихав. --
Гаррі, ти маєш звідси піти.

// 16243
//“Hold on,” said Harry’s voice. “I’m trying to think if there’s anything else I
//can do.”
-- Заждіть, -- вимовив голос Гаррі. -- Я намагаюся зрозуміти, чи можу я щось
зробити.

// 16244
//The old wizard’s voice sounded helpless. “Harry - I know you do not believe in
//souls - but whether Hermione is watching you now, or no, I do not think she
//would wish for you to be like this.”
Голос старого чарівника сповнювала безпорадність.

-- Гаррі... Я знаю, що ти не віриш у душі... та чи дивиться на тебе зараз
Герміона, чи ні, я не думаю, що їй хотілося б, щоб ти перебував у такому
стані.

// 16245
//…no, it was obvious.
...ні, це ж очевидно.

// 16246
//Harry leveled his wand at Hermione’s body -
Гаррі направив паличку на тіло Герміони...

// 16247
//“Harry! What are you -”
-- Гаррі! Що ти...

// 16248
//- and poured __everything__ down his arm into his hand -
...та вилив __усе__ крізь руку в паличку...

// 16249
//__“Frigideiro!”__
-- __Фріґідейро!__

// 16250
//“- doing?”
-- ...робиш?

// 16251
//“Hypothermia,” Harry said distantly, as he staggered. It’d been one of the
//spells he and Hermione had experimented on, a lifetime ago, so he was able to
//control it precisely, though it had taken a lot of power to affect that much
//mass. Hermione’s body should now be at almost exactly five degrees Celsius.
//“People have been revived from cold water after more than thirty minutes
//without breathing. The cold protects you from brain damage, you see, it slows
//everything down. There’s a saying Muggle doctors have, you’re not dead until
//you’re warm and dead - I think they even cool down the patient during some
//surgeries, if they have to stop someone’s heart for a while.”
-- Гіпотермія, -- неуважно відповів Гаррі, похитнувшись. Це було одне з заклять,
яке вони з Герміоною досліджували були цілу вічність тому, тож він міг
контролювати його точно, хоча довелося докласти чимало зусиль, щоб вплинути на
таку масу. Тепер температура тіла Герміони має бути рівно пʼять градусів
Цельсія. -- Людей з холодної води оживляли навіть після тридцяти хвилин без
дихання. Холод захищає мозок від пошкоджень, розумієте, він усе сповільнює. У
маґлівських лікарів є прислівʼя: "`ти не мертвий, доки ти ще не теплий і мертвий`",
видається, вони навіть охолоджують пацієнтів під час певних хірургічних
операцій, якщо треба зупинити чиєсь серце на довгий час.

// 16252
//Fred and George started sobbing.
Фред та Джордж почали схлипувати.

// 16253
//Dumbledore’s face was already streaked with tears. “I’m sorry,” he whispered.
//“Harry, I’m so sorry, but you have to stop this.” The Headmaster took Harry by
//the shoulders and pulled on him.
На обличчі Дамблдора виднілися смужки сліз.

-- Мені шкода, -- прошепотів він. -- Гаррі, мені дуже шкода, та ти маєш
припинити це.

Директор взяв Гаррі за плече й потягнув його.

// 16254
//Harry allowed himself to be turned away from Hermione’s body, walked forward as
//the Headmaster pushed him away from the blood. The Cooling Charm would buy him
//time. Hours at least, maybe days if he could manage to keep casting the spell
//on Hermione or if they stored her body somewhere cold.
Гаррі дозволив, щоб його відвернули від тіла Герміони, щоб його повели за
директором подалі від крові. Чари холоду виграють якийсь час. Принаймні години,
можливо, дні, якщо йому вдасться поновлювати закляття на Герміоні, чи якщо вони
зберігатимуть її тіло в холодному місці.

// 16255
//Now there was time to think.
Тепер в нього був час на роздуми.

***

// 16256
//Minerva had seen Albus’s face and she’d known something was wrong; there had
//been time for her to wonder what had happened, and even who had died; her mind
//flashing to Alastor, to Augusta, to Arthur and Molly, all the most likely
//targets at the start of Voldemort’s second rise. She had thought that she had
//steeled herself, she had thought herself ready for the worst.
//hedrok @ steeled herself
Щойно Мінерва побачила лице Албуса, вона знала, що сталося щось жахливе. В неї
був час поміркувати, що сталося, і навіть хто помер. В її думках виникали
обличчя Аластора, Авґусти, Артура та Моллі -- усі найімовірніші жертви на
початку другого сходу до влади Волдеморта. Вона гадала, що підготувалася до
найгіршого.

// 16257
//Then Albus spoke, and all the steel left her.
//! 12%
Та коли Албус заговорив, уся підготовка розвіялася, мов дим.

// 16258
//__Not Hermione - no -__
__Не Герміона -- ні...__

// 16259
//Albus gave her a brief space to weep; and then told her that Harry Potter, who
//had watched Miss Granger die, had seated himself outside the infirmary
//storeroom where Miss Granger’s remains were being kept, refusing to move from
//the spot, and telling anyone who spoke to him to go away so he could think.
Албус дав їй трохи часу на ридання. А тоді сказав їй, що Гаррі Поттер
спостерігав був, як міс Ґрейнджер померла, і сів зовні камери зберігання
шкільної лікарні, де зберігалися рештки Герміони Ґрейнджер, і відмовлявся
зрушити з місця, казав усім, щоб ішли геть, бо йому треба поміркувати.

// 16260
//The only thing that had elicited any reaction from the boy was when Fawkes had
//tried to sing to him; Harry Potter had shrieked at the phoenix not to do that,
//his feelings were real, he didn’t want magic trying to __heal__ them like
//they were a disease. After that Fawkes had refused to sing again.
Лише коли Фоукс спробував йому заспівати, хлопець зреагував -- заволав, щоб
фенікс припинив, що його почуття справжні, що не треба магічно їх __зцілювати__,
ніби вони -- хвороба. Після того Фенікс відмовився співати.

// 16261
//Albus thought that she might have the best chance of reaching Harry Potter now.
Албус вважав, що в неї, напевно, зараз найвищі шанси переконати Гаррі Поттера.

// 16262
//So she had to pull herself together, and clean up her face; there would be time
//later for private grief, when her surviving children no longer needed her.
Тож їй довелося зібратися з силами, вмитися -- потім ще буде час на журбу, коли
її служіння дітям не потребуватиме її.

// 16263
//Minerva McGonagall pulled together the dislocated pieces of herself, wiped her
//eyes a final time, and laid her hand on the doorknob of the infirmary section
//whose back storeroom was now being used, for the second time this century and
//for the fifth time since the castle of Hogwarts had been raised, as the resting
//place of a promising young student.
Мінерва Макґонеґел зібрала докупи роздрібнені частинки себе, востаннє витерла
сльози, взялася за ручку дверей лікарні, за якими була кімната, що наразі
використовувалася як камера зберігання. Впʼяте від заснування Гоґвортсу тут було
останнє місце спочину юного перспективного учня.

// 16264
//She opened the door.
Вона відчинила двері.

// 16265
//Harry Potter’s eyes gazed at her. The boy was sitting on the floor in front of
//the door to the back storeroom, and holding his wand in his lap. If those eyes
//were grieving, if they were empty, if they were even broken, it couldn’t be
//seen from looking at the boy’s face. There were no dried tears on those cheeks.
Гаррі Поттер поглянув на неї. Хлопець сидів на підлозі поряд з дверима до
дальнього місця збереження, і тримав паличку на колінах. Якщо за цими очима
крилася журба, якщо за ними крилася порожнеча чи розбитість, цього не можна було
сказати, поглянувши на лице хлопця. На щоках не виднілися сліди висохлих сліз.

// 16266
//“Why are you here, Professor McGonagall?” Harry Potter said. “I told the
//Headmaster I’d like to be left alone for a while.”
-- Чому ви тут, професорко Макґонеґел? -- спитав Гаррі Поттер. -- Я сказав
директорові, що хочу, щоб мене деякий час не турбували.

// 16267
//She couldn’t think of anything to say. __To help you - you’re not all
//right -__ but she didn’t know what to say, there was nothing she could imagine
//saying that would make things better. She hadn’t planned ahead before she’d
//walked into the room, having not been at her best.
Вона не уявляла, що відповісти. "`Допомогти тобі -- тобі погано...`" -- та вона
не знала, що сказати, не могла уявити слів, що могли б зарадити. Вона не
планувала нічого перед тим, як зайти до кімнати, бо була не в найкращому стані.

// 16268
//“What are you thinking about?” Minerva said. It was the only sentence that came
//into her mind. Albus had told her that Harry had been saying, over and over,
//that he was thinking; and she had to get Harry talking, somehow.
-- Що ти обмірковуєш? -- спитала Мінерва.

Лише це речення, що спало їй на гадку. Албус сказав був їй, що Гаррі міркував,
знову й знову повторював, що йому треба поміркувати. А їй треба було якимось
чином змусити Гаррі говорити.

// 16269
//Harry stared half at her and half past her, a tension coming into his face, as
//she held her breath.
Гаррі напівдивився на неї, а напівдивився вдалечінь. Обличчя Гаррі ставало
дедалі напруженішим, а Мінерва затамувала подих.

// 16270
//It took a while before Harry spoke.
Минуло чимало часу, доки Гаррі не заговорив.

// 16271
//“I’m trying to think if there’s anything I should be doing right now,” said
//Harry Potter. “It’s hard, though. My mind keeps on imagining ways the past
//could have gone differently if I’d thought faster, and I can’t rule out that
//there might be a key insight in there somewhere.”
-- Я обмірковую, чи маю я щось зробити прямо зараз. -- сказав Гаррі Поттер. --
Втім, це дуже складно. Розум весь час уявляє, як можна було б змінити минуле,
якби я думав швидше, а я не можу виключити, що серед цих думок немає чогось
надзвичайно корисного.

// 16272
//“Mr. Potter -” she said falteringly. “Harry, I don’t think it’s healthy for you
//to be - thinking like that -”
-- Містере Поттер... -- з тремтінням в голосі почала вона. -- Гаррі, мені
здається, що це нездорово... так розмірковувати...

// 16273
//“I disagree. It’s not thinking that gets people killed.” The words were spoken
//in a level monotone, as though reciting lines from a book.
-- Я не погоджуюся. Саме через брак роздумів гинуть люди, -- ці слова було
вимовлено рівним речитативом, ніби це була цитата з книжки.

// 16274
//“Harry,” she said, hardly even thinking as she said it, “there’s nothing you
//could have done -”
-- Гаррі, -- сказала вона, ледве усвідомлюючи, що каже, -- ти нічого не міг
вдіяти...

// 16275
//Something flickered in Harry’s expression. His eyes seemed to focus on her for
//the first time.
Якась емоція промайнула обличчям Гаррі. Видавалося, він вперше справді
сфокусував на ній погляд.

// 16276
//“Nothing I could have __done?__” Harry’s voice rose on the last word.
//__“Nothing I could have DONE? I’ve lost track of how many different ways
//I could’ve saved her! If I’d asked to have us all given communications mirrors!
//If I’d insisted on Hermione being taken out of Hogwarts and put in a school
//that isn’t insane! If I’d snuck out immediately instead of trying to argue with
//normal people! If I’d remembered the Patronus earlier! If I’d thought through
//possible emergencies and trained myself to think about Patronuses earlier! Even
//at the very last minute it might not have been too late! I killed the troll and
//turned to her and she was still ALIVE and I just knelt next to her listening to
//her last words like an IDIOT instead of casting the Patronus again and calling
//Dumbledore to send Fawkes! __Or if I’d just approached the whole problem from a
//different angle - if I’d looked for a student with a Time-Turner to send a
//message back in time __before__ I found out about anything happening to
//her, instead of ending up with an outcome that can’t be altered - I
//__asked__ the Headmaster to go back and save Hermione and then fake
//everything, fake the dead body, edit everyone’s memories, but Dumbledore said
//that he tried something like that once and it didn’t work and he lost another
//friend instead. Or if I’d - if I’d only gone with - if, that night -”
//! 24%
// hedrok: @ останнє речення про фенікса, про 85й розділ. Можливо, варто
//         спробувати зробити це зрозуміліше?..
-- Нічого не міг __вдіяти__? -- на останньому слові Гаррі підвищив голос. --
__Нічого не міг ВДІЯТИ? Та я вже втратив лік різноманітних способів, як я міг її
врятувати! Якби я попросив видати нам усім дзеркала для звʼязку! Якби я наполіг,
щоб Герміону забрали з Гоґвортсу й відправили до школи, що не є божевільнею!
Якби я вишмигнув негайно, а не сперечався зі звичайними людьми! Якби згадав про
патронуса раніше! Якби завчасно продумав надзвичайні ситуації та натренувався
згадувати про патронуса раніше! Навіть в останню хвилину, можливо, було не
запізно! Я вбив троля й повернувся до неї, вона ще була ЖИВА, а я просто сів
поряд з нею на коліна й дослухався до її останніх слів мов КРЕТИН замість того,
щоб знову створити патронуса й передати Дамблдорові, щоб той прислав Фоукса!__
Або я міг підійти до проблеми в цілому з іншого боку -- якби знайшов учня з
часоворотом, що погодився б відправити повідомлення назад у часі до точки
__перед тим__, як я дізнався, що з нею щось сталося, а не отримав результат, що
його неможливо змінити... Я __просив__ директора повернутися в часі, врятувати
Герміону, а потім підробити все: створити мертве тіло, відредагувати всім
памʼять, та Дамблдор відповів, що він колись пробував таке, але це не просто не
спрацювало -- натомість він втратив ще одного друга. Або якби я... якби ж тільки
я пішов за... якби тієї ночі...

// 16277
//Harry pressed his hands over his face, and when he removed them again, his face
//was calm and composed once more.
Гаррі затулив обличчя руками, а коли опустив їх знову, до нього повернувся
спокій та зібраність.

// 16278
//“Anyway,” said Harry Potter, now in a monotone again, “I don’t want to repeat
//that mistake, so I’m going to spend until dinnertime thinking if there’s
//anything I should be doing. If I haven’t thought of anything by then I’ll go to
//dinner and eat. Now please go away.”
-- Хай там як, -- знову монотонно сказав Гаррі Поттер, -- я не хочу повторювати
цієї помилки, тож весь час до вечері я обмірковуватиму, чи маю я щось зробити.
Якщо до того часу я нічого не вигадаю, то піду на вечерю та поїм. Тепер, будь
ласка, ідіть.

// 16279
//She was aware now that tears were sliding down her cheeks, again. “Harry -
//Harry, you have to believe that this isn’t your fault!”
Вона знала, що її щоками знову течуть сльози.

-- Гаррі... Гаррі, ти маєш повірити, що це не твоя провина!

// 16280
//“Of course it’s my fault. There’s no one else here who could be responsible for
//anything.”
// hedrok: копія з 002:118
-- Звісно, це моя провина. Тут більше немає нікого, хто може бути відповідальним
бодай за щось.

// 16281
//“No! You-Know-Who killed Hermione!” She was hardly aware of what she was
//saying, that she hadn’t screened the room against who might be listening. “Not
//you! No matter what else you could’ve done, it’s not you who killed her, it was
//Voldemort! If you can’t believe that you’ll go mad, Harry!”
-- Ні! Це Відомо-Хто вбив Герміону! -- вона ледве розуміла, що каже, що вона не
захистила кімнату, і хто може підслуховувати. -- Не ти! Хай там що ти міг би
зробити, це не ти її вбив, а Волдеморт! Якщо ти не можеш у це повірити, ти
збожеволієш, Гаррі!

// 16282
//“That’s not how responsibility works, Professor.” Harry’s voice was patient,
//like he was explaining things to a child who was certain not to understand. He
//wasn’t looking at her anymore, just staring off at the wall to her right side.
//“When you do a fault analysis, there’s no point in assigning fault to a part of
//the system you can’t change afterward, it’s like stepping off a cliff and
//blaming gravity. Gravity isn’t going to change next time. There’s no point in
//trying to allocate responsibility to people who aren’t going to alter their
//actions. Once you look at it from that perspective, you realize that allocating
//blame never helps anything unless you blame yourself, because you’re the only
//one whose actions you can change by putting blame there. That’s why Dumbledore
//has his room full of broken wands. He understands that part, at least.”
-- Відповідальність працює не так, професорко, -- Гаррі вимовив це сповненим
терпіння тоном, ніби пояснював дитині щось, та був певен, що та не збагне. Він
більше на неї не дивився -- втупився в стіну правіше від неї. -- Коли робиш
аналіз катастрофи, немає сенсу призначати винною частину системи, яку опісля не
можеш змінити, -- це все одно що зістрибнути зі скелі й звинувачувати в
результаті гравітацію. Гравітація не зміниться наступного разу. Немає сенсу
присвоювати відповідальність людині, що не змінить своїх дій. Якщо поглянути з
цього боку, то зрозуміло, що звинувачувати когось немає жодної користі, хіба що
ти звинувачуєш себе. Ось чому в Дамблдора є сповнена зламаних паличок кімната.
Принаймні це він розуміє.

// 16283
//Some distant part of her mind made a note to wait until much later and then
//speak sharply to the Headmaster about what he was showing to impressionable
//young children. She might even scream at him this time. She’d been thinking
//about screaming at him anyway, because of Miss Granger -
Десь у закутках розуму вона позначила, що треба по якомусь часі суворо
поговорити з директором про те, що можна показувати чутливим юним дітям.
Можливо, цього разу вона навіть покричить на нього. Все одно вона збиралася
кричати на нього через міс Ґрейнджер...

// 16284
//“You’re __not__ responsible,” she said, though her voice trembled. “It’s
//the Professors - it’s us who are responsible for student safety, not you.”
-- Ти __не__ відповідальний, -- сказала вона, хоча голос її тремтів. -- Це
професори... це ми відповідальні за безпеку учнів, а не ти...

// 16285
//Harry’s eyes flicked back to her. “__You’re__ responsible?” There was a
//tightness in the voice. “You want me to hold you responsible, Professor
//McGonagall?”
Очі Гаррі знову кинулися до неї.

-- __Ви__ відповідальні? -- напружено спитав він. -- Ви хочете, щоб я вважав
відповідальною вас, професорко Макґонеґел?

// 16286
//She raised her chin and nodded. It would be better, by far, than Harry blaming
//himself.
Вона підняла підборіддя й кивнула. Це значно краще, ніж якщо Гаррі
звинувачуватиме себе.

// 16287
//The boy pushed himself up from where he was sitting on the floor, and took a
//step forward. “All right, then,” Harry said in a monotone. “I tried to do the
//sensible thing, when I saw Hermione was missing and that none of the Professors
//knew. I asked for a seventh-year student to go with me on a broomstick and
//protect me while we looked for Hermione. I asked for help. I begged for help.
//And nobody helped me. Because you gave everyone an absolute order to stay in
//one place or they’d be expelled, no excuses. No matter what else Dumbledore
//gets wrong, he at least thinks of his students as people, not animals that have
//to be herded into a pen and kept from wandering out. You knew you weren’t any
//good at military thinking, your first idea was to have us walking through the
//hallways, you knew some students there were better than you at strategy and
//tactics, and you still nailed us down in one room without any discretionary
//judgment. So when something you didn’t foresee happened and it would’ve made
//perfect sense to send out a seventh-year student on a fast broom to look for
//Hermione Granger, the students knew you wouldn’t understand or forgive. They
//weren’t afraid of the troll, they were afraid of you. The discipline, the
//conformity, the __cowardice__ that you instilled in them delayed me just
//long enough for Hermione to die. Not that I should’ve tried asking for help
//from normal people, of course, and I will change and be less stupid next time.
//But if I were dumb enough to allocate responsibility to someone who isn’t me,
//that’s what I’d say.”
Хлопець підстрибнув на ноги й зробив крок до неї.

-- Ну гаразд, -- монотонно сказав Гаррі. -- Я спробував вчинити розсудливо, коли
побачив, що Герміони немає, і ніхто з професорів про це не знав. Я попросив
семикласницю захистити мене, доки я шукатиму Герміону. Я просив допомоги. Я
благав про допомогу. Та ніхто мені не допоміг. Бо ви дали всім безапеляційний
наказ або лишатися на місці, або бути виключеними, незважаючи на будь-які
виправдання. Хай які в Дамблдора є вади, він принаймні сприймає учнів як людей,
а не як тварин, яких треба зігнати до стійла, аби не блукали. Ви знали, що не
тямите у воєнній тактиці -- спершу вам спало на думку відправити нас іти
коридорами, ви знали, що дехто з учнів ліпше знається на стратегії й тактиці,
але ви все одно заточили всіх в одній кімнаті, жодних дискреційних рішень. Тож
коли сталося щось непередбачене вами і було б цілком логічно відправити
семикласника на швидкій мітлі шукати Герміону Ґрейнджер, учні знали, що ви не
зрозумієте й не пробачите. Вони не боялися троля -- вони боялися вас.
Дисципліна, підкорення, __боягузтво__, що їх ви прищеплюєте учням, затримали
мене саме на такий час, що Герміона померла. Хоча насправді, звісно, мені не
варто було просити допомоги у звичайних людей, і я змінюся й буду менш дурним
наступного разу. Та якби я був достатньо тупим, щоб звинувачувати когось, крім
себе, ось що я б сказав.

// 16288
//Tears were streaming down her cheeks.
Її щоками текли сльози.

// 16289
//“That’s what I’d tell you if I thought you could be responsible for anything.
//But normal people don’t choose on the basis of consequences, they just play
//roles. There’s a picture in your head of a stern disciplinarian and you do
//whatever that picture would do, whether or not it makes any sense. A stern
//disciplinarian would order the students back to their rooms, even if there was
//a troll roaming the hallways. A stern disciplinarian would order students not
//to leave the Hall on pain of expulsion. And the little picture of Professor
//McGonagall that you have in your head can’t learn from experience or change
//herself, so there isn’t any point to this conversation. People like you aren’t
//responsible for anything, people like me are, and when we fail there’s no one
//else to blame.”
// hedrok: "picture in your head" копія в 091:16523, 092:16647 "уявний образ"
//! 36%
-- Ось що я сказав би вам, якби гадав, що ви можете бути за щось відповідальні.
Та звичайні люди не приймають рішень залежно від наслідків -- вони лише грають
ролі. У вас в голові є уявний образ суворої виховательки, і ви робите хай що цей
образ зробив би, -- має це сенс чи ні. Сувора вихователька наказала б учням
повертатися до своїх кімнат, навіть якщо троль нищить коридори. Сувора
вихователька наказала б учням не виходити із Великої зали під загрозою
виключення. І ця крихітна уявна професорка Макґонеґел, що живе у вас в голові,
не вчиться з досвіду й не змінюється, тож ця розмова марна. Такі люди, як ви, ні
за що не відповідальні, відповідальні -- такі люди, як я. І коли ми зазнаємо
невдачі, нам немає кого звинувачувати, крім самих себе.

// 16290
//The boy strode forward to stand directly before her. His hand darted beneath
//his robes, brought forth the golden sphere that was the Ministry-issued
//protective shell of his Time Turner. He spoke in a dead, level voice without
//any emphasis. “This could’ve saved Hermione, if I’d been able to use it. But
//you thought it was your role to shut me down and get in my way. Nobody has died
//in Hogwarts in fifty years, you said that when you locked it, do you remember?
//I should’ve asked again after Bellatrix Black got loose from Azkaban, or after
//Hermione got framed for attempted murder. But I forgot because I was stupid.
//Please unlock it now before any of my other friends die.”
// hedrok: йдеться про 018:3299
Хлопець широкими кроками підійшов та став навпроти неї. Він швидко дістав з-під
мантії золоту сферу -- схвалену міністерством захисну оболонку часовороту. Він
сказав мертвим, рівним голосом без жодних емоцій:

-- Це могло б врятувати Герміону, якби я міг ним скористатися. Та ви вважали,
що, згідно з вашою роллю, треба мене обмежити, заважати мені. "`Ніхто не помирав
у Гоґвортсі вже пʼятдесят років`", -- ось що ви сказали мені, коли замикали його,
памʼятаєте? Треба було порушити це питання, коли Белатриса Блек вивільнилася з
Азкабану, чи коли Герміону звинуватили в замаху на вбивство. Та я забув, бо
дурний. Будь ласка, відімкніть її, доки не помер ще хтось з моїх друзів.

// 16291
//Unable to speak, she brought forth her wand and did so, releasing the
//time-keyed enchantment she’d laced into the shell’s lock.
Вона нездатна була вимовити ані слова, але простягла руку й зробила це,
скасувала залежні від часу чари, якими вона оплела замо{stress}к оболонки.

// 16292
//Harry Potter flipped open the golden shell, looked at the tiny glass hourglass
//within its circles, nodded, and then snapped the case shut. “Thank you. Now go
//away.” The boy’s voice cracked again. “I have to think.”
Гаррі Поттер відкрив захисну оболонку, поглянув на крихітний пісочний годинник в
колах, кивнув, а тоді знову закрив оболонку.

-- Дякую. Тепер ідіть геть, -- голос хлопця знову зірвався. -- Я маю міркувати.

// 16293
//She closed the door behind her, an awful and still mostly-muffled sound
//escaping her throat -
Вона зачинила за спиною двері, жахливий та досі переважно притлумлений звук
виривався з її горла...

// 16294
//Albus shimmered into existence beside her, taking on a brief garish hue as the
//Disillusionment wore off.
Албус зʼявився поряд у мерехтінні -- ненадовго він був яскраво забарвлений, доки
ефекти розілюзнення зникали.

// 16295
//She did not jump, quite. “I’ve told you, stop doing that,” Minerva said. Her
//voice sounded dull in her own ears. “That was private.”
Вона не те щоб підстрибнула.

-- Я ж казала тобі, припини так робити, -- промовила Мінерва. Їй самій було
нудотно від свого голосу. -- Це було особисте.

// 16296
//Albus flickered his fingers at the door behind her. “I was afraid Mr. Potter
//might do you some harm.” The Headmaster paused, then said quietly, “I am very
//surprised that you stood there and took that.”
Албус вказав пальцем на двері за її спиною.

-- Я боявся, що містер Поттер може завдати тобі шкоди, -- директор трохи
помовчав, а тоді тихо додав: -- Я дуже здивувався, що ти просто стояла й
вислуховувала це все.

// 16297
//“All I had to do was say ‘Mr. Potter’, and he would have stopped.” Her voice
//had dropped almost to a whisper. “Just that, and he would have stopped. And
//then he would have had no one to say those awful things to, no one at all.”
-- Мені треба було лише сказати "`містере Поттер`", і він би замовкнув, -- ледь
не прошепотіла вона. -- Лише це, і він спинився би. І тоді він нікому б не зміг
сказати всіх цих жахливих речей -- взагалі нікому.

// 16298
//“I thought Mr. Potter’s remarks were entirely unfair and undeserved,” Albus
//said.
-- Я вважаю зауваження містера Поттера цілковито несправедливими й
незаслуженими, -- сказав Албус.

// 16299
//“If it had been you, Albus, you would not have threatened to expel anyone
//leaving the room. Can you honestly tell me otherwise?”
-- Якби це був ти, Албусе, ти б не погрожував нікого виключити, якщо він вийде з
кімнати. Чи можеш ти чесно заперечити це?

// 16300
//Albus’s brows rose. “Your role in this disaster was tiny, your decisions quite
//sensible at the time, and it is only Harry Potter’s perfect hindsight that lets
//him imagine otherwise. Surely you are wiser than to blame yourself for this,
//Minerva.”
Албус здійняв брови.

-- Твоя роль у цій катастрофі крихітна, твої рішення видавалися тоді доволі
розсудливими -- лише через бездоганний аналіз заднім числом Гаррі Поттерові
ввижається, що це не так. Звісно ж, ти вища за те, щоб звинувачувати в цьому
себе, Мінерво.

// 16301
//She knew perfectly well that Albus would be placing a picture of Hermione in
//that awful room of his, that it would occupy a place of honor. Albus would hold
//__himself__ responsible, she was certain, even though he hadn’t even been
//in Hogwarts at the time. But not her.
Вона чудово розуміла, що Албус поставить зображення Герміони в тій своїй
жахливій кімнаті, що воно стоятиме в почесному місці. Албус вважатиме __себе__
відповідальним, вона в цьому не сумнівалася, хоча його взагалі тоді не було в
Гоґвортсі. Але її не звинувачуватиме.

// 16302
//__So you also don’t think it’s worth the trouble of holding me
//responsible…__
"`Тож ти теж гадаєш, що вважати мене відповідальною -- марнування часу`".

// 16303
//She slumped against the nearest wall, trying not to let the tears emerge again;
//she’d never seen Albus weep save thrice. “You have always believed in your
//students, as I never have. They would not have been afraid of you. They would
//have known you would understand.”
Вона звалилася на найближчу стіну, доводилося стримувати нові потоки сліз. Лише
тричі вона бачила, щоб Албус ридав.

-- Я ніколи не мала такої віри в учнів, яка в тебе завжди була. Тебе вони б не
боялися. Вони б знали, що ти зрозумієш.

// 16304
//“Minerva -”
-- Мінерво...

// 16305
//“I am not fit to succeed you as Headmistress. We both know it.”
-- Я не гідна бути директоркою після тебе. І ми обидвоє це знаємо.

// 16306
//“You are wrong,” Albus said quietly. “When the time comes, you will be the
//forty-fifth Headmistress of Hogwarts and you will do an excellent job of it.”
-- Помиляєшся, -- тихо сказав Албус. -- Коли прийде час, ти станеш сорок пʼятою
директоркою Гоґвортсу, і чудово впораєшся з цією роботою.

// 16307
//She shook her head. “What now, Albus? If he will not listen to me, then who?”
Вона похитала головою.

-- Що тепер, Албусе? Якщо він не слухає мене, то кого ж послухає?

***

// 16308
//It was perhaps half an hour later. The boy still guarded the door to where his
//best friend’s body lay, sitting his vigil. He was staring downward, at his wand
//as it lay in his hands. Sometimes his face screwed up in thought, at other
//times it relaxed.
Десь пів години потому. Хлопець досі стеріг двері, за якими лежало тіло його
найкращої подруги, сидів на чатах. Він втупився вниз, на паличку, яку тримав у
руках. Інколи його лице скривлювалося від дум, інколи розслаблялося.

// 16309
//Although the door did not open, and there was no sound, the boy looked up. He
//composed his face. His voice, when he spoke, was dull. “I don’t want company.”
Хоча двері не відчинялися, не було жодного звуку, хлопець підвів погляд. Він
зробив обличчя нейтральним. Його голос, коли він заговорив, був безбарвним.

-- Я не шукаю товариства.

// 16310
//The door opened.
//! 48%
Двері відчинилися.

// 16311
//The Defense Professor of Hogwarts entered into the room and shut the door
//behind him, taking up careful position in a corner between two walls, as far
//away from the boy as the room permitted. A sharp sense of catastrophe had risen
//in the air between the two of them, and hung there unchanging.
Гоґвортський професор із захисту зайшов до кімнати й зачинив за собою двері,
ставши чітко в кут між двома стінами -- якомога далі від хлопця, наскільки це
дозволяла кімната. Різке відчуття катастрофи набуло сили в повітрі між ними,
висіло без змін.

// 16312
//“Why are you here?” said the boy.
-- Чому ви тут? -- спитав хлопець.

// 16313
//The man tilted his head slightly. Pale eyes examined the boy as though he were
//a specimen of life from a distant planet, and correspondingly dangerous.
Чоловік злегка схилив голову. Бліді очі оглянули хлопця, ніби той був
представником життя з якоїсь далекої планети і, відповідно, небезпечним.

// 16314
//“I’ve come to apologize, Mr. Potter,” the man said quietly.
-- Я прийшов вибачитися, містере Поттер, -- тихо сказав чоловік.

// 16315
//“Apologize for what?” the boy said. “Why, what could __you__ have done to
//prevent Hermione’s death?”
-- Вибачитися за що? -- спитав хлопець. -- Ну, і що ж __ви__ могли зробити, щоб
запобігти смерті Герміони?

// 16316
//“I should have thought to check for the presence of yourself, Mr. Longbottom,
//and Miss Granger, all of whom were obvious next targets,” the Defense Professor
//said without hesitation. “Mr. Hagrid was not mentally equipped to command the
//student contingent. I should have ignored the Deputy Headmistress’s request for
//silence, and told her to leave behind Professor Flitwick, who would have been
//better able to defend the students from any threat, and who could have
//maintained communication via Patronus.”
-- Я мав би подумати перевірити присутність вас, містера Лонґботома та міс
Ґрейнджер, що були очевидними наступними цілями, -- без вагань сказав професор
із захисту. -- Містер Геґрід ментально нездатний керувати загоном учнів. Я мав
би проігнорувати прохання заступниці директора мовчати, і сказати їй лишити з
вами професора Флитвіка, що значно ліпше міг би захистити учнів від будь-якої
небезпеки, і міг би підтримувати звʼязок за допомогою патронуса.

// 16317
//“Correct.” The boy’s voice was razor-sharp. “I’d forgotten there was someone
//else in Hogwarts who could be responsible for things. So why didn’t you think
//of it, Professor? Because I don’t believe that __you__ were stupid.”
-- Правильно, -- гострим мов лезо голосом сказав хлопець. -- Я й забув, що в
Гоґвортсі є ще дехто відповідальний за щось. Тож чому ви не подумали про це,
професоре? Бо я не вірю, що __ви__ були дурним.

// 16318
//There was a pause, and the boy’s fingers whitened on his wand.
Запала тиша, і пальці хлопця побіліли на паличці.

// 16319
//“You did not think of it either, Mr. Potter, at the time.” There was a
//weariness in the Defense Professor’s voice. “I am smarter than you. I think
//faster than you. I am more experienced than you. But the gap between the two of
//us is not the same as the gap between us and them. If you can miss something,
//then so can I.” The man’s lips twisted. “You see, I deduced at once that the
//troll was but a distraction from some other matter, and of no great importance
//in itself. So long as nobody sent the students wandering pointlessly through
//the halls, or uncaringly dispatched the young Slytherins to those very dungeons
//where the troll had been spotted.”
-- Тоді ви теж про це не подумали, -- у голосі професора із захисту відчувалася
втома. -- Я розумніший за вас. Я міркую швидше. Я досвідченіший. Та різниця між
нами двома не така, як між нами та ними. Якщо щось можете проґавити ви, то це можу
проґавити і я, -- губи чоловіка скривилися. -- Розумієте, я одразу збагнув, що
троль -- для відволікання уваги від чогось іншого, і сам по собі неважливий.
Якщо ніхто не гуляє коридорами без всякої на то причини, якщо ніхто безголово не
відправляє слизеринців до тих саме підземель, де й помітили троля.

// 16320
//The boy did not seem to relax. “I suppose that is plausible.”
Видавалося, хлопець не розслабився.

-- Гадаю, в це можна повірити.

// 16321
//“In any case,” said the man, “if there is anyone who can be said to be
//responsible for Miss Granger’s death, it is myself, not you. It is I, not you,
//who should have -”
-- Хай там як, -- сказав чоловік, -- якщо когось і можна вважати відповідальним
за смерть міс Ґрейнджер, то мене, а не вас. Це я, а не ви, мав би...

// 16322
//“I perceive that you have spoken to Professor McGonagall and that she has given
//you a script to follow.” The boy did not bother keeping the bitterness from his
//voice. “If you have something to say to me, Professor, say it without the
//masks.”
-- Я так розумію, ви розмовляли з професоркою Макґонеґел, і вона дала вам
сценарій, -- хлопець навіть не намагався стримати гіркоту в голосі. -- Якщо ви
хочете сказати мені щось, професоре, скажіть це без масок.

// 16323
//There was a pause.
Запала тиша.

// 16324
//“As you wish,” the Defense Professor said emotionlessly. The pale eyes stayed
//keen and sharp. “I do regret that the girl is dead. She was a good student in
//my Defense class, and could have been an ally to you later. I would wish to
//console you for your loss, but I cannot see how to go about doing so.
//Naturally, if I find the ones responsible I shall kill them. You are welcome to
//join in should circumstances permit.”
-- Як забажаєте, -- безбарвно сказав професор із захисту. Бліді очі не полишила
проникливість та гострота. -- Мені прикро, що дівчина мертва. Вона була хорошою
ученицею на моїх заняттях із захисту й могла б пізніше стати вам цінною
союзницею. Я б хотів втішити вас з приводу вашої втрати, та не бачу, як це можна
зробити. Звісно, якщо я знайду винних, я їх убʼю. Прошу приєднатися, якщо
дозволять обставини.

// 16325
//“How touching,” the boy said, his voice cool. “You are not claiming to have
//liked Hermione, then?”
-- Як зворушливо, -- холодно сказав хлопець. -- Тож ви не стверджуєте, що
Герміона вам подобалася?

// 16326
//“Her charms were lost on me, I suspect. I no longer form such bonds easily.”
-- Підозрюю, її чари на мене не діють. Я вже нелегко створюю такі стосунки.

// 16327
//The boy nodded. “Thank you for being honest. Is that all, Professor?”
Хлопець кивнув.

-- Дякую за чесність. Це все, професоре?

// 16328
//There was a pause.
Запала тиша.

// 16329
//“The castle is scarred, now,” said the man standing in the corner.
-- За{stress}мок тепер боїться, -- сказав чоловік з кута.

// 16330
//“What?”
-- Що?

// 16331
//“When a certain ancient device in my possession informed me that Miss Granger
//was on the verge of death, I cast that spell of cursed fire of which I once
//spoke. I burned through some walls and floors so that my broomstick could take
//a more direct path.” The man still spoke tonelessly. “Hogwarts will not heal
//such wounds easily, if at all. I suppose it will be necessary to patch over the
//holes with lesser conjurations. I regret that now, since I was in any case too
//late.”
//! 60%
-- Коли певний древній пристрій повідомив мене, що міс Ґрейнджер на краю
смерті, я наслав закляття проклятого вогню, про яке я колись згадував був. Я
пропалював собі шлях крізь стіни й перекриття, щоб моя мітла могла йти прямішим
шляхом, -- чоловік і далі розмовляв безбарвно. -- Гоґвортсу нелегко буде загоїти
ці рани, якщо він взагалі впорається. Гадаю, доведеться залатати отвори нижчими
чаклунствами. Тепер я шкодую про це, адже все одно не встигнув.

// 16332
//“Ah,” said the boy. He closed his eyes briefly. “You did want to save her. You
//wanted it so strongly that you made some sort of actual effort. I suppose your
//mind, if not theirs, would be capable of that.”
-- А, -- сказав хлопець. Він на мить заплющив очі. -- Тож ви хотіли її
врятувати. Хотіли її врятувати так сильно, що навіть зробили щось з цього
приводу. Гадаю, ваш розум, на відміну від їхніх, має бути на це здатен.

// 16333
//A brief, dry smile from the man.
Нетривала, суха посмішка чоловіка.

// 16334
//“Thank you for that, Professor. But I would like to be left alone now until
//dinnertime. You of all people will understand. Is that all?”
-- Дякую за це, професоре. Та зараз я хотів би побути на самоті до вечері. Ви-то
маєте це зрозуміти. Це все?

// 16335
//“Not quite,” the man said. A tinge of sardonic dryness now returned to his
//voice. “You see, based on recent experiences, I am concerned that you may now
//intend to do something extremely foolish.”
-- Не зовсім, -- сказав чоловік. Крихта сардонічної сухості тепер знову
відчувалася в його голосі. -- Розумієте, у мене є певний досвід, і я хвилююся,
що ви тепер збираєтеся зробити щось надзвичайно дурне.

// 16336
//“Such as what?” said the boy.
-- Наприклад? -- спитав хлопець.

// 16337
//“I am not quite sure. Perhaps you have decided that a universe without Miss
//Granger is devoid of value, and should be destroyed for the insults it has
//dealt you.”
-- Я не певен. Можливо, ви вирішили, що всесвіт без міс Ґрейнджер втратив
цінність і має бути знищений за те, як він вам дошкуляв.

// 16338
//The boy smiled without any humor. “Your own issues are showing, Professor. I
//don’t really go in for that sort of thing. Did you, at some point?”
Хлопець всміхнувся без тіні гумору.

-- Відчуваються ваші власні проблеми, професоре. Я таким не страждаю. А у вас
таке колись було?

// 16339
//“Not particularly. I have no great fondness for the universe, but I do live
//there.”
-- Не зовсім. Не те, щоб я дуже полюбляю цей всесвіт, але я в ньому живу.

// 16340
//There was a pause.
Запала тиша.

// 16341
//“What are you planning, Mr. Potter?” said the man in the corner. “You have come
//to some significant resolution, though you are trying to hide it from me. What
//do you now intend?”
-- Що ви плануєте, містере Поттер? -- спитав чоловік з кута. -- Ви прийняли
якесь важливе рішення, хоч і намагаєтеся від мене це приховати. Які у вас
наміри?

// 16342
//The boy shook his head. “I’m still thinking, and would like to be left alone to
//do it.”
Хлопець похитав головою.

-- Я досі міркую, і волів би робити це на самоті.

// 16343
//“I recall an offer you once made to me, some months ago,” said the Defense
//Professor. “Do you want someone intelligent to talk to? I will understand if
//you are not pleasant to be around.”
// hedrok: ідеться про 026:5032
-- Пригадую одну вашу пропозицію, що мала місце кілька місяців тому, -- сказав
професор із захисту. -- Чи не хочете поговорити з кимось інтелектуальним? Я
зрозумію, якщо ви не будете приємним співрозмовником.

// 16344
//The boy shook his head again. “No, thank you.”
Гаррі знову похитав головою.

-- Ні, дякую.

// 16345
//“Well, then,” said the Defense Professor. “What about someone who is powerful
//and not particularly bound by naive scruples?”
-- Ну, тоді, -- сказав професор із захисту. -- Як щодо когось могутнього й не
надто обмеженого наївними докорами сумління?

// 16346
//There was a hesitation, and then the boy once more shook his head.
На мить хлопець завагався, та потім знову похитав головою.

// 16347
//“Someone who is knowledgeable of much secret lore, and magics that some might
//consider to be unnatural?”
-- Когось, хто знається на таємних ученнях, на магіях, що інші їх можуть вважати
неприродними?

// 16348
//There was a slight narrowing of the boy’s eyes, so imperceptible that someone
//else might not have -
Очі хлопця злегка примружилися -- настільки непомітно, що хтось інший міг би й
не...

// 16349
//“I see,” said the Defense Professor. “Go ahead and ask me about it, then. I
//give you my word that I will repeat nothing of it to the others.”
-- Зрозуміло, -- сказав професор із захисту. -- Тож спитайте мене про це. Даю
слово, що нікому не повторюватиму того, що ви скажете.

// 16350
//The boy took a while to speak, and when he did it was in a cracked voice.
По деякому часі хлопець заговорив надламаним голосом.

// 16351
//“I mean to bring Hermione back. Because there isn’t an afterlife, and I’m not
//about to just let her - just __not be__ -”
-- Я збираюся повернути Герміону. Бо життя після смерті не існує, а я не дозволю
їй просто... просто __не бути__...

// 16352
//The boy pressed his hands over his face, and when he withdrew them, he once
//more seemed as dispassionate as the man standing in the corner.
Хлопець затулив обличчя руками, а коли прибрав їх, знову видавався саме таким
спокійним, як і чоловік у кутку.

// 16353
//The Defense Professor’s eyes were abstract, and faintly puzzled.
Очі професора із захисту були далекими, злегка спантеличеними.

// 16354
//“How?” the man said finally.
-- Як? -- зрештою спитав чоловік.

// 16355
//“However I have to.”
-- Будь-якими засобами.

// 16356
//There was another pause.
І знову запала тиша.

// 16357
//“Regardless of the risks,” the man in the corner said. “Regardless of how
//dangerous the magic required to accomplish it.”
//! 72%
-- Незважаючи на ризики, -- сказав чоловік у кутку. -- Незважаючи на те, якою
небезпечною буде магія, що потрібна для досягнення мети.

// 16358
//“Yes.”
-- Так.

// 16359
//The Defense Professor’s eyes were thoughtful. “But what general approach did
//you have in mind? I presume that turning her corpse into an Inferius is not
//what you -”
Очі професора із захисту були задумливими.

-- Та який загальний спосіб у вас на думці? Я так розумію, що перетворити її
труп на інферія -- не те, чого ви...

// 16360
//“Would she be able to think?” the boy said. “Would her body still decay?”
-- Чи зможе вона думати? -- спитав хлопець. -- Чи розкладатиметься її тіло далі?

// 16361
//“No, and yes.”
-- Ні, і так.

// 16362
//“Then no.”
-- Тоді ні.

// 16363
//“What of the Resurrection Stone of Cadmus Peverell, if it could be obtained for
//you?”
-- Як щодо воскресального каменя Кадмуса Певерела, якби хтось знайшов його для
вас?

// 16364
//The boy shook his head. “I don’t want an illusion of Hermione drawn from my
//memories. I want her to be able to __live __her__ life -__” the boy’s
//voice cracked. “I haven’t decided yet on an object-level angle of attack. If I
//have to brute-force the problem by acquiring enough power and knowledge to just
//__make it happen__, I will.”
Хлопець похитав головою.

-- Я не хочу ілюзії Герміони, взятої з моїх спогадів. Я хочу, щоб вона могла
__прожити__ своє __життя__... -- голос хлопця урвався. -- Я ще не приймав
жодного рішення щодо підходу розвʼязання цієї задачі. Якщо доведеться
використати грубу силу й отримати достатньо могутності й знань, щоб просто
__змусити це статися__, то так я й зроблю.

// 16365
//Another pause.
Ще одна мовчанка.

// 16366
//“And to go about __that,__” the man in the corner said, “you will use your
//favorite tool, science.”
-- А для __цього__, -- сказав чоловік у кутку, -- ви скористаєтеся своїм
найулюбленішим інструментом -- наукою.

// 16367
//“Of course.”
-- Звісно.

// 16368
//The Defense Professor exhaled, almost like a sigh. “I suppose that makes sense
//of it.”
Професор із захисту видихнув -- майже зітхнув.

-- Гадаю, це все пояснює.

// 16369
//“Are you willing to help, or not?” the boy said.
-- Ви допоможете чи ні? -- спитав хлопець.

// 16370
//“What help do you seek?”
-- Якої допомоги ви бажаєте?

// 16371
//“Magic. Where does it come from?”
-- Магія. Звідки вона береться?

// 16372
//“I do not know,” said the man.
-- Я не знаю, -- сказав чоловік.

// 16373
//“And neither does anyone else?”
-- І не знає ніхто інший?

// 16374
//“Oh, the situation is far worse than that, Mr. Potter. There is hardly a
//scholar of the esoteric who has not unraveled the nature of magic, and every
//one of them believes something different.”
-- О, стан речей значно гірший, містере Поттер. Навряд чи можна знайти вченого
езотерика, що не розгадав би природи магії, та кожен з них вірить у щось своє.

// 16375
//“Where do new spells come from? I keep reading about someone who invented a
//spell to do something-or-other but there’s no mention of __how__.”
-- Звідки беруться закляття? Я часто читаю, як хтось винайшов закляття для
того-чи-іншого, та ніхто не згадує, __як__.

// 16376
//A shrug of robed shoulders. “Where do new books come from, Mr. Potter? Those
//who read many books sometimes become able to write them in turn. How? No one
//knows.”
Чоловік знизав плечима в мантії.

-- Звідки беруться книжки, містере Поттер? Ті, хто прочитав багато книжок,
інколи здатні написати свою. Як? Ніхто не знає.

// 16377
//“There are books on how to write -”
-- Є книжки про те, як писати...

// 16378
//“Reading them will not make you a famous playwright. After all such advice is
//accounted for, what remains is mystery. The invention of new spells is a
//similar mystery of purer form.” The man’s head tilted. “Such endeavors are
//dangerous. The saying is that one should either not have children, or else wait
//until after they are grown. There is a reason why so many innovators seem to
//hail from Gryffindor, rather than Ravenclaw as might be expected.”
-- Прочитавши їх, вам не стати відомим драматургом. Після врахування всіх порад
лишається лише загадка. Винайдення нових заклять -- схожа таємниця, хоч і більш
явна, -- чоловік схилив голову. -- Такі спроби небезпечні. Є прислівʼя, що треба
або не мати дітей, або дочекатися, доки вони не виростуть. Не дарма більшість
винахідників походять з Ґрифіндору, а не Рейвенклову, як можна було б очікувати.

// 16379
//“And the more powerful sorts of magics?” the boy said.
-- А як щодо більш потужних видів магії? -- спитав хлопець.

// 16380
//“A legendary wizard might invent one sacrificial ritual in his life, and pass
//on the knowledge to his heirs. To try inventing five such would be suicide.
//That is why wizards of true power are those who have acquired ancient lore.”
-- Легендарний чарівник може винайти один ритуал з пожертвою впродовж свого
життя та передати його нащадкам. Намагатися винайти пʼять ритуалів --
самогубство. Ось чому справді могутні чарівники -- це ті, хто отримав доступ до
древнього вчення.

// 16381
//The boy nodded distantly. “So much for the direct solution, then. It would’ve
//been nice to just invent a spell for ‘Raise Dead’, ‘Become God’ or ‘Summon
//Terminal’. Do you know anything about Atlantis?”
Хлопець неуважно кивнув.

-- Ну що ж, от тобі й маєш пряме рішення. Було б гарно винайти закляття
"`Воскресити мертвого`", "`Стати Богом`" чи "`Запустити консоль`". Вам відомо
щось про Атлантиду?

// 16382
//“Only what any scholar knows,” the man said dryly. “If you would like to hear
//about the top eighteen standard theories - do not glare at me, Mr. Potter. If
//it were that simple, I would have done it many years earlier.”
//! 84%
-- Лише те, що знає будь-який вчений, -- сухо сказав чоловік. -- Якщо хочете
послухати про вісімнадцять найпоширеніших теорій... не зиркайте так на мене,
містере Поттер. Якби все було так просто, я б уже це зробив багато років тому.

// 16383
//“I understand. Sorry.”
-- Я розумію. Вибачте.

// 16384
//There was a time of silence. The Defense Professor’s gaze rested on the boy,
//the boy stared off seemingly at nothing.
Деякий час вони мовчали. Професор із захисту не відводив погляду від хлопця, а
той втупився ніби в ніщо.

// 16385
//“There’s some magics I mean to learn. Spells I could’ve used earlier today, if
//I’d thought to study them beforehand.” The boy’s voice was cold. “Spells I’ll
//need, if this sort of thing goes on happening. Most I expect I can just look
//up. Some I expect I can’t.”
-- Є магії, що я їх хочу вивчити. Закляття, які я міг би використати сьогодні,
якби дослідив їх заздалегідь, -- холодним голосом сказав хлопець. -- Закляття,
що стануть в пригоді, якщо щось таке станеться знову. Більшість з них, гадаю,
мені вдасться знайти. Та деякі, гадаю, не вдасться.

// 16386
//The Defense Professor inclined his head. “I shall teach you almost any magic
//you wish to know, Mr. Potter. I do have some limits, but you may always ask.
//But what specifically do you seek? You lack the raw power for the Killing Curse
//and most other spells deemed forbidden -”
Професор із захисту схилив голову:

-- Я навчу вас майже будь-якому закляттю, яке забажаєте, містере Поттер. У мене
є деякі межі, та завжди можете спитати. Але чого саме ви шукаєте? Вам бракує
сили на смертельне прокляття й на більшість інших заборонених заклять...

// 16387
//“That spell of cursed fire. I don’t suppose it’s a sacrificial ritual that even
//a child could use, if he dared?”
-- Оце закляття проклятого вогню. Навряд чи це ритуал з пожертвою, з яким
впорається навіть дитина, якщо наважиться?

// 16388
//The Defense Professor’s lips twitched. “It requires the permanent sacrifice of
//a drop of blood; your body would be lighter by that drop of blood, from that
//day forward. Not the sort of thing one would wish to do often, Mr. Potter.
//Strength of will is demanded for the cursed fire not to turn upon you and
//consume you; the usual practice is to first test one’s will in lesser trials.
//And although it is not a primary element of the ritual, I am afraid that it
//does require more magic than you shall possess for another few years.”
Губи професора із захисту скривилися.

-- Цей ритуал потребує безповоротної пожертви -- краплі крові. Після цього ваше
тіло стане легшим на цю краплю крові назавжди. Не варто таке робити часто,
містере Поттер. Для закляття проклятого вогню потрібна сила волі, щоб вогонь не
поглинув вас. Зазвичай спочатку волю тренують безпечнішими дослідами. І хоча це
не основна складова ритуалу, боюся, ви ще кілька років не досягнете потрібного
рівня сили магії.

// 16389
//“Pity,” the boy said. “It would’ve been nice to see the look on the enemy’s
//face the next time they tried using a troll.”
-- Шкода, -- сказав хлопець. -- Хотілося б подивитися на вираз лиця ворога
наступного разу, коли він спробував би використати троля.

// 16390
//The Defense Professor inclined his head, his lips twitching again.
Професор із захисту схилив голову, його губи знову смикнулися.

// 16391
//“What about Memory Charms? The Weasley twins were acting oddly and the
//Headmaster said he thinks they’ve been Obliviated. It seems to be one of the
//enemy’s favorite tricks.”
-- Як щодо чарів памʼяті? Близнюки Візлі дивно поводилися, і директор вважає, що
їх забуттятили. Видається, це один з найулюбленіших трюків ворога.

// 16392
//“Rule Eight,” said the Defense Professor. “Any technique which is good enough
//to defeat me once is good enough to learn myself.”
-- Правило восьме, -- сказав професор із захисту. -- Будь-яка техніка, за
допомогою якої мене перемогли бодай раз, варта того, щоб її вивчити.

// 16393
//The boy smiled humorlessly. “And I once heard about an adult casting Obliviate
//while she was almost completely drained, so it must not take too much magic to
//cast. It’s not even considered Unforgiveable, though I can’t imagine why not.
//If I could’ve made Mr. Hagrid remember a different set of orders -”
Хлопець без гумору всміхнувся.

-- Я якось чув історію про дорослу відьму, що наслала забуттятус, хоча була
майже цілковито виснаженою, тож на це небагато магії потрібно. Це навіть не
вважається непрощенним, хоча я уявити не можу, чому. Якби я міг змусити містера
Геґріда памʼятати інший набір наказів...

// 16394
//“It is not that straightforward,” said the Defense Professor. “You are not
//powerful enough to use the False Memory Charm, and even a simple Obliviation
//will stretch the edge of your current stamina. It is a dangerous art, illegal
//to use without Ministry authorization, and I would caution you not to use it
//under circumstances where it would be inconvenient to accidentally erase ten
//years of someone’s life. I wish I could promise you that I would obtain one of
//those highly guarded tomes from the Department of Mysteries, and pass it to you
//beneath a disguised cover. But what I must actually tell you is that you will
//find the standard introductory text in the north-northwest stacks of the main
//Hogwarts library, filed under M.”
-- Все не так просто, -- сказав професор із захисту. -- Ви недостатньо могутні
для чар хибної памʼяті, і навіть простий забуттятус на межі вашої поточної
витримки. Це небезпечне мистецтво, незаконне без дозволу міністерства. Також
закликаю не використовувати його, якщо випадково стерти десять років чийогось
життя завдасть вам якихось незручностей. Хотів би пообіцяти вам
отримати одну з книжок під найпотужнішою охороною з відділку таємниць, і передати
вам її так, щоб ніхто про це не дізнався. Та насправді маю сказати вам, що ви
знайдете стандартне введення в цю тему в північ-північно-західному відділі
основної бібліотеки Гоґвортсу під літерою "`П`".

// 16395
//“Seriously,” the boy said flatly.
-- Серйозно, -- безбарвно сказав хлопець.

// 16396
//“Indeed.”
-- Саме так.

// 16397
//“Thank you for your guidance, Professor.”
-- Дякую за ваші настанови, професоре.

// 16398
//“Your creativity has become a great deal more practical, Mr. Potter, since I
//have known you.”
-- Ваша винахідливість стала значно практичнішою, містере Поттер, порівняно з
днем нашого знайомства.

// 16399
//“Thank you for the compliment.” The boy did not look up from where he was again
//gazing down at the wand held between his hands. “I would like to go back to
//thinking now. Please explain to them on my behalf what happens if I am
//disturbed.”
-- Дякую за комплімент, -- хлопець не підвів погляду від палички, що він її
тримав у руках. -- Я хотів би повернутися до міркувань. Будь ласка, поясніть їм
від мого імені, що станеться, якщо мене потурбувати.

***

// 16400
//The door to the storeroom clicked open, and Professor Quirrell stepped out. His
//face had a dead, emotionless look to it; she would have said that it reminded
//her of Severus, though Severus had never looked quite like that.
Двері до кімнати зберігання розчинилися, і професор Квірел вийшов з-за них. Лице
нагадувало мертве, було повністю позбавлене емоцій. Вона могла б сказати, що це
чимось нагадувало Северуса, хоча Северус мав не зовсім такий вираз.

// 16401
//Even as the door clicked shut again, Minerva had thrown up a wordless Quieting
//barrier. The words spilled forth from her rapidly: “How did it go - you were in
//there for a while - is Harry talking now?”
Щойно двері зачинилися, Мінерва безмовно створила барʼєр тиші. Вона швидко
заговорила:

-- Як пройшло... ви там були довго... Гаррі тепер розмовляє?

// 16402
//Professor Quirrell paced swiftly across the room to the far wall near the
//entrance, looked back at her. The emotionlessness slid off his face, as though
//he were taking off a mask, leaving behind someone very grim. “I spoke to Mr.
//Potter as he expected me to speak, and avoided saying things that would annoy
//him. I do not think it consoled him. I do not think I have the knack.”
Професор Квірел хутко пройшов кімнату аж до дальньої стіни біля входу, а тоді
озирнувся. Неемоційність зникла з його обличчя, ніби він зняв маску, а за нею
був хтось вкрай похмурий.

-- Я розмовляв з містером Поттером так, як він очікував я розмовлятиму, і уникав
слів, що роздратували б його. Навряд чи я його втішив. Гадаю, в мене немає таких
вмінь.


// 16403
//“Thank you - it is good that he spoke at all -” She hesitated. “What did Mr.
//Potter say?”
-- Дякую... добре, що він взагалі розмовляв... -- вона завагалася. -- А що
сказав містер Поттер?

// 16404
//“I am afraid that I promised him not to speak of it. And now… I think that I
//must visit the Hogwarts library.”
-- Боюся, я пообіцяв йому не розповідати про це. А тепер... мені треба відвідати
бібліотеку Гоґвортсу.

// 16405
//“The __library?__”
-- __Бібліотеку?__

// 16406
//“Yes,” Professor Quirrell said. An uncharacteristic tension had come into his
//voice. “I intend to strengthen the security upon the Restricted Section with
//certain precautions of my own devising. The current wards are a joke. And Mr.
//Potter must be kept out of the Restricted Section __at all costs.__”
-- Так, -- сказав професор Квірел. Незвичний неспокій чувся в його голосі. -- Я
посилю безпеку службової секції певними запобіжними заходами власної
розробки. Поточні захисні чари -- сміх та й годі. А містера Поттера треба не
допускати до службової секції __за будь-яку ціну__.

// 16407
//She stared at the Defense Professor, her heart suddenly in her throat.
Вона витріщилася на професора із захисту, в неї раптом завмерло серце.

// 16408
//Professor Quirrell continued speaking. “You will __not__ tell the boy that
//I have said this much to you. You will confirm to Flitwick and Vector that the
//boy is to be diverted by the usual evasions if he asks precocious questions
//about spell creation. And though it is not my own area of expertise, Deputy
//Headmistress, if there is any way you can imagine to convince the boy to stop
//sinking further into his grief and madness - any way at all to undo the
//resolutions he is coming to - then I suggest you resort to it
//__immediately__.”
//! 100%
Професор Квірел говорив далі:

-- Ви __не__ скажете хлопцеві навіть про це. Ви наголосите Флитвікові й Вектор,
що хлопця треба відволікати звичайними ухиляннями, якщо він передчасно питатиме
про створення заклять. І хоч це не моя сфера знань, заступнице директора, та
якщо ви здатні уявити будь-що, що може допомогти спинити занурення хлопця далі в
горе й божевілля -- взагалі що завгодно, що може скасувати рішення, яких він
доходить, -- пропоную вам вдатися до цих заходів __негайно__.
