// 16693
//== Roles, Pt 5
== Розділ 94. Ролі, ч.5

// 16694
//__The first meeting:__
__Перша зустріч:__

// 16695
//At 6:07am on April 17th, 1992 the Sun was just rising above the horizon as seen
//from the castle Hogwarts, filtering in through drawn curtains in the Ravenclaw
//first-year boys’ dorm to provide a gentle light, red-orange for dawn and
//little-changed by the white fabric covering the windows, not yet waking boys
//more accustomed to winter’s schedule.
О 6:07 ранку 17 квітня 1992-го року сонце тільки піднімалося з-за горизонту,
освітлюючи замок Гоґвортс. Промені, проникаючи через запнуті завіси
рейвенкловського гуртожитку для хлопчиків-першокласників, давали мʼяке світло,
багряно-жовте на світанку та злегка змінене білою тканиною на вікнах, але ще
недостатньо сильне, щоб розбудити хлопців, що звикли до зимового графіку.

// 16696
//In one bed among many, Harry Potter slept the sleep of the just exhausted.
В одному з кількох ліжок Гаррі Поттер спав, як сплять лише вщент виснажені
люди.

// 16697
//Quietly the door opened.
Двері тихо відчинилися.

// 16698
//Quietly a figure walked across the floor.
Силует тихо перетнув кімнату.

// 16699
//That figure came to Harry Potter’s bed.
Цей силует підійшов до Гарріного ліжка.

// 16700
//The figure laid a hand on the shoulder of the sleeping boy, who started and
//shrieked.
Він поклав руку на плече сплячого хлопчика, від чого той зірвався та
зойкнув.

// 16701
//No others heard.
Ніхто інший не прокинувся.

// 16702
//“Mr. Potter,” the small man squeaked, “the Headmaster has requested your
//presence immediately.”
-- Містере Поттер, -- пискнув маленький чоловік. -- Директор просить вашої
негайної присутності.

// 16703
//Slowly the boy sat up in bed, his hands momentarily fiddling beneath the
//covers. He’d expected to feel much worse, waking up this morning. It felt…
//wrong, that his brain functioned now, that his thoughts still moved, that he
//wasn’t incapacitated with weeping for at least a week. The boy knew that it
//wouldn’t have been an adaptive response, for brains to evolve to do that. His
//dark side, certainly, would not do that. Even so, it still felt wrong to be
//alive and lucid, this morning.
Хлопчик повільно сів на ліжку, перебираючи руками під ковдрою. Він очікував
був, що почуватиметься значно гірше, прокинувшись зранку. Це здавалося...
неправильним, що його мозок зараз працював, що його думки все ще рухалися, що
він не був недієздатним й не плакав принаймні тиждень. Хлопчик знав, що це була
звичайна адаптаційна реакція, бо мізки еволюціонували, щоб саме так реагувати.
Його темна сторона, певно, цього б не зробила. Навіть якщо так, то все одно
здавалося неправильним бути живим та з ясним розумом цього ранку.
//@ kabakchey: 'fiddling beneath the covers'

// 16704
//But his resolution to revive Hermione Granger felt - sufficient, like he was
//already doing the right thing, bent on the right path, and she would be brought
//back, and that was all there was to it; grief would have been giving up. There
//was nothing left to decide, no ambiguity, no conflict to tear at him, and no
//need to remember what he’d __seen__ -
Але його рішення воскресити Герміону Ґрейнджер відчувалося... достатнім, наче
він вже робив все правильно, звернув на потрібну доріжку, і її можна було
повернути, і це все що було потрібно, щоб журба відступила. Більше нічого не
треба було вирішувати, жодної неоднозначності, жодних конфліктів, що його
роздирали б, і жодної потреби памʼятати те, що він __бачив__...

// 16705
//“I’ll get dressed,” Harry said.
-- Уже вдягаюся, -- мовив Гаррі.

// 16706
//Professor Flitwick looked rather reluctant, but said in his high voice, “The
//Headmaster specified you were to be brought to his office directly and without
//pause, Mr. Potter. I’m sorry.”
Професор Флитвік вимушено, але все ж заперечив своїм високим тоном:

-- Директор наказав доставити вас до його кабінету негайно, без затримок,
містере Поттер. Перепрошую.

// 16707
//Less than a minute later - Professor Flitwick had sent him straight to the
//Headmaster’s office through the Hogwarts internal Floo - Harry found himself,
//still in his pajamas, facing Albus Dumbledore. The Deputy Headmistress was also
//sitting in another chair, and the Potions Master lurked nearby amid the weird
//devices, caught in a gaping yawn just as Harry had entered through the
//fireplace.
Менше ніж за хвилину Гаррі (професор Флитвік відправив його прямісінько до
кабінету директора через внутрішню систему флу Гоґвортсу), досі в самій
піжамі, опинився перед Албусом Дамблдором. Заступниця директора також сиділа
там у кріслі, і майстер зіллєваріння теж блукав там серед дивних пристроїв
та був зненацька заскочений з роззявленим від позіхання ротом появою Гаррі
з каміна.

// 16708
//“Harry,” the Headmaster said without preamble, “before I say what I must say
//next, I tell you that Hermione Granger did truly die. The wards recorded it and
//informed me. The very stones spoke that a witch had died. I tested her body
//where it lay and those were Hermione Granger’s true mortal remains, not any
//doll or likeness. There is no way known to wizardry by which death may be
//undone. All this being said, Hermione Granger’s remains are now missing from
//the storeroom where they were placed, and where you guarded them. Did you take
//them, Harry Potter?”
-- Гаррі, -- мовив директор без вступних промов, -- перш, ніж я скажу те, що
маю сказати далі, я повідомляю тобі, що Герміона Ґрейнджер справді загинула.
Охоронні чари зафіксували це та повідомили мене. Самі стіни казали, що відьма
загинула. Я перевірив її тіло на місці, і це були справжні смертні останки
Герміони Ґрейнджер, а не якоїсь ляльки чи двійника. Немає жодного відомого
магії способу скасувати смерть. Тепер, коли все це було сказано, повідомляю,
що останки Герміони Ґрейнджер наразі зникли з камери зберігання, до якої
їх розмістили, та де ти їх охороняв. Це ти їх забрав, Гаррі Поттере?
//@ kabakchey: скасувати смерть

// 16709
//“No,” Harry said, narrowing his eyes. A glance showed him that Severus was
//watching him intently.
-- Ні, -- відповів Гаррі, звузивши очі.

Кинутий в бік Северуса погляд показав, що той дуже прискіпливо спостерігає за ним.

// 16710
//Dumbledore’s gaze was also keen, though not unfriendly. “Is Hermione Granger’s
//body in your possession?”
Погляд Дамблдора теж був пронизливим, але не ворожим.

-- Чи тіло Герміони Ґрейнджер у твоєму володінні?

// 16711
//“No.”
-- Ні.

// 16712
//“Do you know where it is?”
-- Чи ти знаєш де воно зараз перебуває?

// 16713
//“No.”
-- Ні.

// 16714
//“Do you know who took it?”
-- Чи ти знаєш, хто його взяв?

// 16715
//“No,” Harry said, then hesitated. “Besides the obvious probabilistic
//speculations which are not based upon any specific knowledge of mine.”
-- Ні, -- відповів Гаррі і завагався. -- Окрім деяких очевидних ймовірнісних
спекуляцій, що не мають під собою жодних конкретних знань.

// 16716
//The old wizard nodded. “Do you know why it was taken?”
Старий чаклун кивнув.

-- Чи ти знаєш, навіщо його викрали?

// 16717
//“No. Besides the obvious speculations etcetera.”
-- Ні. Окрім деяких очевидних спекуляцій і так далі.

// 16718
//“What would those be?” Sharp the ancient eyes.
-- І яких саме? -- різкий погляд древніх очей.

// 16719
//“If the enemy can notice you running off to consult the Weasley twins during
//class after Hermione was arrested, and find out about that magic map you said
//was stolen, then the enemy can wonder why I was guarding Hermione Granger’s
//body. My turn. Did you arrange for Hermione’s death in hopes of getting the
//money back from Lucius?”
-- Якщо ворог помітив, коли ви бігли проконсультуватися з близнюками
Візлі під час уроку, коли Герміону заарештували, і дізнався про ту чарівну
карту, що, як ви стверджуєте, було викрадено, то ворог міг поцікавитися, чому
я охороняв тіло Герміони Ґрейнджер. Моя черга. Це ви влаштували смерть Герміони
в надії повернути гроші від Луціуса?

// 16720
//“__What?__” said Professor McGonagall.
-- __Що?__ -- випалила професорка Макґонеґел.

// 16721
//“No,” said the old wizard.
-- Ні, -- відповів старий чарівник.

// 16722
//“Did you know or suspect that Hermione Granger would die?”
-- Чи ви знали чи підозрювали, що Герміона Ґрейнджер може загинути?

// 16723
//“I did not know. As for suspicions, I placed her in the most strongly defended
//position I could, against Voldemort. I did not will her death, nor allow it,
//nor plan to benefit from it, Harry Potter. Now show me your pouch.”
-- Я не знав. А щодо підозр, то я спробував захистити її від Волдеморта
наскільки міг. Я не бажав її смерті, не хотів дати цьому статися, не мав
намірів отримати вигоду з цього, Гаррі Поттере. А тепер покажи мені свого
капшучка.

// 16724
//“It’s in my trunk -” Harry began.
-- Він у моїй валізі... -- почав Гаррі.

// 16725
//“Severus,” said the old wizard, and the Potions Master moved forward. “Check
//his trunk as well, every compartment.”
-- Северусе, -- звернувся старий чарівник, і майстер зіллєваріння ступив
уперед, -- перевір і його валізу також, кожне відділення.

// 16726
//“My trunk has wards.”
-- На моїй валізі є захисні чари.

// 16727
//Severus Snape grinned mirthlessly and strode into the green flame.
Северус Снейп невесело вишкірився та зробив крок у зелене полумʼя.

// 16728
//Dumbledore took out his long dark-grey wand and began to wave it close around
//Harry’s hair, looking like a Muggle using a metal-detector. Before he had
//reached as far as Harry’s neck, Dumbledore stopped.
Дамблдор витяг свою довгу темно-сіру паличку та почав махати нею близько до
Гарріного волосся, виглядаючи неначе маґл з металошукачем. Коли Дамблдор
дійшов до шиї Гаррі, він зупинився.

// 16729
//“The gem upon your ring,” Dumbledore said. “It is no longer a clear diamond. It
//is brown, the color of Hermione Granger’s eyes, and the color of her hair.”
-- Самоцвіт на твоєму персні, -- вимовив Дамблдор. -- Це більше не чистий
діамант. Він коричневий, кольору очей Герміони Ґрейнджер та кольору її волосся.

// 16730
//A sudden tension filled the room.
Раптова напруга наповнила кімнату.

// 16731
//“That’s my father’s rock,” Harry said. “Transfigured the same as before. I just
//did it to remember Hermione -”
-- Це камінь мого батька, -- почав Гаррі. -- Трансфігурований, як завжди. Я
змінив його на згадку про Герміону...

// 16732
//“I must be sure. Take off that ring, Harry, and place it upon my desk.”
-- Мені потрібно переконатися у цьому. Зніми цього персня, Гаррі, та поклади
його на мій стіл.

// 16733
//Slowly, Harry did so, removing the gem and setting the ring off to the other
//side of the desk.
Повільно Гаррі так і зробив, вийнявши самоцвіт та відкладаючи сам перстень в
інший бік стола.

// 16734
//Dumbledore pointed his wand at the gem and -
Дамблдор направив паличку на самоцвіт і...

// 16735
//A large, undistinguished grey rock jumped into the air from the force of its
//sudden expansion, hit some invisible barrier in the air above, and then fell
//with a loud crack upon the Headmaster’s desk,
Великий, непримітний сірий камінь підстрибнув у повітря від сили його раптового
розширення, врізався у якийсь невидимий барʼєр у повітрі над ним, і потім
упав з гучним тріском на директорський стіл.

// 16736
//“There’s another half-hour of work for me, Transfiguring it again,” Harry said
//evenly.
-- Тепер мені знадобиться ще пів години, щоб трансфігурувати його знову, --
спокійно прокоментував Гаррі.

// 16737
//Dumbledore resumed his examination. Harry had to remove his left shoe, and take
//off the toe-ring that was his emergency portkey if someone kidnapped him and
//took him outside the wards of Hogwarts (and didn’t put up anti-Apparition,
//anti-portkey, anti-phoenix, and anti-time-looping wards, which Severus had
//warned Harry that any inner-circle Death Eater would certainly do). It was
//verified that the magic radiating from the toe-ring was indeed the magic of a
//portkey, and not the magic of a Transfiguration. The rest of Harry was deemed
//clear.
Дамблдор відновив обшук. Гаррі довелося зняти лівого черевика та свого
персня з пальця ноги, що був його летиключем на випадок, якщо його викрадуть
і виведуть поза зону дії чарів Гоґвортсу (і не зведуть проти-являльних,
проти-летиключевих, проти-феніксових та проти-часоворотних чарів, що, як Северус запевнив
Гаррі, будь-хто з ключових смертежерів точно зробив би). Було перевірено,
що магія, яку випромінював перстень, -- це справді магія летиключа, а не
магія трансфігурації. Решту Гаррі проголосили чистою.
//! kabakchey: частина з "анти-"
//! hedrok: "проти-являльних" у нас уже було, так переклали, мені так більше
//!         подобається. Решту переклав відповідно.
//!         "збурять" - цікаво, але СУМ якось зовсім проти - там лише руйнування
//!         й збудження... Якщо розкажеш, звідки ти це взяв, наведеш якісь
//!         приклади, -- поверну.
//! hedrok: "летиключ" - разом. Абабагаламага. Та й у нас повсюди так.
//! hedrok: "завірити" в цьому значенні розмовне.

// 16738
//Not long after, the Potions Master returned, bearing Harry’s pouch, and several
//other magical things which had been in Harry’s trunk, which the Headmaster also
//examined, one by one, even to all the items remaining within the healer’s kit.
Незадовго після того майстер зіллєваріння повернувся, принісши Гарріного
капшучка та деякі інші магічні речі, що були у Гарріній валізі. Все це було
також оглянуто директором, одне за одним, до кожної дрібнички з аптечки.

// 16739
//“Can I go now?” Harry said when it was all done, putting as much cold as he
//could into his voice. He took up his pouch, and began the process of feeding
//the grey rock into it. The empty ring went back on his finger.
-- Тепер можна йти? -- спитав Гаррі, коли все скінчилося, намагаючись вкласти
якомога більше холоду у свій голос.

Він підібрав свого капшучка та почав процес згодовування сірої каменюки
всередину. Порожній перстень повернувся на його палець.

// 16740
//The old wizard breathed out, slipping his wand back into his sleeve. “I
//__am__ sorry,” he said. “I had to know. Harry… the Dark Lord has taken
//Hermione Granger’s remains, it seems. I cannot think of anything he would gain
//thereby, except to send her corpse against you as an Inferius. Severus shall
//give you certain potions to keep about your person. Be warned now, and be
//prepared for when you must do what must be done.”
Старий чаклун видихнув, вкладаючи паличку назад у рукав.

-- Мені __справді__ шкода, -- виголосив він. -- Але я мав переконатися.
Гаррі... Темний Лорд забрав останки Герміони Ґрейнджер, здається. Я не можу
вигадати, яким чином це може принести йому користь, хіба
що він може прислати її труп до тебе у вигляді інферія. Северус видасть тобі
деякі зілля, що ти повинен мати при собі. Будь же попередженим та готовим
зробити те, що треба.

// 16741
//“Will the Inferius have Hermione’s mind?”
-- Чи інферій матиме розум Герміони?

// 16742
//“No -”
-- Ні...

// 16743
//“Then it’s not her. Can I go? At least to change out of my pyjamas.”
-- Тоді це буде не вона. Я можу піти? Хоча би, щоб переодягти піжаму.

// 16744
//“There is other news, but I shall be brief. The wards of Hogwarts record that
//no foreign creature has entered, and that it was the Defense Professor who
//killed Hermione Granger.”
-- Також є інші новини -- я не заберу багато часу. Охоронні чари Гоґвортсу
зафіксували, що жодна жива істота не проникла всередину, а також що Герміону
Ґрейнджер убив професор із захисту.
//! hedrok: Це в журналі захисних чарів Гоґвортсу записано, що Герміону вбив
//!         Квірел, а не особисті висновки директора.

// 16745
//“Um,” Harry said.
-- Гм, -- прогудів Гаррі.

// 16746
//__Thought 1: But I saw the troll kill Hermione.__
__Думка 1: Але ж я бачив, як троль убив Герміону.__

// 16747
//__Thought 2: Professor Quirrell Memory-Charmed me and set up the scene
//that Dumbledore saw when he arrived.__
__Думка 2: Професор Квірел змінив мою памʼять та розставив все так, як це
побачив Дамблдор, коли зʼявився.__

// 16748
//__Thought 3: Professor Quirrell can’t do that, his magic can’t touch
//mine. I saw that in Azkaban -__
__Думка 3: Професор Квірел не міг цього зробити, бо його магія не може
торкатися моєї. Я бачив це в Азкабані...__

// 16749
//__Thought 4: Can I trust those memories?__
__Думка 4: Чи можу я довіряти своїй памʼяті?__

// 16750
//__Thought 5: There was clearly some sort of debacle at Azkaban, we
//wouldn’t have needed a rocket if Professor Quirrell hadn’t fallen unconscious,
//and why’d he be unconscious if not -__
__Думка 5: В Азкабані безсумнівно сталася якась катастрофа. Нам би не знадобилася
ракета, якби професор Квірел не знепритомнів, і чому б йому бути
непритомним, якщо тільки не...__

// 16751
//__Thought 6: Did I ever actually go to Azkaban at all?__
__Думка 6: А чи був я взагалі в Азкабані?__

// 16752
//__Thought 7: I clearly practiced controlling Dementors at some point
//before I scared that Dementor in the Wizengamot. And __that__ was in the
//newspapers.__
__Думка 7: Я точно десь практикувався контролювати дементорів до того, як
налякав того дементора під час Чарверсуду. І ось __це__ було у газетах.__

// 16753
//__Thought 8: Am I accurately remembering the newspapers?__
__Думка 8: Чи я точно пригадую газети?__

// 16754
//“Um,” Harry said again. “That spell seriously ought to be Unforgiveable. You
//think Professor Quirrell could have Memory-Charmed -”
-- Гм, -- знову прогудів Гаррі. -- Це закляття має справді бути непрощенним.
Ви справді думаєте, що професор Квірел міг змінити мою памʼять...

// 16755
//“No. I went back through time and placed certain instruments to record
//Hermione’s last battle, which I could not quite bear to watch in my own
//person.” The old wizard looked very grim indeed. “Your guess was right, Harry
//Potter. Voldemort sabotaged everything we gave Hermione to protect her. Her
//broomstick lay dead in her hands. Her invisibility cloak did not conceal her.
//The troll walked in the sunlight unharmed; it was no stray creature, but a
//weapon pure and aimed. And it was indeed the troll who killed her, with
//strength alone, so that my wards and webs to detect hostile magics went for
//naught. The Defense Professor never crossed her path.”
-- Ні. Я повернувся назад у часі та встановив певні пристрої, щоб записати
останню битву Герміони, яку я не спроможний переглядати наодинці, -- старий
чарівник справді виглядав дуже похмуро. -- Твоя здогадка справді правильна,
Гаррі Поттере. Волдеморт зіпсував усе, що ми дали Герміоні для її захисту.
Її мітла лежала звичайною палкою в її руках. Її плащ-невидимка не приховував її.
Троль ступив на сонячне світло неушкоджений. Це була не бродяча істота, а
націлена зброя. І, справді, троль її вбив, однією лиш силою, тому мої чари, що
мали виявити використання ворожої магії, не спрацювали. Професора із захисту
й поряд не було.

// 16756
//Harry swallowed, shut his eyes, and thought. “So this was an attempted frame on
//Professor Quirrell. Somehow. It does seem to be the enemy’s __modus
//operandi.__ Troll eats Hermione Granger, check the wards, oh look actually the
//Defense Professor did it, same as last year… no. No, that can’t be right.”
Гаррі ковтнув, закрив очі та подумав.

//! kabakchey: https://uk.wikipedia.org/wiki/Modus_operandi
-- Отже це була спроба підставити професора Квірела. Якимось чином.
Видається, наче це було __modus operandi__ ворога. Троль зʼїдає Герміону
Ґрейнджер, перевірка охоронних чарів, о, дивіться, це зробив професор із
захисту, як і минулого року... ні. Ні, такого не може бути.

// 16757
//“Why not, Mr. Potter?” said the Potions Master. “It seems obvious enough to me
//-”
-- Чому ні, містере Поттер? -- спитав майстер зіллєваріння. -- Це досить
очевидно, як на мене...

// 16758
//“That’s the problem.”
-- У цьому й полягає проблема.

// 16759
//__The enemy is smart.__
__Ворог розумний.__

// 16760
//Slowly the fog of sleep was drifting out of Harry’s mind, and after a full
//night’s sleep his brain could see the things which hadn’t been obvious the day
//before.
Повільно сонний туман відступав від Гарріного розуму, і, після повноцінного сну,
його мозок міг бачити речі, що не були такими очевидними за день до того.

// 16761
//Under standard literary convention… the enemy wasn’t supposed to look over what
//you’d done, sabotage the magic items you’d handed out, and then send out a
//troll rendered undetectable by some means the heroes couldn’t figure out even
//after the fact, so that you might as well have not defended yourself at all. In
//a book, the point-of-view usually stayed on the main characters. Having the
//enemy just bypass all the protagonists’ work, as a result of planning and
//actions taken out of literary sight, would be a __diabolus ex machina,__
//and dramatically unsatisfying.
//! kabakchey: https://uk.wikipedia.org/wiki/Deus_ex_machina
//!            'diabolus ex machina' -- це зла протилежність 'deus ex machina'
Згідно з стандартною літературною конвенцією, ворог не повинен спостерігати за
тим, що ти робиш, саботувати всі магічні предмети, що ти передав, та
відправляти троля невиявного настільки, що герої не можуть зрозуміти, як це
було можливо навіть опісля, так, що ти зовсім не зможеш себе захистити. У
книжках фокус зазвичай залишається на головних героях. Отже мати ворога, що
обійшов усю роботу протагоніста в результаті планування та дій, вчинених поза
літературним фокусом, було б __diabolus ex machina__ та драматично
незадовільним.

// 16762
//But in real life the enemy would think that they were the main character, and
//they would also be clever, and think things through in advance, even if you
//didn’t see them do it. That was why everything about this felt so disjointed,
//with parts unexplained and seemingly inexplicable. How had Lucius felt, when
//Harry had threatened Dumbledore with breaking Azkaban? How had the Aurors above
//Azkaban felt, seeing the broomstick rise up on a torch of fire?
Але у реальному житті вороги вважають, що це вони є головними персонажами, і
вони теж будуть розумні, і обмірковуватимуть все наперед, навіть якщо ти не
бачитимеш, як вони це роблять. Ось чому все це відчувалося незвʼязним, з
незрозумілими частинами та начебто незбагненним. Що відчував Луціус, коли
Гаррі погрожував Дамблдорові зруйнувати Азкабан? Що відчували аврори над
Азкабаном, дивлячись, як мітла здіймається вгору на факелі?

// 16763
//__The enemy is smart.__
__Ворог розумний.__

// 16764
//“The enemy knew perfectly well that you’d turn back time to check what really
//happened to Hermione, especially since the troll getting into Hogwarts at all
//tells us that somebody can fool the wards.” Harry shut his eyes, thinking
//harder, trying to put himself into the enemy’s shoes. Why would he, or his dark
//side, have done something like - “We’re meant to conclude that the enemy has
//control of what the wards tell us. But that’s actually something the enemy can
//only do with difficulty, or under special conditions; they’re trying to create
//a false appearance of omnipotence.” __Like I would.__ “Later,
//hypothetically, the wards show Professor Sinistra killing someone. We think the
//wards are just being fooled again, but really, Professor Sinistra was
//Legilimized and she __did__ do it.”
-- Ворог прекрасно знав, що ви повернетеся у часі, щоб подивитися, що
насправді відбудеться з Герміоною, враховуючи, що троль, проникнувши у
Гоґвортс, показує нам можливість обійти охоронні чари. -- Гаррі заплющив очі,
міркуючи сильніше, намагаючись поставити себе на місце ворога. Чому б він, або
його темна сторона вчинила щось таке... -- Передбачалося, що ми маємо прийти
до висновку, що у ворога є контроль над тим, що нам кажуть охоронні чари. Але
насправді ворог здатен на це лише з великими складнощами чи в
особливих умовах. Вони намагаються створити видимість всемогутності, -- __як
зробив би і я.__ -- Пізніше, гіпотетично, охоронні чари б показали, що
професорка Сіністра вбила когось. Ми б подумали, що охоронні чари було знову
зламано, але, насправді, на професорці Сіністрі було б застосовано
виманологію, і це __вона__ насправді скоїла вбивство.

// 16765
//“Unless that is precisely what the Dark Lord expects us to think,” said Severus
//Snape, his brow furrowed in concentration. “In which case he does have control
//of the wards, and Professor Sinistra will be innocent.”
-- Якщо тільки це не є в точності тим, що Темний Лорд очікує, що ми вирішимо,
-- сказав Северус Снейп, його брови зморщилися від концентрації. -- В такому
разі він справді має контроль над охоронними чарами, і професорка Сіністра
буде невинною.
//! hedrok: коли "Dark Lord" - про Волдеморта, то "Темний Лорд". Коли загальне,
//!         то "темний лорд".

// 16766
//“Does the Dark Lord __really__ use plots with that many levels of meta -”
-- Темний Лорд __справді__ використовує плани дій з такою великою кількістю
рівнів ме{stress}та...
//!hedrok: гм... мети-що? :)
//         Я й в оригіналі не дуже можу продовжити, хіба що якийсь
//         "metaplanning" У будь-якому разі я очікую на якесь слово, що
//         починається в перекладі з "мета".
//!hedrok: "levels" хочеться узгодити з 27:5582, тож ставлю "рівнів"

// 16767
//“Yes,” said Dumbledore and Severus.
-- Так, -- відповіли Дамблдор та Северус.

// 16768
//Harry nodded distantly. “Then this could be a setup to either make us think the
//wards are telling the truth when they’re lying, or a setup to make us think the
//wards are lying when they’re telling the truth, depending on what level the
//enemy expects us to reason at. But if the enemy is planning to make us trust
//the wards - we would have trusted the wards anyway, if we’d been given no
//reason to distrust them. So there’s no need to go to all the work of framing
//Professor Quirrell in a way that we would realize we were intended to discover,
//just to trick us into going meta -”
Гаррі відсторонено кивнув.

-- Тоді це може бути або сценарій, у якому ми повинні вирішити, що охоронні
чари кажуть нам правду, коли вони брешуть, або сценарій, у якому ми повинні
вирішити, що чари брешуть, коли вони нам кажуть правду, в залежності від рівня,
на якому, як наш ворог очікує, ми зупинимося. Але ж якщо ворог планує
примусити нас довіритися чарам... Ми би довірилися їм усе одно, за умови, що
ми не мали б жодної причини їм не довіряти. Тому немає потреби проходити
весь шлях, щоб підставити професора Квірела у такий спосіб, що ми мали б
збагнути, що ми й мали б за планом розкрити, щоб примусити нас заглибитися
у ме{stress}та...
//! kabakchey: мені не вистачає стеку це нормально перекласти...
//! hedrok: трохи перефразував, але ніби й нічого не було... Тільки що ж це за
//!         "meta"...

// 16769
//“Not so,” said Dumbledore. “If Voldemort has not fully mastered the wards, then
//the wards had to believe that some Professor’s hand was at work. Else they
//would have cried out at Miss Granger’s injury, and not only upon her death.”
-- Не зовсім так, -- заперечив Дамблдор. -- Якщо Волдеморт не повністю
заволодів охоронними чарами, тоді ці чари мали б вважати, що хтось із
професорського складу це вчинив. Інакше вони б спрацювали на травмуванні міс
Ґрейнджер, а не тільки після її смерті.

// 16770
//Harry reached up a hand and rubbed at his brow, just beneath his hair.
Гаррі підняв руку та почесав над бровою -- якраз під волоссям.

// 16771
//__Okay, serious question. If the enemy is that smart, why the heck am I
//still alive? Is it seriously that hard to poison someone, are there Charms and
//Potions and bezoars which can cure me of literally anything that could be
//slipped into my breakfast? ____Would the wards record it, trace the magic
//of the murderer?__
__Добренько, серйозне питання. Якщо ворог настільки розумний, якого біса я досі
живий? Це що -- насправді так важко когось отруїти? Чи існують чари та зілля,
що можуть зцілити мене від будь-чого, що могло б потрапити до мого сніданку?
Чи зафіксували б це охоронні чари, відстежили б слід магії вбивці?__

// 16772
//__Could my __scar__ contain the fragment of soul that’s keeping the
//Dark Lord anchored to the world, so he doesn’t want to kill me? Instead he’s
//trying to drive off all my friends to weaken my spirit so he can take over my
//body? It’d explain the Parselmouth thing. The Sorting Hat might not be able to
//detect a lich-phylactery-thingy. Obvious problem 1, the Dark Lord is supposed
//to have made his lich-phylactery-thingy in 1943 by killing whatshername and
//framing Mr. Hagrid. Obvious problem 2, there’s no such thing as souls.__
__Чи, можливо, мій __шрам__ містить фрагмент душі, що утримує Темного Лорда
на цьому світові так, що він не бажає мене вбивати? Натомість він намагається
відіслати усіх моїх друзів, щоб послабити мій дух настільки, що він зможе
взяти під контроль моє тіло? Це б пояснило справу з парселмовою. Сортувальний
капелюх може бути неспроможний виявляти філактерієво-лічеві штуки. Очевидна
проблема 1: темний лорд скоріш за все створив свою філактерієво-лічову штуку в
1943му році вбивши як-же-її-звали та підставивши містера Геґріда. Очевидна
проблема 2: не існує такої штуки, як душа.__
//! hedrok: я, звісно, не заперечую, що з "голко-чахликової штуки" посміявся.
//          Але є кілька але :) По-перше, наскільки мені відомо, "Чахлик
//          Невмирущій" - це такий саме витвір, як і "спалахуйка" для
//          запальнички й "розчепирка" для парасольки. Можу помилятися, але вікі
//          дає лише два варіанти:
//          https://uk.wikipedia.org/wiki/Кощій_Безсмертний та "Костій
//          Бездушний". Можемо, звісно, перекласни "голко-костієва штука"... Чи
//          зрозуміють це? "колко-кощієва"?..
//          Сам я перекладав тупо "філактерія ліча" (086:15325)
//          На вікі є: https://uk.wikipedia.org/wiki/Ліч_(фентазі)
//          Додаткова причини: це все ж таки Британія... Гаррі про Костія
//          Бездушного навряд чи знає...

// 16773
//__Though Dumbledore also thought that my blood was a key ingredient in a
//ritual to restore the Dark Lord’s full strength, which would require keeping me
//alive until then… now there’s a cheery thought.__
__Хоча Дамблдор також вважав, що моя кров є ключовим інгредієнтом для ритуалу
відновлення повної сили темного лорда, що вимагає тримати мене живим до того
моменту... О, нарешті підбадьорлива думка.__

// 16774
//“Well…” Harry said. “I’m sure of one thing.”
-- Що ж... -- мовив Гаррі. -- У одному я точно певен.

// 16775
//“And that is?”
-- І у чому ж?

// 16776
//“Neville needs to be taken out of Hogwarts __now. __He’s the obvious next
//target and no first-year student can survive this level of offense. We’re lucky
//Neville wasn’t assassinated yesterday evening, the enemy doesn’t have to wait
//until we’re finished mourning to make their next move.” __Why didn’t the
//enemy strike while we were distracted?__
-- Невіла треба забрати з Гоґвортсу __негайно__. Він -- очевидна наступна
мішень, і жоден першокласник не зможе пережити напад такої сили. Нам
пощастило, що Невіла не вбили вчора ввечері, -- ворогу не треба чекати, поки ми
вийдемо з трауру, щоб зробити наступний хід, -- __чому ворог не ударив,
доки ми думали про інше?__

// 16777
//Dumbledore exchanged glances with Severus, and then with the suddenly tight
//expression of Professor McGonagall. “Harry,” said the old wizard, “if you send
//all your friends away yourself, that is just the same as if Voldemort -”
Дамблдор обмінявся поглядами з Северусом і потім з несподівано стриманим
виразом професорки Макґонеґел.

-- Гаррі, -- почав старий чаклун, -- якщо ти відправиш від себе всіх своїх
друзів, це буде те ж саме, що і якби Волдеморт...

// 16778
//“I will be __fine__ I can do without Neville for a couple of extra months
//it’s not like you were planning to make my friends stay here over the summer
//and that is just plain __not sufficient justification__ to let him get
//killed! Professor McGonagall -”
-- Зі мною все буде __добре__. Я зможу прожити без Невіла декілька додаткових
місяців. Ви ж все одно не збиралися примусити залишитися всіх моїх друзів
на все літо, і, навіть якщо так, це __не є достатнім виправданням__ для того,
щоб дозволити вбити його. Професорко Макґонеґел...

// 16779
//“I quite agree,” said the Scottish witch. She frowned. “I extremely agree. I
//agree to the point where… I’m having some trouble figuring out how to express
//this, Albus…”
-- Я цілком згодна, -- перебила шотландська відьма. Вона нахмурилася. -- Я
надзвичайно згодна. Я згодна з цим настільки, що... Я не можу знайти спосіб
виразити це, Албусе...

// 16780
//“To the point where you’re going to haul him out of there yourself, regardless
//of what anyone else says, because it’s no excuse to say you were only following
//orders if Neville gets killed?” Harry said.
-- Настільки, що ви готові самостійно його вигнати, незважаючи на те, що
можуть подумати, бо сказати опісля, що ви лише виконували накази, не буде
виправданням, якщо Невіла вбʼють? -- допоміг Гаррі.

// 16781
//Professor McGonagall closed her eyes briefly. “Yes, but surely there ought to
//be some way to be responsible without threats of unilateral action.”
Професорка Макґонеґел на якусь мить заплющила очі.

-- Так, і, безсумнівно, має існувати спосіб бути відповідальним без
використання погроз односторонніх дій.

// 16782
//The Headmaster sighed. “No need. Go, Minerva.”
Директор зітхнув:

-- У цьому немає потреби. Іди, Мінерво.

// 16783
//“Wait,” the Potions Master said, just as Professor McGonagall, moving rather
//swiftly, was taking a pinch of green dust from the Floo-vase. “We should not
//call attention to the boy, as the Headmaster called attention to the Weasley
//twins. It would be wiser, I think, if Mr. Longbottom’s grandmother took him
//from Hogwarts. Let him stay in his Common Room for now; the Dark Lord does not
//seem able to act so openly.”
-- Чекайте, -- втрутився майстер зіллєваріння, якраз коли професорка
Макґонеґел, рухаючись поспіхом, потягла щіпку зеленого порошку флу з вази.
-- Нам не варто привертати увагу до хлопчика так, як директор привернув її до
близнюків Візлі. Було б мудріше, гадаю, якби бабуся містера Лонґботома
забрала його з Гоґвортсу. Нехай він поки що залишається у вітальні -- здається,
Темний Лорд не може діяти настільки відкрито.

// 16784
//There was another long exchange of glances among the four, and finally Harry
//nodded, followed by Professor McGonagall.
Знову був довгий обмін поглядами між ними чотирма, і, нарешті, Гаррі кивнув,
а за ним і професорка Макґонеґел.

// 16785
//“In that case,” said Harry, “I’m sure of one other thing.”
-- В такому разі, -- порушив тишу Гаррі. -- Я певен у ще одній речі.

// 16786
//“And that is?” said Dumbledore.
-- І в чому ж? -- перепитав Дамблдор.

// 16787
//“I very much need to visit the washroom, and I would also like to change out of
//these pyjamas.”
-- Мені конче потрібно відвідати вбиральню, і я з радістю змінив би цю піжаму
на щось інше.

***

// 16788
//“By the way,” Harry said as he and the Headmaster emerged from Floo into the
//empty office of the Ravenclaw Head of House. “One last quick question I wanted
//to ask just you. That sword the Weasley twins pulled out of the Sorting Hat.
//That was the Sword of Gryffindor, wasn’t it?”
-- Поміж іншим, -- почав Гаррі, коли вони виникли з флу у порожній кабінет
вихователя Рейвенклову. -- Одне швидке питання, що я хотів поставити вам наодинці.
Той меч, що близнюки Візлі витягли з Сортувального капелюха. То ж був меч
Ґрифіндора, чи не так?

// 16789
//The old wizard turned, face neutral. “What makes you think that, Harry?”
Старий чарівник повернувся, вираз його обличчя не змінився:

-- Що змусило тебе подумати таке, Гаррі?

// 16790
//“The Sorting Hat yelled__ Gryffindor!__ just before handing it out, the
//sword had a ruby pommel and gold letters on the blade, and the Latin script
//said __Nothing better__. Just a hunch.”
-- Сортувальний капелюх вигукнув "`Ґрифіндор!`" саме перед тим, як передати
його. Меч мав рубінове навершя та золотий напис на лезі, що латиною означає
"`Нічого краще`". Просто інтуїція.
//! kabakchey: Гасло?
//! hedrok: Ні. Сарказм :) Гаррі знущається: мовляв і "Ґрифіндор" вигукнули, і
//"nihil supremum" написали.

// 16791
//“__Nihil supernum,__” said the old wizard. “That is not __quite__
//what it means.”
//! kabakchey: 'nihil' з латини "нічого"; 'supernum' -- "надприродній".
//!            Гаррі неправильно переклав. Малося на увазі "Немає нічого
//!            надприродного".
//! hedrok: Це __не зовсім__ те ;) Читай за посиланням нижче.
// hedrok: Що насправді мається на увазі можна прочитати в 075:13325
-- __Nihil supernum,__ -- мовив старий чарівник. -- Це __не зовсім__ те, що
малося на увазі.

// 16792
//Harry nodded. “Mmhm. What’d you do with it?”
Гаррі кивнув:

-- Мгм. Що ви з ним зробили?

// 16793
//“I retrieved it from where it fell, and placed it in a secure place,” the old
//wizard said. He gave Harry a stern look. “I hope you are not greedy for it
//yourself, young Ravenclaw.”
-- Я забрав його там, де він упав, та сховав у безпечному місці, --
відповів старий чарівник. Він суворо поглянув на Гаррі. -- Сподіваюся, що ти
не жадаєш його для себе, юний рейвенкловцю?

// 16794
//“Not at all, just want to make sure you’re not keeping it permanently from its
//rightful wielders. So the Weasley twins are the Heir of Gryffindor, then?”
-- Зовсім ні, просто хочу переконатися, що ви не забрали його у законних
власників на постійній основі. То виходить, що близнюки Візлі -- спадкоємці
Ґрифіндора?
//! hedrok: Елізер вже познущався з "Heir of Hufflepuf" в 073:12900 (до речі
//!         дякую, я не помітив там помилку, коли вичитував, виправив у цьому PR)
//!         Як в каноні "Heir of Slytherin" - "спадкоємець Слизерина",
//!        так і тут має бути "спадкоємці Ґрифіндора".

// 16795
//“The Heir of Gryffindor?” Dumbledore said, looking surprised. Then the old
//wizard smiled, blue eyes twinkling brightly. “Ah, Harry, Salazar Slytherin may
//have built a Chamber of Secrets into Hogwarts, but Godric Gryffindor was not
//much given to such extravagances. We have seen only that Godric left his Sword
//to the defense of Hogwarts, if a worthy student ever faced a foe they could not
//defeat alone.”
-- Спадкоємці Ґрифіндора? -- перепитав Дамблдор, виглядаючи здивовано. Тоді
старий чаклун посміхнувся, блакитні очі замерехтіли. -- О, Гаррі, може Салазар
Слизерин і вбудував Таємну кімнату в Гоґвортс, але Ґодрик Ґрифіндор не був
схильний до такої екстравагантності. Ми ж бачили лише, що Ґодрик залишив
свого меча на захист Гоґвортсу на випадок, якщо гідний учень стикнеться з
ворогом, якого не зможе здолати наодинці.

// 16796
//“That’s not the same as saying no. Don’t think I didn’t notice that you didn’t
//actually say no.”
-- Це не теж саме, що просто сказати "`ні`". Не думайте, що я не помітив, що ви
так і не сказали "`ні`".

// 16797
//“I did not live in those years, Harry, and I do not know all that Godric
//Gryffindor may or may not have done -”
-- Я не жив у ті роки, Гаррі, і я не знаю всього, що Ґодрик Ґрифіндор міг
зробити чи не зробити...

// 16798
//“Do you in fact assign greater than fifty percent subjective probability that
//there is something like a Heir of Gryffindor and one or both Weasley twins are
//it. Yes or no, evasion means yes. You’re not going to succeed in distracting
//me, no matter how much I have to go to the bathroom.”
-- Чи ви приписуєте більше ніж пʼятдесят відсотків субʼєктивній
імовірності того, що існує щось на кшталт спадкоємця Ґрифіндора, і що один чи
обидва близнюки Візлі -- це вони. "`Так`" або "`ні`", ухиляння означатиме
"`так`". Вам не вдасться мене відволікти, незважаючи на те, наскільки сильно
мені треба відвідати вбиральню.

// 16799
//The old wizard sighed. “Yes, Fred and George Weasley are the Heir of
//Gryffindor. I beg you not to speak of it to them, not yet.”
Старий чаклун зітхнув:

-- Так, Фред та Джордж Візлі -- спадкоємці Ґрифіндора. Я благаю тебе не
розповідати їм цього -- ще зарано.

// 16800
//Harry nodded, and turned to go. “I’m surprised,” Harry said. “I read a little
//about Godric Gryffindor’s historical life. The Weasley twins are… well, they’re
//awesome in various ways, but they don’t seem much like the Godric in the
//history books.”
Гаррі кивнув та розвернувся, щоб піти.

-- Я здивований, -- промовив Гаррі. -- Я небагато читав про життя Ґодрика
Ґрифіндора. Близнюки Візлі -- вони... кльові у багатьох сенсах, але вони не
відповідають образу Ґодрика з історичних книжок.

// 16801
//“Only a man exceedingly proud and vain,” Dumbledore said quietly, as he turned
//back to the Floo roaring up again with green flames, “would believe that his
//heir should be like himself, rather than like who he wished that he could be.”
-- Тільки вкрай горда й пихата людина, -- тихо промовив Дамблдор,
повернувшись в бік флу, що вже розгорався зеленим полумʼям, -- вважатиме,
що його нащадки мають бути такими ж, як і він, а не такими,
яким він хотів би бути.

// 16802
//The Headmaster stepped into green fire, and was gone.
Директор ступив у зелений вогонь та зник.

***

// 16803
//__The second meeting (in a small cubby off the Hufflepuff Common Room):__
__Друга зустріч (у затишному закутку неподалік вітальні Гафелпафу):__

// 16804
//Neville Longbottom’s face was drawn up in anguish, as he spoke with no one to
//hear, to the empty air.
Обличчя Невіла Лонґботома скривилося наче від муки, коли він говорив у пустоту,
до порожнього повітря.

// 16805
//“Seriously,” the empty air said back to him. “I’m wearing an invisibility cloak
//with extra anti-detection charms just to walk through the hallways because
//__I__ don’t want to be killed. My parents would have me out of Hogwarts in
//an instant if the Headmaster allowed it. Neville, your getting the heck out of
//Hogwarts is common sense, it has __nothing to do__ with -”
-- Серйозно, -- відповіло йому порожнє повітря. -- Я закутався у
плащ-невидимку з додатковими проти-виявними чарами, щоб пройти коридорами, бо
не хочу, щоб __мене__ вбили. Мої батьки одразу б витягли мене з Гоґвортсу, якби
тільки директор дозволив. Невіле, те, що ти залишиш Гоґвортс, є здоровим
ґлуздом -- це не має __нічого спільного__ з...

// 16806
//“I betrayed you, General,” Neville said, his voice around as hollow as any
//normal eleven-year-old boy could reasonably manage. “I didn’t even do it the
//Chaotic way. I conformed to authority and tried to make you conform to
//authority too. What’s that you always say, about how in the Chaos Legion, a
//soldier who can only obey orders is useless?”
-- Я зрадив тебе, генерале, -- промовив Невіл голосом настільки глухим,
наскільки одинадцятирічний хлопчик тільки міг. -- Я навіть не діяв як хаосит.
Я підкорився авторитету та спробував примусити підкоритися й тебе. Як ти там
казав про те, що у Легіоні Хаосу солдат, що уміє тільки виконувати накази,
нічого не вартий?

// 16807
//“Neville,” the empty air said firmly. The pressure of two hands, beneath thin
//cloth, came firmly to bear on Neville’s shoulders; and the voice moved closer
//to him. “You weren’t blindly obeying authority, you were trying to protect me.
//It’s true that in this chaotic world, soldiers who can only follow rules and
//regulations are worthless. However, soldiers who follow rules for the sake of
//protecting their friends are -”
-- Невіле, -- твердо почало говорити порожнє повітря. Рішучий тиск двох рук
відчувся через тонку тканину на плечах Невіла. Голос присунувся ближче до нього.
-- Ти не сліпо підкорився авторитетові, ти намагався захистити мене. Це правда,
що у цьому хаотичному світі солдати, що тільки й можуть слідувати правилам та
наказам, нікчемні. Але солдати, хто слідують правилам заради захисту їхніх
друзів...

// 16808
//“Slightly better than worthless?” Neville said bitterly.
-- Трішки кращі, ніж нікчемні? -- гірко вимовив Невіл.

// 16809
//“__Significantly__ better than worthless. Neville, you made an error of
//judgment. It cost me around six seconds. Now it could be that Hermione’s
//injuries were just barely fatal, but even then, I don’t think six seconds was
//actually enough time for the troll to take an extra bite of Hermione. In the
//counterfactual world where you didn’t step in front of me, Hermione still died.
//Now, I could stand here listing out the first dozen ways that Hermione would be
//alive if I hadn’t been stupid -”
-- __Значно__ кращі, ніж нікчемні. Невіле, ти зробив помилку у судженнях. Це
коштувало мені приблизно шістьох секунд. Можливо, травми Герміони були б менш
фатальними, але навіть якщо так, я не думаю, що шести секунд вистачило б тролю,
щоб відкусити ще шмат від Герміони. У альтернативному світі, де ти мені не
перешкоджаєш, Герміона все одно помирає. У той же час, я можу не сходячи з місця
назвати перший десяток варіантів, при яких Герміона була б жива, якби я не був
дурним...

// 16810
//“You? __You__ ran right out after her. __I’m__ the one who tried to
//stop you. It’s my fault if it’s anyone’s,” Neville said bitterly.
-- Ти? Так __ти__ ж побіг одразу по неї. А __я__ -- той, хто намагався тебе
спинити. Якщо у цьому хтось і винен, то це я, -- гірко промовив Невіл.

// 16811
//The empty air went silent at this for a while.
Порожнє повітря затихло на мить.

// 16812
//“Wow,” the empty air finally said. “Wow. That puts a pretty different
//perspective on things, I have to say. I’m going to remember this the next time
//I feel an impulse to blame myself for something. Neville, the term in the
//literature for this is ‘egocentric bias’, it means that you experience
//everything about your own life but you don’t get to experience everything else
//that happens in the world. There was way, way more going on than you running in
//front of me. You’re going to spend weeks remembering that thing you did there
//for six seconds, I can tell, but nobody else is going to bother thinking about
//it. Other people spend a lot less time thinking about your past mistakes than
//you do, just because you’re not the center of their worlds. I
//__guarantee__ to you that nobody except you has even __considered__
//blaming Neville Longbottom for what happened to Hermione. Not for a fraction of
//a second. You are being, if you will pardon the phrase, a silly-dilly. Now shut
//up and say goodbye.”
// kabakchey: https://uk.wikipedia.org/wiki/Перелік_когнітивних_упереджень
-- Ого, -- нарешті заговорило порожнє повітря. -- Ого. Мушу сказати, що це
виставляє все у зовсім іншому світлі. Я спробую пригадати це наступного разу,
коли відчую потяг винити себе за щось. Невіле, термін з літератури для цього
-- "`егоцентричне упередження`". Він означає, що ти переживаєш все зі свого
життя, але ти не можеш переживати все, що відбувається в навколишньому світі. Тоді
відбувалося більше, значно більше усього, ніж просто твій виступ проти мене. Ти
будеш тижнями пригадувати те, що ти зробив протягом тих шести секунд, як я
бачу, але ніхто більше про це не думатиме. Інші люди проводять значно менше
часу, думаючи про твої помилки, ніж ти сам, тільки тому, що ти не є центром
їхніх світів. Я __гарантую__ тобі, що нікому, окрім тебе, навіть __на гадку не
спало__
звинуватити Невіла Лонґботома за те, що сталося з Герміоною. Ні на частку
секунди. Ти поводишся, якщо пробачиш мені цей вираз, як дурник маленький. А тепер
замовкни та прощаймося.
//! hedrok: "are being ... silly-dilly" - зараз поводиться.
//! hedrok: а от з "silly-dilly"

// 16813
//“I don’t want to say goodbye,” Neville said. His voice was trembling, but he
//managed not to cry. “I want to stay here and fight with you against - against
//whatever’s happening.”
-- Я не хочу прощатися, -- відповів Невіл. Його голос тремтів, але він
стримався, щоб не заплакати. -- Я хочу залишитися тут та разом з тобою битися
проти... проти всього, хай що тут не відбувається.

// 16814
//The empty air moved closer to him, and embraced him in a hug, and Harry
//Potter’s voice whispered, “Tough luck.”
Порожнє повітря наблизилося до нього та охопило обіймами, і голос Гаррі Поттера
прошепотів:

-- Не пощастило.
