// 19165
//== Shut Up and Do The Impossible
== Розділ 114. Замовкни й зроби неможливе, ч.1

// 19166
//The gibbous moon riding higher in the cloudless sky, the stars and wash of the
//Milky Way visible in all their majesty within the darkness, all these shone
//down upon the graveyard to bear witness from their unimaginable distances.
Круглий місяць у чистому небі, зірки та сяйво Чумацького шляху в усій
своїй величності серед оточуючої темряви, усе це освітлювало цвинтар, щоб
з неймовірної відстані стати свідками.

// 19167
//In the instant when Harry had realised there was no way at all left to save
//everyone, his mind’s voices had fallen away, become one, a single purpose
//taking up every fraction of his mind.
У мить, коли Гаррі зрозумів, що не існує жодного способу врятувати всіх,
голоси в його голові віддалилися, злившись в єдиний імпульс, що заполонив
усю його свідомість.

// 19168
//Fifty seconds.
Пʼятдесят секунд.

// 19169
//Forty seconds.
Сорок секунд.

// 19170
//Harry’s eyes tracked slowly across the air, until his gaze landed on the first
//Death Eater, the one closest to him.
Очі Гаррі повільно рухалися, поки його погляд не досяг першого смертежера,
найближчого до нього.

// 19171
//Thirty seconds?
Тридцять секунд?

// 19172
//Twenty seconds?
Двадцять секунд?

// 19173
//“__Time’ss almosst up -”__ hissed Voldemort.
-- __Часс майже вичерпано...__ -- просичав Волдеморт.

// 19174
//“__I do know ssecretss you would like to know,__” Harry hissed. He didn’t
//look directly at the Dark Lord as he spoke. ”__But mosst valuable
//knowledge to you, I think, would be my ideass ass to how world might be
//desstroyed. Yet, to tell you ssuch thoughtss might lead to desstruction of
//world. Do not know prophecy, but if there iss prophecy, that makess it more
//than ussually probable that any action I take might have that effect. Or to
//tell you ssuch might prevent desstruction of world, ssince you do sseem
//motivated to avoid it. Not allowed to make ssuch a decission mysself. Would
//need to awaken and conssult girl-child friend. Vow requiress.”__
-- __Я знаю ссекрети, шщо їх ви бажаєте знати__, -- зашипів Гаррі.
Він не дивився на Темного Лорда. -- __Але найбільшш цінним
знанням для васс, вважаю, будуть мої ідеї шщодо того, як можна знишщити
ссвіт. Однак, повідомлення вам цих ідей може призвессти до знишщення
ссвіту. Не знаю пророцтва, та якшщо воно ісснує, це робить
більшш імовірним, шщо якісь мої дії можуть призвессти
до такого результату. Або ж повідомлення вам цього може попередити знишщення
ссвіту, бо ви здаєтесся вмотивованим уникнути цього. Не маю дозволу
вирішшувати ссамосстійно. Потребую розбудити та проконссультуватисся
з дівчиною-подругою. Обітниця вимагає цього.__

// 19175
//There was a long pause. The Dark Lord, floating above and behind the curve of
//Death Eaters with leveled wands, began to laugh as Salazar Slytherin had
//thought a snake would laugh, cold amusement in the form of a hiss. “__Do
//you know how to desstroy world, then?__”
Запала довга тиша. Темний Лорд, літаючи над та позаду дуги смертежерів з
піднятими паличками, почав сміятися так, як Салазар Слизерин вважав, мають
сміятися змії: холодна потіха у формі сичання.

-- __А чи знаєшш ти нассправді, у який сспоссіб можна знишщити ссвіт?__

// 19176
//“__Cannot deliberately try to imagine method. You might have way for
//sservant to ssteal my thoughtss. Vow prohibitss. But ssusspect I could devisse
//method, if girl-child ssaid to try.__”
-- __Не можу ссвідомо сспробувати уявити такий метод. Ви можете мати
можливіссть за допомогою ссвоїх сслуг вкрассти мої думки. Обітниця забороняє.
Але підозрюю, шщо можу вигадати такий сспоссіб, якшщо дівчина-подруга
сскаже сспробувати.__

// 19177
//Harry’s eyes drifted slowly to another Death Eater, and another.
Погляд Гаррі повільно дрейфував до чергового смертежера і далі до ще одного.

// 19178
//More snakish laughter. “__Clever. You have my complimentss for thinking
//of ssuch tacticss. But no.__”
Знову зміїний сміх:

-- __Кмітливо. Отримай комплімент від мене за продумування такої тактики.
Але ні.__

// 19179
//“__Know it iss annoying, but with world and your eternity at sstake,
//would you not -”__
-- __Знаю, шщо це дратує, але за умови, шщо ссвіт та вашша вічніссть на
кону, чи не сспробували б ви...__

// 19180
//__“Greater rissk to world in introducing ssuch complicationss, delaying
//your end. I will sstudy Muggle ssciencess mysself, think of all you might
//imagine. Now sspeak ssuch ssecretss as you may tell me, or thiss endss.__”
-- __Більшший ризик для ссвіту у тому, шщоб вноссити такі сскладношщі,
відтягуючи твій кінець. Я вивчу маґлівсську науку ссамотужки, подумаю
про вссе, шщо ти міг би вигадати ссамосстійно. А тепер розказуй такі
ссекрети, шщо ти можешш мені розказати, інакшше вссе закінчиться зараз.__

// 19181
//Slowly Harry’s vision tracked across the graveyard in careful arcs, ignoring
//the Dark Lord except as a floating blackness in his peripheral vision. His
//mouth went on speaking with only half his attention. “__Have thought of
//idea you might not have conssidered, teacher. Your attempt to kill me might
//fail in certain sspecific way desspite all your precautionss, perhapss lead
//into my desstroying world later. Would not ordinarily deem probable, but with
//prophecy at hand, may well be sso.__”
Погляд Гаррі повільно просувався цвинтарем, старанно рухаючись
дугами, ігноруючи Темного Лорда, що для його периферійного зору виглядав
летючою чорною плямою. Його рот говорив далі, та Гаррі приділяв діалогу лише
половину уваги:

-- __Вигадав ідею, про яку ви можливо не подумали, учителю. Вашша сспроба
вбити мене може провалитисся у певний сспоссіб попри уссі запобіжні заходи та
призвессти до знишщення ссвіту пізнішше. Не здається дуже ймовірним, але,
враховуючи пророцтво, цілком можливо.__

// 19182
//Voldemort went still, in the air. “__How?__”
Волдеморт завмер в повітрі.

-- __Як ссаме?__

// 19183
//“__Am not obligated to tell you.__”
-- __Я не зобовʼязаний вам казати.__

// 19184
//A cold anger began to seethe through the snakish reply. “__Though I
//undersstand well your dessperation and attempted clevernesss, thiss beginss to
//annoy me. I will not withhold from killing you, for that iss sstill greater
//rissk. To fail to tell me your thought rissks desstroying world. Sspeak!__”
Холодний гнів просочувався крізь зміїну відповідь:

-- __Я добре розумію твій розпач та сспроби бути кмітливим, але це починає
дратувати. Я не відсступлюсся від намірів вбити тебе, бо це вссе шще було би
більшшим ризиком. Не повідомившши мені ссвої думки, ти ризикуєшш знишщити ссвіт.
Говори!__

// 19185
//“__No. Vow doess not obligate me to any possitive action.__”
-- __Ні. Обітниця не примушшує мене до будь-якої дії.__

// 19186
//The Dark Lord stared down at Harry Potter, who glanced up at the angry face
//only briefly before his eyes went back to the next Death Eater. Some of them
//were shifting their stances slightly, but they stood still, and said no words
//as they leveled their wands. The silver skull masks could not be read.
Темний Лорд витріщився на Гаррі Поттера, що на мить глянув у розлючене
обличчя перед тим, як його очі повернулися до наступного смертежера. Дехто з
них трішки ворушився, але всі стояли рівно з піднятими паличками, не
промовляючи ані слова. Срібні маски черепів не давали прочитати їхні вирази.

// 19187
//Then the Dark Lord began to chuckle again. “__Ssurvive your death, you
//think you might? No, child, my horcruxess are not linked to you alsso. I would
//know if they were. Or iss there other reasson you think you might ssurvive
//beyond my ways of enssuring your death?__”
Потім Темний Лорд знову зайшовся сміхом:

-- __Думаєшш, шщо ти зможешш пережити ссвою ссмерть? Ні, дитя, мої
горокраксси не повʼязані й з тобою теж. Я відчув би, якби це було так. Чи
ісснує шще якассь відома тобі можливіссть того, шщо ти можешш вижити попри
мої заходи з гарантування твоєї ссмерті?__

// 19188
//Harry didn’t allow himself to be distracted. The repeated failures didn’t
//matter, they only led into the next action in the chain - but he __still
//needed a next action__ -
Гаррі не дозволив собі відволіктися. Провал ще одного аргументу не мав
значення, він просто вів до наступної дії в послідовності... але __наступна
дія була потрібна__...

// 19189
//__“Now sspeak a ssecret,__” the Dark Lord hissed, ”__or I -”__
-- __Говори ссекрети зараз же__, -- прошипів темний лорд, -- __бо я...__

// 19190
//“__Life-eaterss will purssue you alwayss, hate you alwayss, sseek you out
//wherever you go, if what I have jusst done wass ssuccesssful, I have caused
//them to be set upon you! Guardian Charm ssecret will be beyond you for long
//time to come, perhapss forever! Besst defensse againsst life-eaterss would die
//with me!__”
-- __Життєжери завжди васс пересслідуватимуть, завжди будуть васс
ненавидіти, будуть вишшукувати васс, хай куди ви підете, якшщо вссе,
шщо я зараз зробив, було вдалим, то я повернув їх проти васс! Ссекрет
чарів охоронця шще довго не сстане вам відомий, можливо ніколи. Найкращий захист
проти життєжерів помре разом зі мною!__
//!hedrok: оригінально, але ні, Гаррі не пропонував Волдемортові самогубство :)

// 19191
//“__Thiss iss sstarting to become ssad…__” the Dark Lord’s voice trailed
//off. __“Ah. I ssee. Life-eaterss resspond to expectationss. You tell me I
//will be hunted, I expect to be hunted, they hunt me. Ssuch iss rare, but not
//unheard-of. Valuable ssecret, yess. Can ssee many ussess.”__ A cruel smile.
//“__I sshall allow you to sselect one persson to be ssaved.__”
-- __Це починає викликати жаль...__ -- голос Темного Лорда затих. -- __А. Я
зрозумів. Життєжери відповідають очікуванням. Ти кажешш мені, шщо мене
пересслідуватимуть, я очікую, шщо мене пересслідуватимуть, мене пересслідують.
Це не пошширено, але не нечувано. Цінний ссекрет, так. Бачу багато сспоссобів
викорисстання__, -- жорстока посмішка. -- __Я дозволяю тобі обрати одну людину
для порятунку.__

// 19192
//“__Mysself.__”
-- __Обираю ссебе.__

// 19193
//“__Would tell you to die with dignity, but knowing mysself, I know it for
//futility. You have wassted my kindly gift jusst then by annoying me, and I
//retract it. Any other ssecretss?__”
-- __Ссказав би тобі вмерти з гіднісстю, але ссам знаю, шщо це не має
ссенссу. Ти марно витратив мій шщедрий дарунок лишше роздратувавшши мене,
і я його відкликаю. Якіссь шще ссекрети?__

// 19194
//“__Yess. Really interessting oness, too. Ssome you are unlikely to figure
//out on your own, not for very long time if ever. If I ssay I have told you all
//that do not rissk world, will you not torment any of my friendss or family? All
//of thiss sspeech sstarted becausse you left me no way at all to ssave
//everyone.__”
-- __Так. По-ссправжньому цікаві теж. До деяких з них ви навряд чи зможете
дійти ссамотужки шще дуже довго, якшщо взагалі зможете. Якшщо я сскажу вам,
шщо вже повідомив уссе, шщо призводить до ризику знишщення ссвіту,
ви відмовитессь від планів катувати когоссь із моїх друзів чи ссімʼї?
Усся ця промова почаласся лишше через те, шщо ви зовссім не залишшили
мені жодного сспоссобу врятувати вссіх.__

// 19195
//The Dark Lord stood still in the air for a long moment.
Темний Лорд завмер у повітрі на якусь мить.

// 19196
//And Harry’s eyes went on tracking slowly across the graveyard, as his hand
//remained tight upon his wand.
Погляд Гаррі просувався далі через цвинтар, поки його рука міцно стискала
паличку.

// 19197
//In the instant when Harry had realized there was no way left to save everyone -
У мить, коли Гаррі зрозумів був, що не існує жодного способу врятувати всіх...

// 19198
//He couldn’t speak any incantation in English. But Transfiguration was wordless.
Він не міг промовляти жодних заклинань англійською. Але трансфігурація була
безмовна.

// 19199
//There was no material in contact with his wand’s end except air, which couldn’t
//be Transfigured. But Voldemort didn’t know about partial Transfiguration, which
//Harry could use to Transfigure a tiny bit of the material from his wand itself.
Не було жодного матеріалу, що торкався би кінця його палички, окрім повітря,
що не може бути трансфігуроване. Але Волдеморт не знав про часткову
трансфігурацію, яку Гаррі міг використати, щоб трансфігурувати дрібку
матеріалу самої палички.

// 19200
//“__You’re sstalling,”__ the Dark Lord said. “__Jusst to delay death?
//Or with other purposse?__”
-- __Ти тягнешш часс__, -- мовив Темний Лорд, -- __шщоб відклассти мить ссмерті?
Чи з іншшої причини?__

// 19201
//Harry said nothing, his other work slowing as his mind sought a continuation of
//the conversation that would work even against the Dark Lord’s will -
Гаррі нічого не відповів. Його робота пригальмувалася, поки його мозок
шукав спосіб продовжити розмову, що спрацював би проти волі Темного Лорда...

// 19202
//__“Sspeak and tell me purposse, or thiss endss now and your friendss
//suffer for lifetimess!__”
-- __Говори й сскажи мені ссвою мету, бо це закінчиться негайно, і твої друзі
сстраждатимуть до кінця ссвоїх життів!__

// 19203
//“__Lower Muggle weapon and do not point wand in my direction,__” Harry
//hissed, putting as much cold danger as he could into the snake’s voice.
//__“Sspeak no commandss to sservantss. I do posssesss capabilitiess of
//which you are ignorant. Can usse one ssuch capacity to causse huge explossion
//almosst insstantly, without sspeaking incantation. Sslay your new body, all
//sservantss, Sstone sscattered to who knowss where.__”
-- __Опуссти маґлівсську зброю та не вказуй паличкою в моєму напрямку__, --
прошипів Гаррі, вкладаючи якнайбільше небезпеки в зміїний голос. -- __Не
давай жодних команд ссвоїм сслугам. Я маю ссили та можливоссті, шщо тобі
невідомі. Я можу викорисстати таку ссилу, шщоб викликати миттєвий вибух,
не промовляючи заклять. Убʼю твоє нове тіло, вссіх твоїх сслуг, закину
Камінь хтозна куди.__
//! kabakchei: Вирішив, що тут варто перейти на "ти", бо Гаррі намагається
//!            залякати Волдеморта.
//! hedork: +1

// 19204
//At his current level of practice Harry could Transfigure one cubic millimeter
//as fast as he could apply his will and magic.
На його поточному рівні умінь, Гаррі міг трансфігурувати один кубічний
міліметр матерії настільки швидко, наскільки швидко він міг прикласти свою
волю та магію.

// 19205
//One cubic millimeter of antimatter.
Один кубічний міліметр антиматерії.

// 19206
//It wasn’t a world-ending threat.
Нічого такого, що могло би знищити світ.

// 19207
//Voldemort could have been carved from stone. “__You bluff, ssomehow.__”
Волдеморт був наче висічений з каменю:

-- __Ти якимоссь чином блефуєшш.__

// 19208
//“__Not bluffing. Sspeaking in ssnaketalk, I tell you, I can do it almosst
//insstantly, before any sspell can be casst at me, I think. You know very little
//of sscience ass yet. Power I would command iss sstronger than processs that
//fuelss sstarss.”__
-- __Не блефую. Розмовляю по-зміїному, кажу тобі, я можу це зробити майже
миттєво, думаю, шшвидшше ніж будь-яке закляття може бути сспрямоване у мене.
Ти шще знаєшш дуже мало про науку. Ссила, якою я керую, потужнішша
за процесси, шщо живлять ссамі зірки.__

// 19209
//“__Vow will sstop you,” __hissed Voldemort. “__You cannot rissk
//world. Take no risskss, none, with clever ideass!__”
-- __Обітниця зупинить тебе__, -- просичав Волдеморт. __Ти не можешш ризикувати
ссвітом. Ніяких ризиків, жодних кмітливих ідей.__

// 19210
//“__Would not rissk world. I esstimated ssize of explossion, nowhere near
//that large.__”
-- __Не ризикую ссвітом. Я оцінив розміри вибуху -- зовссім не такий великий.__

// 19211
//“__You do NOT know, fool! Cannot be SURE!__“Voldemort’s hiss was climbing
//higher.
-- __Ти ж НЕ знаєшш, дурню! Не можешш бути ВПЕВНЕНИМ!__ -- шипіння Волдеморта
ставало дедалі вищим.

// 19212
//“__I am reassonably certain. Vow will not sstop me.”__
-- __Я обґрунтовано впевнений. Обітниця не зупинить мене.__

// 19213
//There was an increasing fury in Voldemort’s expression, and yet his hiss
//carried a tinge of fear. __“I sshall wreak pain beyond imagining on all
//you care for -”__
У виразі Волдеморта наростала лють, і, все ж, його шипіння несло дрібку
страху:

-- __Я принессу невимовний біль уссім, про кого ти піклуєшшсся...__

// 19214
//__“Sshut up. I dissregard all ssuch threatss now, as theory of gamess
//ssayss I sshould. Only reasson you make threatss iss that you expect me to
//resspond.” __That, too, Harry had truly understood in the last extremity.
//__“Offer me ssomething I want, teacher. For your new body, for your
//continued holding of Sstone, for livess of your sservantss.__”
//! brownian: «як вимагає від мене/каже мені теорія ігор»?
//!           «згідно з вимогою теорії ігор»?
//! hedrok: переформулював.
-- __Замовкни. Тепер я відкидаю уссі ці погрози, як і вимагає від мене
теорія ігор. Ти погрожуєшш лише через те, шщо очікуєшш від мене певної
реакції__, -- це, поміж іншим, Гаррі по-справжньому зрозумів лише
в останню мить. -- __Запропонуй мені шщоссь, шщо мене цікавить, учителю.
За твоє тіло, за твою можливіссть і далі володіти Каменем, за життя
твоїх сслуг.__

// 19215
//Harry’s mouth was running on automatic, his real attention elsewhere.
Губи Гаррі рухалися автоматично. Його ж увага була прикута до іншого.

// 19216
//__Beneath the moonlight glints a tiny fragment of silver, a fraction of a
//line…_
//kabakchei: 001:30_
Місячне сяйво на якусь мить вихоплює з темряви тонкий поблиск срібла,
частинку лінії...

// 19217
//From a tiny spot on the end of Harry’s wand, a cubic millimeter of anchor,
//stretched out a thin line of Transfigured spider-silk. It would have broken at
//once, if tested; it would have gone unremarked, if any had noticed its glint.
//Less than a tenth of a millimeter in cross-section, the tiny shape represented
//by the extended line of spider-silk was something Harry could Transfigure
//swiftly, ten centimeters of length to a cubic millimeter of total volume; and
//Harry could Transfigure a cubic millimeter in a fraction of a second. He was
//forcing the Transfiguration outward, extending it through the air as fast as he
//could without risking the transformation.
З маленької точки на кінці Гарріної палички, кубічного міліметра, що служить
якорем, простяглася тонка лінія трансфігурованої нитки павучого шовку. Вона
миттєво би перервалася, якби до неї приклали навантаження. Її неможливо
було помітити, навіть якби хтось устиг угледіти її блиск. Менше
десятої частини міліметра у перерізі, крихітна, представлена витягнутою
ниткою павутини, вона була чимось, що Гаррі міг трансфігурувати швидко,
десять сантиметрів довжини до кубічного міліметра загального обʼєму, а Гаррі
міг трансфігурувати кубічний міліметр за частку секунди. Він трансфігурував
усе далі, витягуючи нитку у повітрі так швидко, як тільки міг без ризику
для перетворення.

// 19218
//The tracing line of spider-silk looped around a Death Eater’s hood at neck
//level, returned to the pattern of threads.
Лінія павучого шовку завернулася петлею довкола каптура смертежера на рівні
шиї та йшла далі.
//! kabakchei: не зміг перекласти другу половину...
//! hedrok: майже певен, мається на увазі самоперетин цієї ниті. Тож, як на
//!         мене, нормально переклав. Я лише трохи переформулював, як мені
//!         більше до вподоби.

// 19219
//Voldemort’s face was now impassive. __“You musst not leave here alive.
//Ssenssible people called good would alsso agree, thiss I tell you in ssnake’ss
//sspeech. But all your friendss I will treat kindly and protect under my reign,
//if you agree to die now ass good persson sshould.”__
Обличчя Волдеморта тепер не виражало жодних емоцій:

-- __Ти не можеш залишшити це міссце живим. Розумні добрі люди погодилисся би
з цим -- і я це кажу зміїною мовою. Але з уссіма твоїми друзями будуть
поводитисся добре та захишщати під моїм правлінням, якшщо ти погодишшсся
померти зараз, як хорошша людина зробила би.__
//! kabakchei: нетерпіння?
//! hedrok:    ні.

// 19220
//The last Death Eater was looped. The pattern of spider-silk was complete. The
//web had been drawn with loops around all the Death Eater’s necks. The ends of
//those loops had been anchored to a central circle; and that central circle in
//turn had three threads stretching across its center. The entire pattern still
//touching the anchor-line stretching out of Harry’s wand.
Останнього смертежера обхопила петля. Візерунок павутиння було завершено.
Воно лягло петлями навколо ший усіх смертежерів. Кінці кожної
петлі було прикріплено до центрального кола, а центральне коло у свою чергу
мало три нитки, що тяглися через його центр. Увесь візерунок торкався
якірної лінії, що витяглася з палички Гаррі.

// 19221
//Over the next seconds, those near-invisible threads of reflected moonlight
//turned black.
За наступні декілька секунд ці ледь видимі у відбитому місячному світлі лінії
почорніли.

// 19222
//Filaments narrower, stronger, and sharper than steel wire; braided carbon
//nanotubes, each individual tube all a single molecule.
Волокна тонкіші, міцніші та гостріші за сталевий дріт -- плетені
вуглецеві нанотрубки, кожна з яких була однією молекулою.

// 19223
//Harry hissed, “__Want you to alsso promisse to treat nationss kindly
//under your rule. Will not accept lesss.”__
Гаррі зашипів:

-- __Також я хочу, шщоб ти пообіцяв, шщо будешш поводитисся добре з уссіма
націями під ссвоїм правлінням. Меншшого я не прийму.__

// 19224
//Voldemort hovered still in the air, snake-face showing a dawning fury.
Волдеморт досі зависав у повітрі. Зміїне обличчя запалало люттю.

// 19225
//The last two threads stretched out from the dark pattern, black theads already
//in the form of nanotubes. They moved lightly through the air toward the Dark
//Lord himself, toward the sleeve just above Voldemort’s left hand that held the
//gun, toward the sleeve above the right hand that held the yew wand, threads
//placed high at first to give them time to drift slowly downward through the
//air. The threads looped around, went over themselves, tied slippable knots.
//Began to tighten, coming closer to the sleeve, as Harry Transfigured them
//shorter -
Останні дві лінії витяглися з темного павутиння, чорні нитки вже у формі
нанотрубок. Вони потяглися у повітрі до самого Темного Лорда, до рукава якраз
над лівою рукою Волдеморта, що тримала пістолет, та до рукава над правою рукою,
що стискала паличку. Павутинки розмістилися спершу високо, щоб мати час
повільно опуститися у повітрі. Лінії закрутилися у петлі, звʼязалися одна
з одною ковзаючим вузлом. Вони почали затягуватися, стаючи ближче до рукава,
поки Гаррі трансфігурував їх коротшими.

// 19226
//Harry felt the tickle of Voldmort’s power beginning to touch his own in the
//back of his mind; at the same time the Dark Lord’s eyes widened, his mouth
//opened.
Гаррі у фоні відчув лоскіт сили Волдеморта, що почала торкатися його власної.
Водночас очі Темного Лорда розширилися, рот відкрився.

// 19227
//And Harry Transfigured the black threads stretching across the black pattern’s
//center to a quarter their previous size, shrinking the circle, yanking hard on
//everything attached, tightening loops.
І Гаррі трансфігурував чорні нитки, що тяглися через центр чорного візерунку
до чверті їхнього попереднього розміру, скорочуючи коло, сильно смикаючи усе,
що було прикріплене, затягуючи петлі.

// 19228
//__(Black robes, falling.)__
//kabakchei: 001:31
__(падають чорні мантії)__

// 19229
//Harry wasn’t looking there, he didn’t see the falling masks, the blood, in the
//back of his mind he felt some explosions of magic like he’d felt when Hermione
//died but he ignored them, Harry’s eyes only saw the Dark Lord’s hands and wand
//and gun dropping downward, and then Harry’s wand was rising, pointing -
Гаррі не дивився у той бік, він не бачив падаючих масок, крові. Десь у фоні
він відчув вибухи магії: такі ж, як він відчув, коли Герміона загинула,
але він проігнорував їх. Очі Гаррі бачили лише, як руки темного лорда з
паличкою та пістолетом падають вниз. І тоді Гаррі здійняв паличку догори,
націлюючись...

// 19230
//Harry screamed, __“STUPORFY!__”
Гаррі закричав:

-- __Закляртос!__

// 19231
//The red bolt the color of the Stunning Hex winged toward Voldemort, blazing
//across the graveyard almost faster than the eye could see.
Червона блискавка приголомшливого закляття вилетіла вбік Волдеморта,
стрімко рухаючись цвинтарем, -- швидше ніж око може бачити.

// 19232
//Without any hesitation despite his wounds the Dark Lord jerked down and right
//through the air.
Майже без затримки Темний Лорд попри поранення смикнувся у повітрі
вниз та вправо.

// 19233
//And the red bolt from Professor Flitwick’s secret Swerving Stunner turned in
//midair and slammed into Voldemort.
І червона блискавка від секретного хисткого приголомшувача професора Флитвіка
повернулася в повітрі й врізалася у Волдеморта.

// 19234
//The pain that flashed through Harry’s scar was searing, it made him cry out and
//a red haze appear across his vision, despite everything Harry dropped his wand
//in pain and sheer fatigue.
Пекучий біль пронизав шрам Гаррі, примусивши того заплакати, і червона імла
залила його зір, попри все, Гаррі упустив паличку через біль та
втому.

// 19235
//As Harry let go of his wand, the pain began to clear -
Щойно Гаррі відпустив паличку, біль почав ущухати...

// 19236
//**The next chapter will post in 10 minutes.**
